<?xml version="1.0" encoding="UTF-8" standalone="no"?>
<!-- Created with Inkscape (http://www.inkscape.org/) -->

<svg
   inkscape:export-ydpi="180"
   inkscape:export-xdpi="180"
   inkscape:export-filename="/home/pinheiro/pics/oxygen-icons/scalable/mimetypes/small/32x32/application-vnd.oasis.opendocument.spreadsheet.png"
   inkscape:output_extension="org.inkscape.output.svgz.inkscape"
   sodipodi:docname="application-vnd.ms-excel.template.macroenabled.12.svg"
   version="1.0"
   inkscape:version="1.2.2 (b0a8486541, 2022-12-01)"
   sodipodi:version="0.32"
   id="svg2606"
   height="128"
   width="128"
   xmlns:inkscape="http://www.inkscape.org/namespaces/inkscape"
   xmlns:sodipodi="http://sodipodi.sourceforge.net/DTD/sodipodi-0.dtd"
   xmlns:xlink="http://www.w3.org/1999/xlink"
   xmlns="http://www.w3.org/2000/svg"
   xmlns:svg="http://www.w3.org/2000/svg"
   xmlns:rdf="http://www.w3.org/1999/02/22-rdf-syntax-ns#"
   xmlns:cc="http://creativecommons.org/ns#"
   xmlns:dc="http://purl.org/dc/elements/1.1/">
  <defs
     id="defs2608">
    <linearGradient
       inkscape:collect="always"
       id="linearGradient4664">
      <stop
         style="stop-color:#eeeeee;stop-opacity:1"
         offset="0"
         id="stop4666" />
      <stop
         style="stop-color:#eeeeee;stop-opacity:0"
         offset="1"
         id="stop4668" />
    </linearGradient>
    <linearGradient
       id="linearGradient6131">
      <stop
         id="stop6133"
         offset="0"
         style="stop-color:#fcfcfc;stop-opacity:1" />
      <stop
         style="stop-color:#f8f8f8;stop-opacity:1"
         offset="0.52275378"
         id="stop6135" />
      <stop
         id="stop6141"
         offset="0.77457333"
         style="stop-color:#f0efef;stop-opacity:1;" />
      <stop
         id="stop6139"
         offset="0.90122044"
         style="stop-color:#e3e1e1;stop-opacity:1;" />
      <stop
         id="stop6137"
         offset="1"
         style="stop-color:#cecbcb;stop-opacity:1" />
    </linearGradient>
    <linearGradient
       inkscape:collect="always"
       xlink:href="#linearGradient6131"
       id="linearGradient3893"
       gradientUnits="userSpaceOnUse"
       gradientTransform="matrix(1.0119858,0,0,1.0119858,-0.89554075,-0.9871566)"
       x1="86.73793"
       y1="93.621468"
       x2="95.460213"
       y2="102.34375" />
    <radialGradient
       inkscape:collect="always"
       xlink:href="#linearGradient3913-5"
       id="radialGradient3919-5"
       cx="90.75"
       cy="110.25299"
       fx="90.75"
       fy="110.25299"
       r="18.750002"
       gradientTransform="matrix(1.3067347,0,0,1.3067347,-27.83617,-33.818441)"
       gradientUnits="userSpaceOnUse" />
    <linearGradient
       inkscape:collect="always"
       id="linearGradient3913-5">
      <stop
         style="stop-color:#ffffff;stop-opacity:1;"
         offset="0"
         id="stop3915-4" />
      <stop
         style="stop-color:#ffffff;stop-opacity:0;"
         offset="1"
         id="stop3917-7" />
    </linearGradient>
    <clipPath
       clipPathUnits="userSpaceOnUse"
       id="clipPath3889-6">
      <path
         sodipodi:nodetypes="cscscssc"
         inkscape:connector-curvature="0"
         id="path3891-5"
         d="m 112,82.502986 c 0,4.465301 -2.79749,6.409952 -5.27972,8.093625 -5.10854,3.46508 -14.939114,3.32536 -20.720284,3.40638 -0.081,5.781159 0.16586,15.504599 -3.29922,20.613139 -1.68367,2.48224 -5.29051,5.38687 -8.20078,5.38687 2.31803,0 4.74284,-1.33476 7.58402,-4.08481 9.14197,-8.84873 17.36714,-16.13535 25.673154,-25.297529 C 109.67612,88.503916 112,86.97878 112,82.502986 z"
         style="fill:url(#linearGradient3893);fill-opacity:1;stroke:none" />
    </clipPath>
    <linearGradient
       inkscape:collect="always"
       xlink:href="#linearGradient3897-7"
       id="linearGradient3895-3"
       gradientUnits="userSpaceOnUse"
       gradientTransform="matrix(1.3731411,0,0,1.4035776,-41.378546,-43.42319)"
       x1="82.15696"
       y1="90.381706"
       x2="94.220871"
       y2="102.18401" />
    <linearGradient
       id="linearGradient3897-7">
      <stop
         style="stop-color:#fcfcfc;stop-opacity:1"
         offset="0"
         id="stop3899-4" />
      <stop
         id="stop3901-5"
         offset="0.52275378"
         style="stop-color:#f8f8f8;stop-opacity:1" />
      <stop
         style="stop-color:#f0efef;stop-opacity:1;"
         offset="0.72337759"
         id="stop3903-2" />
      <stop
         style="stop-color:#e3e1e1;stop-opacity:1;"
         offset="0.89024991"
         id="stop3905-5" />
      <stop
         style="stop-color:#cecbcb;stop-opacity:1"
         offset="1"
         id="stop3907-4" />
    </linearGradient>
    <clipPath
       clipPathUnits="userSpaceOnUse"
       id="clipPath6093-7">
      <path
         inkscape:connector-curvature="0"
         sodipodi:nodetypes="cccssccc"
         id="path6095-4"
         d="m 17.000001,8 0.782827,110 57.5,0 c 1.675283,0 3.119418,0.18058 4.9,-1.6 C 88.980763,107.60206 99.94047,96.548195 107.19904,89.224043 109.6396,86.761431 110,84.752873 110,82.5 L 110,8 z"
         style="fill:#ffffff;fill-opacity:1" />
    </clipPath>
    <radialGradient
       inkscape:collect="always"
       xlink:href="#linearGradient5982-7"
       id="radialGradient5988-0"
       cx="64"
       cy="64.004021"
       fx="63.793392"
       fy="47.274845"
       r="47.5"
       gradientTransform="matrix(1.7069944,-0.08541345,0.06979496,1.3941371,-50.362376,-20.218185)"
       gradientUnits="userSpaceOnUse" />
    <linearGradient
       inkscape:collect="always"
       id="linearGradient5982-7">
      <stop
         style="stop-color:#007a11;stop-opacity:1"
         offset="0"
         id="stop5984-8" />
      <stop
         style="stop-color:#007a11;stop-opacity:0.18619393"
         offset="1"
         id="stop5986-6" />
    </linearGradient>
    <linearGradient
       inkscape:collect="always"
       xlink:href="#linearGradient4518-3"
       id="linearGradient4524-4"
       x1="72"
       y1="0"
       x2="72"
       y2="116.40091"
       gradientUnits="userSpaceOnUse"
       gradientTransform="matrix(1.013528,0,0,1.013266,-1.5133685,-1.3073648)" />
    <linearGradient
       id="linearGradient4518-3">
      <stop
         style="stop-color:#eeecec;stop-opacity:1"
         offset="0"
         id="stop4520-1" />
      <stop
         id="stop5969-4"
         offset="0.40000001"
         style="stop-color:#f4f4f4;stop-opacity:1" />
      <stop
         style="stop-color:#f6f5f5;stop-opacity:1"
         offset="1"
         id="stop4522-9" />
    </linearGradient>
    <linearGradient
       id="XMLID_67_-5"
       gradientUnits="userSpaceOnUse"
       x1="153"
       y1="79.556602"
       x2="153"
       y2="76.444199"
       gradientTransform="translate(-143,-64)">
      <stop
         offset="0"
         style="stop-color:#FFFFFF"
         id="stop284-5" />
      <stop
         offset="1"
         style="stop-color:#DDDDDD"
         id="stop286-4" />
    </linearGradient>
    <linearGradient
       id="XMLID_68_-7"
       gradientUnits="userSpaceOnUse"
       x1="154.1006"
       y1="79.100601"
       x2="151.9005"
       y2="76.900497"
       gradientTransform="translate(-143,-64)">
      <stop
         offset="0"
         style="stop-color:#eaeaea;stop-opacity:1;"
         id="stop291-6" />
      <stop
         offset="1"
         style="stop-color:#616161"
         id="stop293-56" />
    </linearGradient>
    <linearGradient
       inkscape:collect="always"
       xlink:href="#XMLID_67_-5"
       id="linearGradient3324"
       gradientUnits="userSpaceOnUse"
       gradientTransform="translate(-143,-64)"
       x1="153"
       y1="79.556602"
       x2="153"
       y2="76.444199" />
    <linearGradient
       inkscape:collect="always"
       xlink:href="#XMLID_68_-7"
       id="linearGradient3326"
       gradientUnits="userSpaceOnUse"
       gradientTransform="translate(-143,-64)"
       x1="154.1006"
       y1="79.100601"
       x2="151.9005"
       y2="76.900497" />
    <linearGradient
       inkscape:collect="always"
       xlink:href="#XMLID_67_-5"
       id="linearGradient3328"
       gradientUnits="userSpaceOnUse"
       gradientTransform="translate(-143,-64)"
       x1="153"
       y1="79.556602"
       x2="153"
       y2="76.444199" />
    <linearGradient
       inkscape:collect="always"
       xlink:href="#XMLID_68_-7"
       id="linearGradient3330"
       gradientUnits="userSpaceOnUse"
       gradientTransform="translate(-143,-64)"
       x1="154.1006"
       y1="79.100601"
       x2="151.9005"
       y2="76.900497" />
    <linearGradient
       inkscape:collect="always"
       xlink:href="#XMLID_67_-5"
       id="linearGradient3400"
       gradientUnits="userSpaceOnUse"
       gradientTransform="translate(-143,-64)"
       x1="153"
       y1="79.556602"
       x2="153"
       y2="76.444199" />
    <linearGradient
       inkscape:collect="always"
       xlink:href="#XMLID_68_-7"
       id="linearGradient3402"
       gradientUnits="userSpaceOnUse"
       gradientTransform="translate(-143,-64)"
       x1="154.1006"
       y1="79.100601"
       x2="151.9005"
       y2="76.900497" />
    <linearGradient
       inkscape:collect="always"
       xlink:href="#XMLID_67_-5"
       id="linearGradient3404"
       gradientUnits="userSpaceOnUse"
       gradientTransform="translate(-143,-64)"
       x1="153"
       y1="79.556602"
       x2="153"
       y2="76.444199" />
    <linearGradient
       inkscape:collect="always"
       xlink:href="#XMLID_68_-7"
       id="linearGradient3406"
       gradientUnits="userSpaceOnUse"
       gradientTransform="translate(-143,-64)"
       x1="154.1006"
       y1="79.100601"
       x2="151.9005"
       y2="76.900497" />
    <linearGradient
       inkscape:collect="always"
       xlink:href="#XMLID_67_-5"
       id="linearGradient3408"
       gradientUnits="userSpaceOnUse"
       gradientTransform="translate(-143,-64)"
       x1="153"
       y1="79.556602"
       x2="153"
       y2="76.444199" />
    <linearGradient
       inkscape:collect="always"
       xlink:href="#XMLID_68_-7"
       id="linearGradient3411"
       gradientUnits="userSpaceOnUse"
       gradientTransform="translate(-143,-64)"
       x1="154.1006"
       y1="79.100601"
       x2="151.9005"
       y2="76.900497" />
    <linearGradient
       inkscape:collect="always"
       xlink:href="#XMLID_67_-5"
       id="linearGradient3413"
       gradientUnits="userSpaceOnUse"
       gradientTransform="translate(-143,-64)"
       x1="153"
       y1="79.556602"
       x2="153"
       y2="76.444199" />
    <linearGradient
       inkscape:collect="always"
       xlink:href="#XMLID_68_-7"
       id="linearGradient3415"
       gradientUnits="userSpaceOnUse"
       gradientTransform="translate(-143,-64)"
       x1="154.1006"
       y1="79.100601"
       x2="151.9005"
       y2="76.900497" />
    <linearGradient
       inkscape:collect="always"
       xlink:href="#XMLID_67_-5"
       id="linearGradient3418"
       gradientUnits="userSpaceOnUse"
       gradientTransform="translate(-143,-64)"
       x1="153"
       y1="79.556602"
       x2="153"
       y2="76.444199" />
    <linearGradient
       inkscape:collect="always"
       xlink:href="#XMLID_68_-7"
       id="linearGradient3420"
       gradientUnits="userSpaceOnUse"
       gradientTransform="translate(-143,-64)"
       x1="154.1006"
       y1="79.100601"
       x2="151.9005"
       y2="76.900497" />
    <linearGradient
       inkscape:collect="always"
       xlink:href="#XMLID_67_-5"
       id="linearGradient3422"
       gradientUnits="userSpaceOnUse"
       gradientTransform="translate(-143,-64)"
       x1="153"
       y1="79.556602"
       x2="153"
       y2="76.444199" />
    <linearGradient
       inkscape:collect="always"
       xlink:href="#XMLID_68_-7"
       id="linearGradient3425"
       gradientUnits="userSpaceOnUse"
       gradientTransform="translate(-143,-64)"
       x1="154.1006"
       y1="79.100601"
       x2="151.9005"
       y2="76.900497" />
    <filter
       color-interpolation-filters="sRGB"
       id="filter4460"
       inkscape:label="filter4"
       x="0"
       y="0"
       width="1"
       height="1">
      <feBlend
         blend="normal"
         id="feBlend4462"
         in2="SourceGraphic"
         mode="multiply" />
    </filter>
    <linearGradient
       id="XMLID_39_"
       gradientUnits="userSpaceOnUse"
       x1="60.125"
       y1="12"
       x2="60.125"
       y2="20">
      <stop
         offset="0"
         style="stop-color:#7db1ff;stop-opacity:1;"
         id="stop62" />
      <stop
         offset="1"
         style="stop-color:#BFD9FF"
         id="stop64" />
    </linearGradient>
    <linearGradient
       id="XMLID_40_"
       gradientUnits="userSpaceOnUse"
       x1="68.209"
       y1="12"
       x2="68.209"
       y2="20">
      <stop
         offset="0"
         style="stop-color:#ffffff"
         id="stop69" />
      <stop
         offset="1"
         style="stop-color:#fafafa"
         id="stop71" />
    </linearGradient>
    <linearGradient
       id="XMLID_41_"
       gradientUnits="userSpaceOnUse"
       x1="28"
       y1="68.208"
       x2="16"
       y2="68.208">
      <stop
         offset="0"
         style="stop-color:#E0E0E0"
         id="stop76" />
      <stop
         offset="1"
         style="stop-color:#D4D4D4"
         id="stop78" />
    </linearGradient>
    <linearGradient
       id="XMLID_42_"
       gradientUnits="userSpaceOnUse"
       x1="28"
       y1="24.4585"
       x2="16"
       y2="24.4585">
      <stop
         offset="0"
         style="stop-color:#80b3ff;stop-opacity:1;"
         id="stop83" />
      <stop
         offset="1"
         style="stop-color:#BFD9FF"
         id="stop85" />
    </linearGradient>
    <linearGradient
       inkscape:collect="always"
       xlink:href="#XMLID_40_"
       id="linearGradient4538"
       x1="28"
       y1="70"
       x2="48"
       y2="70"
       gradientUnits="userSpaceOnUse" />
    <linearGradient
       inkscape:collect="always"
       xlink:href="#XMLID_40_"
       id="linearGradient4654"
       gradientUnits="userSpaceOnUse"
       gradientTransform="translate(0,4)"
       x1="28"
       y1="70"
       x2="48"
       y2="70" />
    <linearGradient
       inkscape:collect="always"
       xlink:href="#linearGradient4664"
       id="linearGradient4670"
       x1="28"
       y1="112"
       x2="28"
       y2="124"
       gradientUnits="userSpaceOnUse" />
    <filter
       inkscape:collect="always"
       style="color-interpolation-filters:sRGB"
       id="filter4872"
       x="-0.028898487"
       y="-0.02413357"
       width="1.057797"
       height="1.0482671">
      <feGaussianBlur
         inkscape:collect="always"
         stdDeviation="1.1999176"
         id="feGaussianBlur4874" />
    </filter>
    <filter
       inkscape:collect="always"
       style="color-interpolation-filters:sRGB"
       id="filter5127"
       x="-0.17816366"
       y="-0.19515831"
       width="1.3563273"
       height="1.3903166">
      <feGaussianBlur
         inkscape:collect="always"
         stdDeviation="2.9620678"
         id="feGaussianBlur5129" />
    </filter>
    <linearGradient
       inkscape:collect="always"
       xlink:href="#linearGradient4108-2-7"
       id="linearGradient5238"
       gradientUnits="userSpaceOnUse"
       gradientTransform="matrix(-5.7802922e-8,1.071378,-1.3223767,-4.6831426e-8,72.873849,-69.138566)"
       x1="173.99409"
       y1="38.901901"
       x2="173.99409"
       y2="35.901901" />
    <linearGradient
       gradientTransform="rotate(90,56.000248,-14.000251)"
       y2="29.9995"
       x2="86"
       y1="31.9995"
       x1="86"
       gradientUnits="userSpaceOnUse"
       id="linearGradient4108-2-7">
      <stop
         id="stop4110-0-6"
         style="stop-color:#4E3E27;fill-opacity:1.0;fill:url(#linearGradient20836)"
         offset="0" />
      <stop
         id="stop4112-6-1"
         style="stop-color:#816840;fill-opacity:1.0;fill:url(#linearGradient20836)"
         offset="1" />
    </linearGradient>
    <linearGradient
       inkscape:collect="always"
       xlink:href="#linearGradient4108-2-7"
       id="linearGradient5240"
       gradientUnits="userSpaceOnUse"
       gradientTransform="matrix(-5.7802922e-8,1.071378,-1.3223767,-4.6831426e-8,72.873849,-69.752196)"
       x1="154.08009"
       y1="38.964401"
       x2="154.08009"
       y2="35.964401" />
    <linearGradient
       inkscape:collect="always"
       xlink:href="#linearGradient4108-2-7"
       id="linearGradient5242"
       gradientUnits="userSpaceOnUse"
       gradientTransform="matrix(-5.7802922e-8,1.071378,-1.3223767,-4.6831426e-8,72.753077,-69.956736)"
       x1="134.0137"
       y1="38.964401"
       x2="134.0137"
       y2="35.964401" />
    <linearGradient
       inkscape:collect="always"
       xlink:href="#linearGradient4108-2-7"
       id="linearGradient5244"
       gradientUnits="userSpaceOnUse"
       gradientTransform="matrix(-5.7802922e-8,1.071378,-1.3223767,-4.6831426e-8,72.753077,-71.870356)"
       x1="114.0479"
       y1="38.901901"
       x2="114.0479"
       y2="35.901901" />
    <linearGradient
       inkscape:collect="always"
       xlink:href="#linearGradient4108-2-7"
       id="linearGradient5246"
       gradientUnits="userSpaceOnUse"
       gradientTransform="matrix(-5.7802922e-8,1.071378,-1.3223767,-4.6831426e-8,72.632309,-70.979436)"
       x1="93.830101"
       y1="38.5513"
       x2="93.830101"
       y2="35.964401" />
    <linearGradient
       inkscape:collect="always"
       xlink:href="#linearGradient4098-8-3"
       id="linearGradient5248"
       gradientUnits="userSpaceOnUse"
       gradientTransform="matrix(-5.7802922e-8,1.071378,-1.3223767,-4.6831426e-8,73.115389,-69.779436)"
       x1="74.001999"
       y1="38.799301"
       x2="74.001999"
       y2="35.901901" />
    <linearGradient
       gradientTransform="rotate(90,56.000248,-14.000251)"
       y2="29.9995"
       x2="82"
       y1="31.9995"
       x1="82"
       gradientUnits="userSpaceOnUse"
       id="linearGradient4098-8-3">
      <stop
         id="stop4100-9-2"
         style="stop-color:#4E3E27;fill-opacity:1.0;fill:url(#linearGradient20844)"
         offset="0" />
      <stop
         id="stop4102-2-1"
         style="stop-color:#816840;fill-opacity:1.0;fill:url(#linearGradient20844)"
         offset="1" />
    </linearGradient>
    <linearGradient
       inkscape:collect="always"
       xlink:href="#linearGradient13867-5-0"
       id="linearGradient7261"
       gradientUnits="userSpaceOnUse"
       gradientTransform="rotate(90,56.000248,-14.000251)"
       x1="126"
       y1="30.0005"
       x2="126"
       y2="34.0005" />
    <linearGradient
       id="linearGradient13867-5-0"
       gradientUnits="userSpaceOnUse"
       x1="126"
       y1="30.0005"
       x2="126"
       y2="34.0005"
       gradientTransform="rotate(90,56.000248,-14.000251)">
      <stop
         offset="0"
         style="stop-color:#ddc98f;stop-opacity:1;"
         id="stop13869-0-7" />
      <stop
         offset="1"
         style="stop-color:#f4eab9;stop-opacity:1;"
         id="stop13871-4-5" />
    </linearGradient>
    <linearGradient
       inkscape:collect="always"
       xlink:href="#linearGradient6060-8-8"
       id="linearGradient7198"
       gradientUnits="userSpaceOnUse"
       gradientTransform="matrix(-5.8654442e-8,1.071378,-1.3418571,-4.6831426e-8,68.373181,-70.979436)"
       x1="126"
       y1="41.9995"
       x2="126"
       y2="29.9995" />
    <linearGradient
       id="linearGradient6060-8-8"
       gradientUnits="userSpaceOnUse"
       x1="126"
       y1="41.9995"
       x2="126"
       y2="29.9995"
       gradientTransform="rotate(90,56.000248,-14.000251)">
      <stop
         offset="0"
         style="stop-color:#A58B5A"
         id="stop6064-7-7" />
      <stop
         offset="0.5444"
         style="stop-color:#C5AB6D"
         id="stop6066-1-0" />
    </linearGradient>
    <filter
       color-interpolation-filters="sRGB"
       height="1.0271843"
       y="-0.013592145"
       width="1.2884904"
       x="-0.14424522"
       id="filter5394"
       inkscape:collect="always">
      <feGaussianBlur
         id="feGaussianBlur5396"
         stdDeviation="0.61164653"
         inkscape:collect="always" />
    </filter>
  </defs>
  <sodipodi:namedview
     id="base"
     pagecolor="#ffffff"
     bordercolor="#666666"
     borderopacity="1.0"
     inkscape:pageopacity="0.0"
     inkscape:pageshadow="2"
     inkscape:zoom="7.9999999"
     inkscape:cx="68.812501"
     inkscape:cy="38.6875"
     inkscape:document-units="px"
     inkscape:current-layer="layer1"
     width="128px"
     height="128px"
     showgrid="true"
     inkscape:grid-points="true"
     showguides="true"
     inkscape:guide-bbox="true"
     inkscape:window-width="1870"
     inkscape:window-height="1043"
     inkscape:window-x="0"
     inkscape:window-y="0"
     inkscape:snap-global="true"
     inkscape:window-maximized="1"
     inkscape:snap-page="true"
     inkscape:showpageshadow="2"
     inkscape:pagecheckerboard="0"
     inkscape:deskcolor="#d1d1d1">
    <inkscape:grid
       id="GridFromPre046Settings"
       type="xygrid"
       originx="0"
       originy="0"
       spacingx="4"
       spacingy="4"
       color="#0000ff"
       empcolor="#0000ff"
       opacity="0.2"
       empopacity="0.4"
       empspacing="2"
       visible="true"
       enabled="true"
       snapvisiblegridlinesonly="true" />
    <sodipodi:guide
       orientation="1,0"
       position="-68,29.325902"
       id="guide4564"
       inkscape:locked="false" />
    <sodipodi:guide
       orientation="1,0"
       position="-121.62237,135.0574"
       id="guide3859"
       inkscape:locked="false" />
    <sodipodi:guide
       orientation="0,1"
       position="38.581514,-74.688154"
       id="guide4360"
       inkscape:locked="false" />
  </sodipodi:namedview>
  <metadata
     id="metadata2611">
    <rdf:RDF>
      <cc:Work
         rdf:about="">
        <dc:format>image/svg+xml</dc:format>
        <dc:type
           rdf:resource="http://purl.org/dc/dcmitype/StillImage" />
      </cc:Work>
    </rdf:RDF>
  </metadata>
  <g
     inkscape:label="Livello 1"
     inkscape:groupmode="layer"
     id="layer1">
    <path
       style="display:inline;opacity:0.456067;fill:#000000;fill-opacity:1"
       d="M 13.333,5.3364 V 123.6668 L 63.1875,123.6 c 2.115554,-0.003 4.528919,-1.77169 7,-4.25 0.71234,-0.71442 1.440746,-1.39395 2.15625,-2.09375 0.415612,-0.40649 0.832187,-0.81443 1.25,-1.21875 7.773958,-7.40962 26.98341,-25.122599 34.21875,-33.099999 0.42065,-0.42064 0.81207,-0.8111 1.15625,-1.1875 1.46444,-1.49766 2.76158,-2.8378 2.99375,-5.8625 L 112,75.156251 111.9972,5.3364 Z"
       id="path5990"
       inkscape:connector-curvature="0"
       sodipodi:nodetypes="ccsssccccccc"
       transform="matrix(1.013528,0,0,1.013266,-1.5133689,-1.3073677)" />
    <path
       sodipodi:type="inkscape:offset"
       inkscape:radius="-0.31466308"
       inkscape:original="M 13.1875 4.53125 C 12.818918 4.609246 12.529956 4.967008 12.53125 5.34375 L 12.53125 123.65625 C 12.53885 124.07954 12.920464 124.4611 13.34375 124.46875 L 62.15625 124.46875 C 63.930251 124.46875 65.829207 124.74865 68.6875 122.8125 C 68.829003 122.58432 71.218784 120.82456 70.53125 121.25 C 80.188854 112.07585 98.162197 92.41186 109.34375 81.09375 C 111.06182 79.375681 112.8125 77.674752 112.8125 73.3125 L 112.8125 5.34375 C 112.80483 4.9204809 112.42327 4.5388981 112 4.53125 L 13.34375 4.53125 C 13.29182 4.52633 13.239428 4.52633 13.1875 4.53125 z "
       style="display:inline;fill:#000000;fill-opacity:1;filter:url(#filter4872)"
       id="path3314"
       d="m 13.246094,4.84375 c -0.208011,0.048165 -0.401122,0.2851257 -0.400391,0.4980469 a 0.31469455,0.31469455 0 0 1 0,0.00195 v 118.30664 c 0.0043,0.23765 0.266208,0.49961 0.503906,0.50391 H 62.15625 c 1.805649,0 3.560459,0.28929 6.349609,-1.59766 0.03711,-0.0388 0.07201,-0.0851 0.121094,-0.12891 0.08359,-0.0745 0.188131,-0.16299 0.306641,-0.25976 0.23702,-0.19354 0.528336,-0.42124 0.792968,-0.62891 0.247159,-0.19396 0.457425,-0.36019 0.583985,-0.46484 a 0.31469455,0.31469455 0 0 1 0.0039,-0.0527 c 9.63616,-9.15378 27.613554,-28.820625 38.804687,-40.148433 a 0.31469455,0.31469455 0 0 1 0.002,-0.002 c 1.72022,-1.720217 3.37696,-3.28053 3.37696,-7.558594 V 5.3496094 C 112.49374,5.111926 112.2318,4.8499975 111.99414,4.8457031 H 13.34375 a 0.31469455,0.31469455 0 0 1 -0.0293,-0.00195 c -0.0225,-0.00213 -0.04572,-8.527e-4 -0.06836,0 z"
       transform="matrix(1.013528,0,0,1.013266,-1.5133689,-1.3073677)" />
    <path
       style="display:inline;fill:#007a11;fill-opacity:1"
       d="m 12,4 v 120 h 49.999784 c 1.697965,0 3.967298,-0.57754 7.094784,-3.68191 8.990151,-8.92376 32.510002,-32.235741 39.866862,-39.726545 2.47359,-2.518643 3.04157,-4.572903 3.04157,-6.87703 L 112,4 Z"
       id="path34"
       sodipodi:nodetypes="cccssccc"
       inkscape:connector-curvature="0" />
    <path
       style="fill:url(#linearGradient4524-4);fill-opacity:1"
       d="M 15.506762,7 C 15.162322,7 15,7.2377304 15,7.5066333 L 15,119.48009 c 0,0.83248 0.688512,1.5205 1.520292,1.51991 l 44.959416,-0.0317 c 0.05379,-4e-5 0.821348,0.0237 1.520292,0.0317 1.801712,-0.0406 3.174343,-0.76374 4.414963,-1.61442 C 68.481059,119.09069 97.540465,90.697457 106.78496,81.385896 108.1658,79.995068 109,77.38535 109,76.425341 L 109,7.5066332 C 109,7.179635 108.83457,7 108.49323,7 z"
       id="path3967"
       inkscape:connector-curvature="0"
       sodipodi:nodetypes="ccsssccscccc" />
    <path
       sodipodi:nodetypes="ccssscccccc"
       inkscape:connector-curvature="0"
       id="path5980"
       d="M 15.506762,7 C 15.162322,7 15,7.2377304 15,7.5066333 L 15,119.48009 c 0,0.83249 0.688527,1.51486 1.520292,1.51991 l 46.845657,0.2846 c 0.05379,3.3e-4 3.318172,-0.008 4.017117,5e-5 6.629458,-4.5634 31.077115,-31.337425 40.143354,-40.458653 0.66623,-0.74707 0.46379,-0.37498 1.47358,-1.628786 L 109,7.5066332 C 109,7.179635 108.83457,7 108.49323,7 z"
       style="opacity:0.84653476;fill:url(#radialGradient5988-0);fill-opacity:1" />
    <g
       id="g4626"
       transform="translate(0,-8)">
      <rect
         y="80"
         x="24"
         height="4"
         width="76"
         id="rect4513"
         style="fill:#ffffff;fill-opacity:0.48984191;stroke:none" />
      <rect
         transform="scale(1,-1)"
         y="-92"
         x="100"
         height="72"
         width="4"
         id="rect4501"
         style="fill:#ffffff;fill-opacity:0.48984191;stroke:none" />
      <g
         transform="translate(4,0)"
         id="g4517">
        <rect
           style="fill:#ffffff;fill-opacity:0.48984191;stroke:none"
           id="rect4503"
           width="47.9375"
           height="4"
           x="24"
           y="96" />
      </g>
      <rect
         y="36"
         x="28"
         height="76"
         width="20"
         id="rect4530"
         style="opacity:0.5399061;fill:url(#linearGradient4654);fill-opacity:1;stroke:none" />
      <rect
         y="20"
         x="24.0625"
         height="108"
         width="3.9375"
         id="rect3729"
         style="fill:url(#linearGradient4670);fill-opacity:1;stroke:none" />
      <rect
         style="fill:#ffffff;fill-opacity:0.48984191;stroke:none"
         id="rect4499"
         width="79.9375"
         height="4"
         x="24.0625"
         y="20" />
      <rect
         y="32"
         x="24.0625"
         height="4"
         width="79.9375"
         id="rect4505"
         style="fill:#ffffff;fill-opacity:0.48984191;stroke:none" />
      <rect
         style="fill:#ffffff;fill-opacity:0.48984191;stroke:none"
         id="rect4507"
         width="79.9375"
         height="4"
         x="24.0625"
         y="48" />
      <rect
         y="64"
         x="24"
         height="4"
         width="79.9375"
         id="rect4509"
         style="fill:#ffffff;fill-opacity:0.48984191;stroke:none" />
      <g
         id="g4520"
         transform="matrix(0.9178618,0,0,1,5.9713168,16)">
        <rect
           y="96"
           x="24"
           height="4"
           width="47.9375"
           id="rect4522"
           style="fill:#ffffff;fill-opacity:0.48984191;stroke:none" />
      </g>
      <rect
         style="fill:#ffffff;fill-opacity:0.48984191;stroke:none"
         id="rect4524"
         width="3.9375"
         height="108"
         x="44"
         y="20" />
      <rect
         y="20"
         x="72"
         height="76"
         width="3.9375"
         id="rect4526"
         style="fill:#ffffff;fill-opacity:0.48984191;stroke:none" />
      <rect
         y="24"
         x="76"
         height="8"
         width="24"
         id="rect4540"
         style="fill:#fcfcfd;fill-opacity:1;stroke:none" />
      <rect
         style="fill:#fbfcff;fill-opacity:1;stroke:none"
         id="rect4542"
         width="24"
         height="8"
         x="48"
         y="24" />
      <rect
         y="36"
         x="28"
         height="12"
         width="16"
         id="rect4544"
         style="fill:#fbfcff;fill-opacity:1;stroke:none" />
      <rect
         y="20"
         x="44"
         height="32"
         width="4"
         id="rect4546"
         style="fill:#09620b;fill-opacity:1;stroke:none" />
      <rect
         style="fill:#b1d0ff;fill-opacity:1;stroke:none"
         id="rect4548"
         width="4"
         height="20"
         x="24"
         y="32" />
      <rect
         y="20"
         x="72"
         height="16"
         width="4"
         id="rect4550"
         style="fill:#09620b;fill-opacity:1;stroke:none" />
      <rect
         transform="matrix(0,1,-1,0,0,0)"
         style="fill:#09620b;fill-opacity:1;stroke:none"
         id="rect4552"
         width="4"
         height="24"
         x="20"
         y="-72" />
      <rect
         y="-72"
         x="32"
         height="44"
         width="4"
         id="rect4554"
         style="fill:#09620b;fill-opacity:1;stroke:none"
         transform="matrix(0,1,-1,0,0,0)" />
      <rect
         transform="matrix(0,1,-1,0,0,0)"
         style="fill:#09620b;fill-opacity:1;stroke:none"
         id="rect4556"
         width="4"
         height="16"
         x="48"
         y="-44" />
      <rect
         y="36"
         x="72"
         height="16"
         width="4"
         id="rect4558"
         style="fill:#262626;fill-opacity:0.45142858;stroke:none" />
      <rect
         style="fill:#262626;fill-opacity:0.45142858;stroke:none"
         id="rect4560"
         width="28"
         height="4"
         x="48"
         y="48" />
      <rect
         y="48"
         x="72"
         height="8"
         width="8"
         id="rect4562"
         style="fill:#7b7b7b;fill-opacity:1;stroke:none" />
    </g>
    <path
       style="fill:#000000"
       d=""
       id="path2197" />
    <path
       sodipodi:nodetypes="cscscc"
       inkscape:connector-curvature="0"
       id="path6081"
       d="m 105.22827,82.357963 c -9.954523,1.754732 -7.096888,2.909982 -11.054931,3.483912 -8.46502,1.22746 -16.731954,1.175669 -24.384474,1.285399 -0.10722,7.82958 0.971204,19.795976 -3.615516,26.714606 -2.22867,3.36177 -0.130564,4.44921 7.181506,4.94273 13.398426,-13.09459 23.044571,-22.776542 31.873415,-36.426647 z"
       style="display:inline;opacity:0.492958;mix-blend-mode:normal;fill:#000000;fill-opacity:1;stroke:none;stroke-width:1.33892;filter:url(#filter5127)"
       clip-path="none" />
    <path
       clip-path="url(#clipPath6093-7)"
       style="display:none;opacity:0.34728;fill:#000000;fill-opacity:1;stroke:none"
       d="m 114.4,82.502986 c 0,4.465301 -6.19771,3.506816 -8.67994,5.190489 -5.10854,3.46508 -20.174689,2.225237 -25.955859,2.306257 -0.081,5.781159 0.786541,16.143798 0.786541,22.293818 0,2.97817 -3.440475,11.20945 -6.350745,11.20945 -2.091359,1.5337 3.488204,8.21101 6.734971,5.31989 9.501888,-8.46107 35.131682,-30.022704 43.350822,-39.262889 2.04044,-2.29392 -4.90514,-9.844666 -9.88579,-7.057015 z"
       id="path6153"
       inkscape:connector-curvature="0"
       sodipodi:nodetypes="cscscssc"
       transform="matrix(1.2713893,0,0,1.3008089,-31.411352,-31.072453)" />
    <path
       style="display:inline;fill:url(#linearGradient3895-3);fill-opacity:1;stroke:none"
       d="m 111.80692,72.373791 c 0,6.193164 -3.79585,8.890306 -7.16393,11.225476 C 97.711316,88.405175 83.444341,87.387629 75.6,87.5 c -0.109909,8.0182 0.701692,21.4147 -4,28.5 -2.284534,3.44276 -6.727129,8.38457 -10.67601,8.38457 3.145284,0 6.435454,-1.85125 10.290589,-5.66544 12.404537,-12.27278 23.56509,-22.378984 34.835341,-35.086504 2.60379,-2.935824 5.757,-5.051122 5.757,-11.258835 z"
       id="path6011"
       inkscape:connector-curvature="0"
       sodipodi:nodetypes="cscscssc" />
    <path
       style="display:inline;fill:#ffffff;fill-opacity:1;stroke:none"
       d="m 111.83234,71.941762 c -0.42932,5.407885 -4.39696,7.298568 -6.55729,8.796367 C 100.15305,84.28932 93.349113,84 72,84 c 0,19.65502 0.5,28.4 -3.219913,33.20293 -2.21447,2.85919 -6.648335,6.04727 -10.26176,6.86542 4.951272,0 8.407066,-1.08166 11.641616,-4.28186 0.460141,-0.53889 1.37925,-1.54169 2.101048,-2.68043 C 76.100178,111.32051 76,99.904353 76,88 c 7.844341,-0.112342 21.630839,1.155905 28.5625,-3.65 0.63154,-0.437847 2.56984,-2.009889 3.13546,-2.57551 3.14173,-3.14173 3.82294,-5.144366 4.13438,-9.832728 z M 58.518327,124.06835 c -0.213922,0.0483 -0.425295,0.0575 -0.636038,0.0866 0.213019,-0.0234 0.421235,-0.0465 0.636038,-0.0866 z"
       id="path6122"
       inkscape:connector-curvature="0"
       sodipodi:nodetypes="cscsccccsscccc" />
    <path
       style="display:none;fill:none;stroke:url(#radialGradient3919-5);stroke-width:1.85606;stroke-linecap:butt;stroke-linejoin:miter;stroke-miterlimit:4;stroke-dasharray:none;stroke-opacity:1"
       d="M 108.97651,89.508691 79.934895,118.21077"
       id="path3873"
       inkscape:connector-curvature="0"
       sodipodi:nodetypes="cc"
       clip-path="url(#clipPath3889-6)"
       transform="matrix(1.3568778,0,0,1.3869539,-40.163409,-42.054049)" />
    <g
       id="g7065"
       transform="matrix(1.6332228,0,0,1.6332228,-16.104505,-6.6414215)">
      <circle
         transform="matrix(0.87121524,0,0,0.87121524,12.358158,0.48176727)"
         d="m 12,14 c 0,1.104569 -0.895431,2 -2,2 -1.1045695,0 -2,-0.895431 -2,-2 0,-1.104569 0.8954305,-2 2,-2 1.104569,0 2,0.895431 2,2 z"
         sodipodi:ry="2"
         sodipodi:rx="2"
         sodipodi:cy="14"
         sodipodi:cx="10"
         style="fill:url(#linearGradient3324);stroke-width:0.1;stroke-miterlimit:4;stroke-dasharray:none"
         cx="10"
         cy="14"
         r="2"
         id="circle7067" />
      <circle
         transform="matrix(1.0007524,0,0,1.0007524,11.062783,-1.3317548)"
         d="m 11.556,14 c 0,0.859355 -0.696645,1.556 -1.556,1.556 -0.8593551,0 -1.556,-0.696645 -1.556,-1.556 0,-0.859355 0.6966449,-1.556 1.556,-1.556 0.859355,0 1.556,0.696645 1.556,1.556 z"
         sodipodi:ry="1.556"
         sodipodi:rx="1.556"
         sodipodi:cy="14"
         sodipodi:cx="10"
         style="fill:url(#linearGradient3326);stroke-width:0.1;stroke-miterlimit:4;stroke-dasharray:none"
         cx="10"
         cy="14"
         r="1.556"
         id="circle7069" />
    </g>
    <g
       transform="matrix(1.9147851,0,0,1.9147856,-22.037116,-10.442805)"
       id="g3862">
      <circle
         id="circle3864"
         r="2"
         cy="14"
         cx="10"
         style="fill:url(#linearGradient3328);stroke-width:0.1;stroke-miterlimit:4;stroke-dasharray:none"
         sodipodi:cx="10"
         sodipodi:cy="14"
         sodipodi:rx="2"
         sodipodi:ry="2"
         d="m 12,14 c 0,1.104569 -0.895431,2 -2,2 -1.1045695,0 -2,-0.895431 -2,-2 0,-1.104569 0.8954305,-2 2,-2 1.104569,0 2,0.895431 2,2 z"
         transform="matrix(0.87121524,0,0,0.87121524,12.358158,0.48176727)" />
      <circle
         id="circle3866"
         r="1.556"
         cy="14"
         cx="10"
         style="fill:url(#linearGradient3330);stroke-width:0.1;stroke-miterlimit:4;stroke-dasharray:none"
         sodipodi:cx="10"
         sodipodi:cy="14"
         sodipodi:rx="1.556"
         sodipodi:ry="1.556"
         d="m 11.556,14 c 0,0.859355 -0.696645,1.556 -1.556,1.556 -0.8593551,0 -1.556,-0.696645 -1.556,-1.556 0,-0.859355 0.6966449,-1.556 1.556,-1.556 0.859355,0 1.556,0.696645 1.556,1.556 z"
         transform="matrix(1.0007524,0,0,1.0007524,11.062783,-1.3317548)" />
    </g>
    <g
       id="g3914"
       transform="matrix(1.9147851,0,0,1.9147856,-22.137116,5.8390966)">
      <circle
         transform="matrix(0.87121524,0,0,0.87121524,12.358158,0.48176727)"
         d="m 12,14 c 0,1.104569 -0.895431,2 -2,2 -1.1045695,0 -2,-0.895431 -2,-2 0,-1.104569 0.8954305,-2 2,-2 1.104569,0 2,0.895431 2,2 z"
         sodipodi:ry="2"
         sodipodi:rx="2"
         sodipodi:cy="14"
         sodipodi:cx="10"
         style="fill:url(#linearGradient3400);stroke-width:0.1;stroke-miterlimit:4;stroke-dasharray:none"
         cx="10"
         cy="14"
         r="2"
         id="circle3916" />
      <circle
         transform="matrix(1.0007524,0,0,1.0007524,11.062783,-1.3317548)"
         d="m 11.556,14 c 0,0.859355 -0.696645,1.556 -1.556,1.556 -0.8593551,0 -1.556,-0.696645 -1.556,-1.556 0,-0.859355 0.6966449,-1.556 1.556,-1.556 0.859355,0 1.556,0.696645 1.556,1.556 z"
         sodipodi:ry="1.556"
         sodipodi:rx="1.556"
         sodipodi:cy="14"
         sodipodi:cx="10"
         style="fill:url(#linearGradient3402);stroke-width:0.1;stroke-miterlimit:4;stroke-dasharray:none"
         cx="10"
         cy="14"
         r="1.556"
         id="circle3918" />
    </g>
    <g
       transform="matrix(1.9147851,0,0,1.9147856,-22.137116,22.221)"
       id="g3924">
      <circle
         id="circle3926"
         r="2"
         cy="14"
         cx="10"
         style="fill:url(#linearGradient3404);stroke-width:0.1;stroke-miterlimit:4;stroke-dasharray:none"
         sodipodi:cx="10"
         sodipodi:cy="14"
         sodipodi:rx="2"
         sodipodi:ry="2"
         d="m 12,14 c 0,1.104569 -0.895431,2 -2,2 -1.1045695,0 -2,-0.895431 -2,-2 0,-1.104569 0.8954305,-2 2,-2 1.104569,0 2,0.895431 2,2 z"
         transform="matrix(0.87121524,0,0,0.87121524,12.358158,0.48176727)" />
      <circle
         id="circle3928"
         r="1.556"
         cy="14"
         cx="10"
         style="fill:url(#linearGradient3406);stroke-width:0.1;stroke-miterlimit:4;stroke-dasharray:none"
         sodipodi:cx="10"
         sodipodi:cy="14"
         sodipodi:rx="1.556"
         sodipodi:ry="1.556"
         d="m 11.556,14 c 0,0.859355 -0.696645,1.556 -1.556,1.556 -0.8593551,0 -1.556,-0.696645 -1.556,-1.556 0,-0.859355 0.6966449,-1.556 1.556,-1.556 0.859355,0 1.556,0.696645 1.556,1.556 z"
         transform="matrix(1.0007524,0,0,1.0007524,11.062783,-1.3317548)" />
    </g>
    <g
       id="g3942"
       transform="matrix(1.9147851,0,0,1.9147856,-22.237116,37.902903)">
      <circle
         transform="matrix(0.87121524,0,0,0.87121524,12.358158,0.48176727)"
         d="m 12,14 c 0,1.104569 -0.895431,2 -2,2 -1.1045695,0 -2,-0.895431 -2,-2 0,-1.104569 0.8954305,-2 2,-2 1.104569,0 2,0.895431 2,2 z"
         sodipodi:ry="2"
         sodipodi:rx="2"
         sodipodi:cy="14"
         sodipodi:cx="10"
         style="fill:url(#linearGradient3408);stroke-width:0.1;stroke-miterlimit:4;stroke-dasharray:none"
         cx="10"
         cy="14"
         r="2"
         id="circle3944" />
      <circle
         transform="matrix(1.0007524,0,0,1.0007524,11.062783,-1.3317548)"
         d="m 11.556,14 c 0,0.859355 -0.696645,1.556 -1.556,1.556 -0.8593551,0 -1.556,-0.696645 -1.556,-1.556 0,-0.859355 0.6966449,-1.556 1.556,-1.556 0.859355,0 1.556,0.696645 1.556,1.556 z"
         sodipodi:ry="1.556"
         sodipodi:rx="1.556"
         sodipodi:cy="14"
         sodipodi:cx="10"
         style="fill:url(#linearGradient3411);stroke-width:0.1;stroke-miterlimit:4;stroke-dasharray:none"
         cx="10"
         cy="14"
         r="1.556"
         id="circle3946" />
    </g>
    <g
       transform="matrix(1.9147851,0,0,1.9147856,-22.337116,54.184806)"
       id="g3952">
      <circle
         id="circle3954"
         r="2"
         cy="14"
         cx="10"
         style="fill:url(#linearGradient3413);stroke-width:0.1;stroke-miterlimit:4;stroke-dasharray:none"
         sodipodi:cx="10"
         sodipodi:cy="14"
         sodipodi:rx="2"
         sodipodi:ry="2"
         d="m 12,14 c 0,1.104569 -0.895431,2 -2,2 -1.1045695,0 -2,-0.895431 -2,-2 0,-1.104569 0.8954305,-2 2,-2 1.104569,0 2,0.895431 2,2 z"
         transform="matrix(0.87121524,0,0,0.87121524,12.358158,0.48176727)" />
      <circle
         id="circle3956"
         r="1.556"
         cy="14"
         cx="10"
         style="fill:url(#linearGradient3415);stroke-width:0.1;stroke-miterlimit:4;stroke-dasharray:none"
         sodipodi:cx="10"
         sodipodi:cy="14"
         sodipodi:rx="1.556"
         sodipodi:ry="1.556"
         d="m 11.556,14 c 0,0.859355 -0.696645,1.556 -1.556,1.556 -0.8593551,0 -1.556,-0.696645 -1.556,-1.556 0,-0.859355 0.6966449,-1.556 1.556,-1.556 0.859355,0 1.556,0.696645 1.556,1.556 z"
         transform="matrix(1.0007524,0,0,1.0007524,11.062783,-1.3317548)" />
    </g>
    <g
       id="g3962"
       transform="matrix(1.9147851,0,0,1.9147856,-22.037116,69.966708)">
      <circle
         transform="matrix(0.87121524,0,0,0.87121524,12.358158,0.48176727)"
         d="m 12,14 c 0,1.104569 -0.895431,2 -2,2 -1.1045695,0 -2,-0.895431 -2,-2 0,-1.104569 0.8954305,-2 2,-2 1.104569,0 2,0.895431 2,2 z"
         sodipodi:ry="2"
         sodipodi:rx="2"
         sodipodi:cy="14"
         sodipodi:cx="10"
         style="fill:url(#linearGradient3418);stroke-width:0.1;stroke-miterlimit:4;stroke-dasharray:none"
         cx="10"
         cy="14"
         r="2"
         id="circle3964" />
      <circle
         transform="matrix(1.0007524,0,0,1.0007524,11.062783,-1.3317548)"
         d="m 11.556,14 c 0,0.859355 -0.696645,1.556 -1.556,1.556 -0.8593551,0 -1.556,-0.696645 -1.556,-1.556 0,-0.859355 0.6966449,-1.556 1.556,-1.556 0.859355,0 1.556,0.696645 1.556,1.556 z"
         sodipodi:ry="1.556"
         sodipodi:rx="1.556"
         sodipodi:cy="14"
         sodipodi:cx="10"
         style="fill:url(#linearGradient3420);stroke-width:0.1;stroke-miterlimit:4;stroke-dasharray:none"
         cx="10"
         cy="14"
         r="1.556"
         id="circle3966" />
    </g>
    <g
       transform="matrix(1.9147851,0,0,1.9147856,-22.137116,86.148612)"
       id="g3972">
      <circle
         id="circle3974"
         r="2"
         cy="14"
         cx="10"
         style="fill:url(#linearGradient3422);stroke-width:0.1;stroke-miterlimit:4;stroke-dasharray:none"
         sodipodi:cx="10"
         sodipodi:cy="14"
         sodipodi:rx="2"
         sodipodi:ry="2"
         d="m 12,14 c 0,1.104569 -0.895431,2 -2,2 -1.1045695,0 -2,-0.895431 -2,-2 0,-1.104569 0.8954305,-2 2,-2 1.104569,0 2,0.895431 2,2 z"
         transform="matrix(0.87121524,0,0,0.87121524,12.358158,0.48176727)" />
      <circle
         id="circle3976"
         r="1.556"
         cy="14"
         cx="10"
         style="fill:url(#linearGradient3425);stroke-width:0.1;stroke-miterlimit:4;stroke-dasharray:none"
         sodipodi:cx="10"
         sodipodi:cy="14"
         sodipodi:rx="1.556"
         sodipodi:ry="1.556"
         d="m 11.556,14 c 0,0.859355 -0.696645,1.556 -1.556,1.556 -0.8593551,0 -1.556,-0.696645 -1.556,-1.556 0,-0.859355 0.6966449,-1.556 1.556,-1.556 0.859355,0 1.556,0.696645 1.556,1.556 z"
         transform="matrix(1.0007524,0,0,1.0007524,11.062783,-1.3317548)" />
    </g>
    <rect
       id="rect4373"
       height="95.5"
       width="1"
       y="16.5"
       x="72"
       style="opacity:0.53974897;fill:#a7a7a7;fill-opacity:1;filter:url(#filter4460)"
       transform="matrix(2,0,0,2,-322.02594,-80.083641)" />
    <rect
       id="rect4375"
       height="91.521004"
       width="1"
       y="16.5"
       x="88"
       style="opacity:0.53974897;fill:#a7a7a7;fill-opacity:1;filter:url(#filter4460)"
       transform="matrix(2,0,0,2,-322.02594,-80.083641)" />
    <path
       inkscape:connector-curvature="0"
       sodipodi:nodetypes="ccccccccccc"
       id="path4379"
       d="M 83.834,112 H 29 V 17 h 74 v 77 h 1 V 16 H 28 v 97 h 55.834 z"
       style="display:inline;opacity:0.539749;fill:#a7a7a7;fill-opacity:1;filter:url(#filter4460)"
       transform="matrix(2,0,0,2,-322.02594,-80.083641)" />
    <rect
       style="fill:#000000;fill-opacity:1;stroke:none;filter:url(#filter5394)"
       id="rect6905"
       width="10.176779"
       height="108"
       x="18"
       y="11"
       transform="matrix(1.3875024,0,0,1.0912184,-10.219508,-6.9144662)" />
    <rect
       id="rect4046"
       height="119.99435"
       width="16.102285"
       style="fill:url(#linearGradient7198);fill-opacity:1;stroke-width:1"
       x="12.015183"
       y="4.0175686" />
    <polygon
       transform="matrix(1.0272654,0,0,1.0713781,15.790284,4.0175598)"
       id="polygon4054"
       points="8,111 8,1 12,0 12,112 "
       style="opacity:0.8;fill:url(#linearGradient7261);fill-opacity:1" />
    <path
       inkscape:connector-curvature="0"
       id="path4604"
       d="m 25.639421,9.4998598 c 0,0.326776 -0.16794,0.5871142 -0.50118,0.7831782 -0.334562,0.19606 -0.825162,0.293556 -1.473128,0.293556 -0.565978,0 -1.01823,-0.09746 -1.352792,-0.292484 -0.337206,-0.19606 -0.505148,-0.4521262 -0.505148,-0.7692462 0,-0.232492 0.0886,-0.433914 0.268446,-0.606402 0.18116,-0.1725 0.420514,-0.295706 0.718048,-0.36749 0.298858,-0.07066 0.61755,-0.10712 0.958724,-0.10712 0.571266,0 1.027486,0.09962 1.371304,0.297842 0.343818,0.1982 0.515726,0.454266 0.515726,0.768174 z m -0.686312,0.0082 c 0,-0.11784 -0.1005,-0.207844 -0.30018,-0.266772 -0.19836,-0.06004 -0.497212,-0.09 -0.895248,-0.09 -0.420516,0 -0.736564,0.02996 -0.946822,0.08898 -0.207612,0.0589 -0.313404,0.14678 -0.313404,0.26356 0,0.1157 0.10182,0.201422 0.30547,0.259276 0.202324,0.05788 0.509114,0.0857 0.916406,0.0857 0.41126,0 0.719372,-0.02782 0.924342,-0.08468 0.204968,-0.05676 0.309436,-0.14142 0.309436,-0.256066 z"
       style="fill:url(#linearGradient5248);fill-opacity:1;stroke-width:1" />
    <path
       inkscape:connector-curvature="0"
       id="path4614"
       d="m 25.073031,29.538858 v 0.545338 h -3.420988 v -0.63426 h 2.173986 V 29.01281 h 0.591102 v 0.10176 c 0,0.13392 0.04496,0.23785 0.1362,0.312844 0.08994,0.07394 0.226128,0.11142 0.40597,0.11142 h 0.11372 z"
       style="fill:url(#linearGradient5246);fill-opacity:1;stroke-width:1" />
    <path
       inkscape:connector-curvature="0"
       style="fill:url(#linearGradient5244);fill-opacity:1;stroke-width:1"
       d="m 25.052307,49.394108 c 0.14942,0.238914 0.224804,0.487472 0.224804,0.745674 0,0.1575 -0.03438,0.309636 -0.10316,0.455338 -0.07008,0.1457 -0.17852,0.263564 -0.327948,0.356772 -0.14942,0.09316 -0.325306,0.1382 -0.524986,0.1382 -0.19438,0 -0.36762,-0.04398 -0.517048,-0.13178 -0.14942,-0.08786 -0.273732,-0.221774 -0.375554,-0.398548 -0.04762,0.227132 -0.1481,0.398548 -0.301504,0.51212 -0.15208,0.11356 -0.358364,0.17036 -0.61755,0.17036 -0.349106,0 -0.63474,-0.10286 -0.860866,-0.307488 -0.226126,-0.204632 -0.33985,-0.471404 -0.33985,-0.799252 0,-0.233556 0.06878,-0.48105 0.203646,-0.74139 h 0.844998 c -0.19306,0.21213 -0.288278,0.423194 -0.288278,0.629966 0,0.1275 0.05026,0.235704 0.15076,0.324626 0.1005,0.08898 0.222158,0.13392 0.366298,0.13392 0.13752,0 0.24993,-0.04286 0.338528,-0.12964 0.0886,-0.08684 0.13092,-0.1982 0.13092,-0.332124 v -0.3257 h 0.6678 v 0.214276 c 0,0.12428 0.03438,0.22606 0.10314,0.306414 0.07008,0.0814 0.1653,0.12106 0.292246,0.12106 0.11638,0 0.21158,-0.0364 0.288278,-0.10714 0.07536,-0.07178 0.1124,-0.1607 0.1124,-0.269984 0,-0.16178 -0.09786,-0.350346 -0.29489,-0.565688 h 0.827808 v 0 z"
       id="path4624" />
    <path
       inkscape:connector-curvature="0"
       id="path4634"
       d="m 25.193803,73.60846 v 0.768186 h -2.143574 v 0.374972 H 22.362593 V 74.376646 H 21.226671 V 73.60846 h 1.135922 v -1.113162 h 0.741854 z m -1.137246,0 -1.006328,-0.528186 v 0.528186 z"
       style="fill:url(#linearGradient5242);fill-opacity:1;stroke-width:1" />
    <path
       inkscape:connector-curvature="0"
       id="path4644"
       d="m 25.314571,94.399524 v 1.65206 h -0.736564 v -0.90424 h -0.710116 c 0.1243,0.1242 0.18646,0.24748 0.18646,0.37392 0,0.1714 -0.1005,0.33534 -0.302824,0.4939 -0.202324,0.1606 -0.502504,0.23892 -0.900538,0.23892 -0.441676,0 -0.801362,-0.1028 -1.081706,-0.31178 -0.280342,-0.20892 -0.420514,-0.4789 -0.420514,-0.8121 0,-0.21748 0.07272,-0.4607 0.216868,-0.73068 h 0.876736 c -0.214224,0.23464 -0.321338,0.44354 -0.321338,0.62354 0,0.1296 0.06612,0.23892 0.19704,0.32676 0.13092,0.0878 0.296214,0.134 0.493248,0.134 0.14282,0 0.259186,-0.0226 0.353074,-0.0706 0.09256,-0.0462 0.13884,-0.1072 0.13884,-0.1778 0,-0.075 -0.06084,-0.1382 -0.17984,-0.1864 v -0.64818 h 2.191178 v -0.001 z"
       style="fill:url(#linearGradient5240);fill-opacity:1;stroke-width:1" />
    <path
       inkscape:connector-curvature="0"
       id="path4654"
       d="m 23.726397,116.99997 c 0.1296,0.0824 0.226126,0.1672 0.2896,0.25606 0.06348,0.089 0.09522,0.18 0.09522,0.27214 0,0.21856 -0.12696,0.40284 -0.378202,0.55496 -0.251252,0.1522 -0.55143,0.22714 -0.900538,0.22714 -0.39539,0 -0.72863,-0.0942 -0.997072,-0.28392 -0.271088,-0.1886 -0.40597,-0.42104 -0.40597,-0.69532 0,-0.29248 0.16398,-0.54748 0.493246,-0.7639 0.329272,-0.21748 0.807974,-0.32676 1.440068,-0.32676 0.362332,0 0.698216,0.045 1.008976,0.136 0.309436,0.09 0.558042,0.23034 0.744496,0.42106 0.18778,0.1896 0.280344,0.41782 0.280344,0.68354 0,0.1854 -0.05554,0.39534 -0.16794,0.62996 h -0.864834 c 0.18514,-0.2057 0.276378,-0.38356 0.276378,-0.53354 0,-0.1446 -0.07536,-0.27214 -0.22216,-0.38356 -0.14944,-0.1126 -0.379524,-0.1768 -0.691604,-0.194 z m -0.81855,0 c -0.230094,0.02 -0.40597,0.0578 -0.526308,0.1158 -0.12166,0.06 -0.18248,0.1264 -0.18248,0.2014 0,0.0698 0.05554,0.1296 0.16662,0.1778 0.10976,0.0482 0.248608,0.0706 0.41655,0.0706 0.15868,0 0.285634,-0.0224 0.38349,-0.0664 0.09786,-0.045 0.14546,-0.105 0.14546,-0.181 0,-0.0546 -0.03306,-0.1082 -0.09918,-0.1608 -0.06612,-0.0514 -0.16794,-0.105 -0.304146,-0.1574 z"
       style="fill:url(#linearGradient5238);fill-opacity:1;stroke-width:1" />
    <rect
       style="opacity:0.535565;fill:#ffffff;fill-opacity:1;stroke:none;stroke-width:1"
       id="rect5402"
       width="16.102285"
       height="2.1130488"
       x="12.015183"
       y="4.0175686" />
    <rect
       y="-124.0119"
       x="12.015183"
       height="117.8813"
       width="2.6080863"
       id="rect5404"
       style="opacity:0.535565;fill:#ffffff;fill-opacity:1;stroke:none;stroke-width:1"
       transform="scale(1,-1)" />
  </g>
</svg>
