<?xml version="1.0" encoding="UTF-8" standalone="no"?>
<!-- Created with Inkscape (http://www.inkscape.org/) -->

<svg
   width="128"
   height="128"
   id="svg2606"
   sodipodi:version="0.32"
   inkscape:version="1.2.2 (b0a8486541, 2022-12-01)"
   version="1.0"
   sodipodi:docname="libreoffice-drawing-template.svgz"
   inkscape:output_extension="org.inkscape.output.svgz.inkscape"
   inkscape:export-filename="/home/pinheiro/pics/oxygen-icons/scalable/mimetypes/small/32x32/application-vnd.oasis.opendocument.graphics.png"
   inkscape:export-xdpi="180"
   inkscape:export-ydpi="180"
   xmlns:inkscape="http://www.inkscape.org/namespaces/inkscape"
   xmlns:sodipodi="http://sodipodi.sourceforge.net/DTD/sodipodi-0.dtd"
   xmlns:xlink="http://www.w3.org/1999/xlink"
   xmlns="http://www.w3.org/2000/svg"
   xmlns:svg="http://www.w3.org/2000/svg"
   xmlns:rdf="http://www.w3.org/1999/02/22-rdf-syntax-ns#"
   xmlns:cc="http://creativecommons.org/ns#"
   xmlns:dc="http://purl.org/dc/elements/1.1/">
  <defs
     id="defs2608">
    <linearGradient
       id="linearGradient6131">
      <stop
         id="stop6133"
         offset="0"
         style="stop-color:#fcfcfc;stop-opacity:1" />
      <stop
         style="stop-color:#f8f8f8;stop-opacity:1"
         offset="0.52275378"
         id="stop6135" />
      <stop
         id="stop6141"
         offset="0.77457333"
         style="stop-color:#f0efef;stop-opacity:1;" />
      <stop
         id="stop6139"
         offset="0.90122044"
         style="stop-color:#e3e1e1;stop-opacity:1;" />
      <stop
         id="stop6137"
         offset="1"
         style="stop-color:#cecbcb;stop-opacity:1" />
    </linearGradient>
    <linearGradient
       inkscape:collect="always"
       xlink:href="#linearGradient6131"
       id="linearGradient3893"
       gradientUnits="userSpaceOnUse"
       gradientTransform="matrix(1.3731411,0,0,1.4035777,-41.378548,-43.42319)"
       x1="86.73793"
       y1="93.621468"
       x2="95.460213"
       y2="102.34375" />
    <radialGradient
       inkscape:collect="always"
       xlink:href="#linearGradient3913-5"
       id="radialGradient3919-5"
       cx="90.75"
       cy="110.25299"
       fx="90.75"
       fy="110.25299"
       r="18.750002"
       gradientTransform="matrix(1.3067347,0,0,1.3067347,-27.83617,-33.818441)"
       gradientUnits="userSpaceOnUse" />
    <linearGradient
       inkscape:collect="always"
       id="linearGradient3913-5">
      <stop
         style="stop-color:#ffffff;stop-opacity:1;"
         offset="0"
         id="stop3915-4" />
      <stop
         style="stop-color:#ffffff;stop-opacity:0;"
         offset="1"
         id="stop3917-7" />
    </linearGradient>
    <filter
       color-interpolation-filters="sRGB"
       inkscape:collect="always"
       id="filter3909-6"
       x="-0.058030789"
       y="-0.058986141"
       width="1.1160616"
       height="1.1179723">
      <feGaussianBlur
         inkscape:collect="always"
         stdDeviation="0.43040059"
         id="feGaussianBlur3911-9" />
    </filter>
    <linearGradient
       inkscape:collect="always"
       xlink:href="#linearGradient3897-7"
       id="linearGradient3895-3"
       gradientUnits="userSpaceOnUse"
       gradientTransform="matrix(1.3731411,0,0,1.4035776,-41.378546,-43.42319)"
       x1="82.15696"
       y1="90.381706"
       x2="94.220871"
       y2="102.18401" />
    <linearGradient
       id="linearGradient3897-7">
      <stop
         style="stop-color:#fcfcfc;stop-opacity:1"
         offset="0"
         id="stop3899-4" />
      <stop
         id="stop3901-5"
         offset="0.52275378"
         style="stop-color:#f8f8f8;stop-opacity:1" />
      <stop
         style="stop-color:#f0efef;stop-opacity:1;"
         offset="0.72337759"
         id="stop3903-2" />
      <stop
         style="stop-color:#e3e1e1;stop-opacity:1;"
         offset="0.89024991"
         id="stop3905-5" />
      <stop
         style="stop-color:#cecbcb;stop-opacity:1"
         offset="1"
         id="stop3907-4" />
    </linearGradient>
    <radialGradient
       inkscape:collect="always"
       xlink:href="#linearGradient5982-7"
       id="radialGradient5988-0"
       cx="64"
       cy="64.004021"
       fx="63.793392"
       fy="47.274845"
       r="47.5"
       gradientTransform="matrix(1.7069944,-0.08541345,0.06979496,1.3941371,-50.362376,-20.218185)"
       gradientUnits="userSpaceOnUse" />
    <linearGradient
       inkscape:collect="always"
       id="linearGradient5982-7">
      <stop
         style="stop-color:#ffd45f;stop-opacity:1;"
         offset="0"
         id="stop5984-8" />
      <stop
         style="stop-color:#db9700;stop-opacity:1;"
         offset="1"
         id="stop5986-6" />
    </linearGradient>
    <linearGradient
       inkscape:collect="always"
       xlink:href="#linearGradient4518-3"
       id="linearGradient4524-4"
       x1="72"
       y1="0"
       x2="72"
       y2="116.40091"
       gradientUnits="userSpaceOnUse"
       gradientTransform="matrix(1.013528,0,0,1.013266,-1.5133685,-1.3073648)" />
    <linearGradient
       id="linearGradient4518-3">
      <stop
         style="stop-color:#eeecec;stop-opacity:1"
         offset="0"
         id="stop4520-1" />
      <stop
         id="stop5969-4"
         offset="0.40000001"
         style="stop-color:#f4f4f4;stop-opacity:1" />
      <stop
         style="stop-color:#f6f5f5;stop-opacity:1"
         offset="1"
         id="stop4522-9" />
    </linearGradient>
    <filter
       inkscape:collect="always"
       id="filter4123"
       x="-0.049329566"
       y="-0.04113229"
       width="1.0986591"
       height="1.0822646">
      <feGaussianBlur
         inkscape:collect="always"
         stdDeviation="2.028"
         id="feGaussianBlur4125" />
    </filter>
    <filter
       inkscape:collect="always"
       id="filter4084"
       x="-0.035159739"
       y="-0.029362438"
       width="1.0703195"
       height="1.0587249">
      <feGaussianBlur
         inkscape:collect="always"
         stdDeviation="1.4598961"
         id="feGaussianBlur4086" />
    </filter>
    <linearGradient
       inkscape:collect="always"
       xlink:href="#linearGradient4837"
       id="linearGradient3181"
       gradientUnits="userSpaceOnUse"
       gradientTransform="matrix(1.0901639,0,0,1.4448193,0.9680328,-49.5209)"
       x1="56.954266"
       y1="130.65482"
       x2="88.066963"
       y2="82.515564" />
    <linearGradient
       inkscape:collect="always"
       id="linearGradient4837">
      <stop
         style="stop-color:#e0ff00;stop-opacity:1;"
         offset="0"
         id="stop4839" />
      <stop
         style="stop-color:#ffe429;stop-opacity:0.48908293;"
         offset="1"
         id="stop4841" />
    </linearGradient>
    <inkscape:path-effect
       effect="skeletal"
       id="path-effect4627"
       is_visible="true"
       pattern="M 5.6587572,-0.1 7.8347195,-0.0172016 5.6325524,0.1414742 3.7807743,0.0638325 z"
       copytype="single_stretched"
       prop_scale="1"
       scale_y_rel="false"
       spacing="0"
       normal_offset="0"
       tang_offset="0"
       prop_units="false"
       vertical_pattern="false"
       fuse_tolerance="0"
       pattern-nodetypes="ccccc" />
    <linearGradient
       inkscape:collect="always"
       xlink:href="#linearGradient4159"
       id="linearGradient3183"
       gradientUnits="userSpaceOnUse"
       gradientTransform="matrix(1.0901639,0,0,1.0901639,7.5090164,45.039344)"
       x1="64"
       y1="41.5"
       x2="64"
       y2="39.5" />
    <linearGradient
       id="linearGradient4159"
       inkscape:collect="always">
      <stop
         id="stop4161"
         offset="0"
         style="stop-color:#004fcd;stop-opacity:1;" />
      <stop
         id="stop4163"
         offset="1"
         style="stop-color:#297cff;stop-opacity:1" />
    </linearGradient>
    <radialGradient
       inkscape:collect="always"
       xlink:href="#linearGradient4111"
       id="radialGradient3185"
       gradientUnits="userSpaceOnUse"
       gradientTransform="matrix(2.6335511,-0.03292895,0.18053735,4.328014,-93.659315,-239.38913)"
       cx="48.850761"
       cy="76.900146"
       fx="48.850761"
       fy="76.900146"
       r="19.386568" />
    <linearGradient
       id="linearGradient4111"
       inkscape:collect="always">
      <stop
         id="stop4113"
         offset="0"
         style="stop-color:#cd0000;stop-opacity:1;" />
      <stop
         id="stop4115"
         offset="1"
         style="stop-color:#cd0000;stop-opacity:0;" />
    </linearGradient>
    <linearGradient
       inkscape:collect="always"
       xlink:href="#XMLID_5_"
       id="linearGradient3187"
       gradientUnits="userSpaceOnUse"
       gradientTransform="matrix(-1.1999999,0,0,-1.1999999,126.59999,138.39999)"
       x1="63.112606"
       y1="42.609962"
       x2="63.112606"
       y2="38.673389" />
    <radialGradient
       id="XMLID_5_"
       cx="51.9995"
       cy="-9"
       r="111.0006"
       gradientUnits="userSpaceOnUse">
      <stop
         offset="0.15000001"
         style="stop-color:#c20600;stop-opacity:1;"
         id="stop4094" />
      <stop
         id="stop2886"
         style="stop-color:#860202;stop-opacity:1;"
         offset="0.57499999" />
      <stop
         offset="1"
         style="stop-color:#760101;stop-opacity:1;"
         id="stop4102" />
    </radialGradient>
    <linearGradient
       inkscape:collect="always"
       xlink:href="#XMLID_67_-5"
       id="linearGradient3422"
       gradientUnits="userSpaceOnUse"
       gradientTransform="translate(-143,-64)"
       x1="153"
       y1="79.556602"
       x2="153"
       y2="76.444199" />
    <linearGradient
       id="XMLID_67_-5"
       gradientUnits="userSpaceOnUse"
       x1="153"
       y1="79.556602"
       x2="153"
       y2="76.444199"
       gradientTransform="translate(-143,-64)">
      <stop
         offset="0"
         style="stop-color:#FFFFFF"
         id="stop284-5" />
      <stop
         offset="1"
         style="stop-color:#DDDDDD"
         id="stop286-4" />
    </linearGradient>
    <linearGradient
       inkscape:collect="always"
       xlink:href="#XMLID_68_-7"
       id="linearGradient3425"
       gradientUnits="userSpaceOnUse"
       gradientTransform="translate(-143,-64)"
       x1="154.1006"
       y1="79.100601"
       x2="151.9005"
       y2="76.900497" />
    <linearGradient
       id="XMLID_68_-7"
       gradientUnits="userSpaceOnUse"
       x1="154.1006"
       y1="79.100601"
       x2="151.9005"
       y2="76.900497"
       gradientTransform="translate(-143,-64)">
      <stop
         offset="0"
         style="stop-color:#eaeaea;stop-opacity:1;"
         id="stop291-6" />
      <stop
         offset="1"
         style="stop-color:#616161"
         id="stop293-56" />
    </linearGradient>
    <linearGradient
       inkscape:collect="always"
       xlink:href="#XMLID_67_-5"
       id="linearGradient3418"
       gradientUnits="userSpaceOnUse"
       gradientTransform="translate(-143,-64)"
       x1="153"
       y1="79.556602"
       x2="153"
       y2="76.444199" />
    <linearGradient
       id="linearGradient3151"
       gradientUnits="userSpaceOnUse"
       x1="153"
       y1="79.556602"
       x2="153"
       y2="76.444199"
       gradientTransform="translate(-143,-64)">
      <stop
         offset="0"
         style="stop-color:#FFFFFF"
         id="stop3153" />
      <stop
         offset="1"
         style="stop-color:#DDDDDD"
         id="stop3155" />
    </linearGradient>
    <linearGradient
       inkscape:collect="always"
       xlink:href="#XMLID_68_-7"
       id="linearGradient3420"
       gradientUnits="userSpaceOnUse"
       gradientTransform="translate(-143,-64)"
       x1="154.1006"
       y1="79.100601"
       x2="151.9005"
       y2="76.900497" />
    <linearGradient
       id="linearGradient3158"
       gradientUnits="userSpaceOnUse"
       x1="154.1006"
       y1="79.100601"
       x2="151.9005"
       y2="76.900497"
       gradientTransform="translate(-143,-64)">
      <stop
         offset="0"
         style="stop-color:#eaeaea;stop-opacity:1;"
         id="stop3160" />
      <stop
         offset="1"
         style="stop-color:#616161"
         id="stop3162" />
    </linearGradient>
    <linearGradient
       inkscape:collect="always"
       xlink:href="#XMLID_67_-5"
       id="linearGradient3413"
       gradientUnits="userSpaceOnUse"
       gradientTransform="translate(-143,-64)"
       x1="153"
       y1="79.556602"
       x2="153"
       y2="76.444199" />
    <linearGradient
       id="linearGradient3165"
       gradientUnits="userSpaceOnUse"
       x1="153"
       y1="79.556602"
       x2="153"
       y2="76.444199"
       gradientTransform="translate(-143,-64)">
      <stop
         offset="0"
         style="stop-color:#FFFFFF"
         id="stop3167" />
      <stop
         offset="1"
         style="stop-color:#DDDDDD"
         id="stop3169" />
    </linearGradient>
    <linearGradient
       inkscape:collect="always"
       xlink:href="#XMLID_68_-7"
       id="linearGradient3415"
       gradientUnits="userSpaceOnUse"
       gradientTransform="translate(-143,-64)"
       x1="154.1006"
       y1="79.100601"
       x2="151.9005"
       y2="76.900497" />
    <linearGradient
       id="linearGradient3172"
       gradientUnits="userSpaceOnUse"
       x1="154.1006"
       y1="79.100601"
       x2="151.9005"
       y2="76.900497"
       gradientTransform="translate(-143,-64)">
      <stop
         offset="0"
         style="stop-color:#eaeaea;stop-opacity:1;"
         id="stop3174" />
      <stop
         offset="1"
         style="stop-color:#616161"
         id="stop3176" />
    </linearGradient>
    <linearGradient
       inkscape:collect="always"
       xlink:href="#XMLID_67_-5"
       id="linearGradient3408"
       gradientUnits="userSpaceOnUse"
       gradientTransform="translate(-143,-64)"
       x1="153"
       y1="79.556602"
       x2="153"
       y2="76.444199" />
    <linearGradient
       id="linearGradient3179"
       gradientUnits="userSpaceOnUse"
       x1="153"
       y1="79.556602"
       x2="153"
       y2="76.444199"
       gradientTransform="translate(-143,-64)">
      <stop
         offset="0"
         style="stop-color:#FFFFFF"
         id="stop3181" />
      <stop
         offset="1"
         style="stop-color:#DDDDDD"
         id="stop3183" />
    </linearGradient>
    <linearGradient
       inkscape:collect="always"
       xlink:href="#XMLID_68_-7"
       id="linearGradient3411"
       gradientUnits="userSpaceOnUse"
       gradientTransform="translate(-143,-64)"
       x1="154.1006"
       y1="79.100601"
       x2="151.9005"
       y2="76.900497" />
    <linearGradient
       id="linearGradient3186"
       gradientUnits="userSpaceOnUse"
       x1="154.1006"
       y1="79.100601"
       x2="151.9005"
       y2="76.900497"
       gradientTransform="translate(-143,-64)">
      <stop
         offset="0"
         style="stop-color:#eaeaea;stop-opacity:1;"
         id="stop3188" />
      <stop
         offset="1"
         style="stop-color:#616161"
         id="stop3190" />
    </linearGradient>
    <linearGradient
       inkscape:collect="always"
       xlink:href="#XMLID_67_-5"
       id="linearGradient3404"
       gradientUnits="userSpaceOnUse"
       gradientTransform="translate(-143,-64)"
       x1="153"
       y1="79.556602"
       x2="153"
       y2="76.444199" />
    <linearGradient
       id="linearGradient3193"
       gradientUnits="userSpaceOnUse"
       x1="153"
       y1="79.556602"
       x2="153"
       y2="76.444199"
       gradientTransform="translate(-143,-64)">
      <stop
         offset="0"
         style="stop-color:#FFFFFF"
         id="stop3195" />
      <stop
         offset="1"
         style="stop-color:#DDDDDD"
         id="stop3197" />
    </linearGradient>
    <linearGradient
       inkscape:collect="always"
       xlink:href="#XMLID_68_-7"
       id="linearGradient3406"
       gradientUnits="userSpaceOnUse"
       gradientTransform="translate(-143,-64)"
       x1="154.1006"
       y1="79.100601"
       x2="151.9005"
       y2="76.900497" />
    <linearGradient
       id="linearGradient3200"
       gradientUnits="userSpaceOnUse"
       x1="154.1006"
       y1="79.100601"
       x2="151.9005"
       y2="76.900497"
       gradientTransform="translate(-143,-64)">
      <stop
         offset="0"
         style="stop-color:#eaeaea;stop-opacity:1;"
         id="stop3202" />
      <stop
         offset="1"
         style="stop-color:#616161"
         id="stop3204" />
    </linearGradient>
    <linearGradient
       inkscape:collect="always"
       xlink:href="#XMLID_67_-5"
       id="linearGradient3400"
       gradientUnits="userSpaceOnUse"
       gradientTransform="translate(-143,-64)"
       x1="153"
       y1="79.556602"
       x2="153"
       y2="76.444199" />
    <linearGradient
       id="linearGradient3207"
       gradientUnits="userSpaceOnUse"
       x1="153"
       y1="79.556602"
       x2="153"
       y2="76.444199"
       gradientTransform="translate(-143,-64)">
      <stop
         offset="0"
         style="stop-color:#FFFFFF"
         id="stop3209" />
      <stop
         offset="1"
         style="stop-color:#DDDDDD"
         id="stop3211" />
    </linearGradient>
    <linearGradient
       inkscape:collect="always"
       xlink:href="#XMLID_68_-7"
       id="linearGradient3402"
       gradientUnits="userSpaceOnUse"
       gradientTransform="translate(-143,-64)"
       x1="154.1006"
       y1="79.100601"
       x2="151.9005"
       y2="76.900497" />
    <linearGradient
       id="linearGradient3214"
       gradientUnits="userSpaceOnUse"
       x1="154.1006"
       y1="79.100601"
       x2="151.9005"
       y2="76.900497"
       gradientTransform="translate(-143,-64)">
      <stop
         offset="0"
         style="stop-color:#eaeaea;stop-opacity:1;"
         id="stop3216" />
      <stop
         offset="1"
         style="stop-color:#616161"
         id="stop3218" />
    </linearGradient>
    <linearGradient
       inkscape:collect="always"
       xlink:href="#XMLID_67_-5"
       id="linearGradient3328"
       gradientUnits="userSpaceOnUse"
       gradientTransform="translate(-143,-64)"
       x1="153"
       y1="79.556602"
       x2="153"
       y2="76.444199" />
    <linearGradient
       id="linearGradient3221"
       gradientUnits="userSpaceOnUse"
       x1="153"
       y1="79.556602"
       x2="153"
       y2="76.444199"
       gradientTransform="translate(-143,-64)">
      <stop
         offset="0"
         style="stop-color:#FFFFFF"
         id="stop3223" />
      <stop
         offset="1"
         style="stop-color:#DDDDDD"
         id="stop3225" />
    </linearGradient>
    <linearGradient
       inkscape:collect="always"
       xlink:href="#XMLID_68_-7"
       id="linearGradient3330"
       gradientUnits="userSpaceOnUse"
       gradientTransform="translate(-143,-64)"
       x1="154.1006"
       y1="79.100601"
       x2="151.9005"
       y2="76.900497" />
    <linearGradient
       id="linearGradient3228"
       gradientUnits="userSpaceOnUse"
       x1="154.1006"
       y1="79.100601"
       x2="151.9005"
       y2="76.900497"
       gradientTransform="translate(-143,-64)">
      <stop
         offset="0"
         style="stop-color:#eaeaea;stop-opacity:1;"
         id="stop3230" />
      <stop
         offset="1"
         style="stop-color:#616161"
         id="stop3232" />
    </linearGradient>
    <linearGradient
       inkscape:collect="always"
       xlink:href="#XMLID_67_-5"
       id="linearGradient3324"
       gradientUnits="userSpaceOnUse"
       gradientTransform="translate(-143,-64)"
       x1="153"
       y1="79.556602"
       x2="153"
       y2="76.444199" />
    <linearGradient
       id="linearGradient3235"
       gradientUnits="userSpaceOnUse"
       x1="153"
       y1="79.556602"
       x2="153"
       y2="76.444199"
       gradientTransform="translate(-143,-64)">
      <stop
         offset="0"
         style="stop-color:#FFFFFF"
         id="stop3237" />
      <stop
         offset="1"
         style="stop-color:#DDDDDD"
         id="stop3239" />
    </linearGradient>
    <linearGradient
       inkscape:collect="always"
       xlink:href="#XMLID_68_-7"
       id="linearGradient3326"
       gradientUnits="userSpaceOnUse"
       gradientTransform="translate(-143,-64)"
       x1="154.1006"
       y1="79.100601"
       x2="151.9005"
       y2="76.900497" />
    <linearGradient
       id="linearGradient3242"
       gradientUnits="userSpaceOnUse"
       x1="154.1006"
       y1="79.100601"
       x2="151.9005"
       y2="76.900497"
       gradientTransform="translate(-143,-64)">
      <stop
         offset="0"
         style="stop-color:#eaeaea;stop-opacity:1;"
         id="stop3244" />
      <stop
         offset="1"
         style="stop-color:#616161"
         id="stop3246" />
    </linearGradient>
    <linearGradient
       y2="76.900497"
       x2="151.9005"
       y1="79.100601"
       x1="154.1006"
       gradientTransform="translate(-143,-64)"
       gradientUnits="userSpaceOnUse"
       id="linearGradient3272"
       xlink:href="#XMLID_68_-7"
       inkscape:collect="always" />
    <linearGradient
       inkscape:collect="always"
       xlink:href="#XMLID_67_-5"
       id="linearGradient3278"
       gradientUnits="userSpaceOnUse"
       gradientTransform="translate(-143,-64)"
       x1="153"
       y1="79.556602"
       x2="153"
       y2="76.444199" />
    <linearGradient
       inkscape:collect="always"
       xlink:href="#XMLID_68_-7"
       id="linearGradient3280"
       gradientUnits="userSpaceOnUse"
       gradientTransform="translate(-143,-64)"
       x1="154.1006"
       y1="79.100601"
       x2="151.9005"
       y2="76.900497" />
    <linearGradient
       inkscape:collect="always"
       xlink:href="#XMLID_67_-5"
       id="linearGradient3282"
       gradientUnits="userSpaceOnUse"
       gradientTransform="translate(-143,-64)"
       x1="153"
       y1="79.556602"
       x2="153"
       y2="76.444199" />
    <linearGradient
       inkscape:collect="always"
       xlink:href="#XMLID_68_-7"
       id="linearGradient3284"
       gradientUnits="userSpaceOnUse"
       gradientTransform="translate(-143,-64)"
       x1="154.1006"
       y1="79.100601"
       x2="151.9005"
       y2="76.900497" />
    <linearGradient
       inkscape:collect="always"
       xlink:href="#XMLID_67_-5"
       id="linearGradient3286"
       gradientUnits="userSpaceOnUse"
       gradientTransform="translate(-143,-64)"
       x1="153"
       y1="79.556602"
       x2="153"
       y2="76.444199" />
    <linearGradient
       inkscape:collect="always"
       xlink:href="#XMLID_68_-7"
       id="linearGradient3288"
       gradientUnits="userSpaceOnUse"
       gradientTransform="translate(-143,-64)"
       x1="154.1006"
       y1="79.100601"
       x2="151.9005"
       y2="76.900497" />
    <linearGradient
       inkscape:collect="always"
       xlink:href="#XMLID_67_-5"
       id="linearGradient3290"
       gradientUnits="userSpaceOnUse"
       gradientTransform="translate(-143,-64)"
       x1="153"
       y1="79.556602"
       x2="153"
       y2="76.444199" />
    <linearGradient
       inkscape:collect="always"
       xlink:href="#XMLID_68_-7"
       id="linearGradient3292"
       gradientUnits="userSpaceOnUse"
       gradientTransform="translate(-143,-64)"
       x1="154.1006"
       y1="79.100601"
       x2="151.9005"
       y2="76.900497" />
    <linearGradient
       inkscape:collect="always"
       xlink:href="#XMLID_67_-5"
       id="linearGradient3294"
       gradientUnits="userSpaceOnUse"
       gradientTransform="translate(-143,-64)"
       x1="153"
       y1="79.556602"
       x2="153"
       y2="76.444199" />
    <linearGradient
       inkscape:collect="always"
       xlink:href="#XMLID_68_-7"
       id="linearGradient3296"
       gradientUnits="userSpaceOnUse"
       gradientTransform="translate(-143,-64)"
       x1="154.1006"
       y1="79.100601"
       x2="151.9005"
       y2="76.900497" />
    <linearGradient
       inkscape:collect="always"
       xlink:href="#XMLID_67_-5"
       id="linearGradient3298"
       gradientUnits="userSpaceOnUse"
       gradientTransform="translate(-143,-64)"
       x1="153"
       y1="79.556602"
       x2="153"
       y2="76.444199" />
    <linearGradient
       inkscape:collect="always"
       xlink:href="#XMLID_68_-7"
       id="linearGradient3300"
       gradientUnits="userSpaceOnUse"
       gradientTransform="translate(-143,-64)"
       x1="154.1006"
       y1="79.100601"
       x2="151.9005"
       y2="76.900497" />
    <linearGradient
       inkscape:collect="always"
       xlink:href="#XMLID_67_-5"
       id="linearGradient3302"
       gradientUnits="userSpaceOnUse"
       gradientTransform="translate(-143,-64)"
       x1="153"
       y1="79.556602"
       x2="153"
       y2="76.444199" />
    <linearGradient
       inkscape:collect="always"
       xlink:href="#XMLID_68_-7"
       id="linearGradient3304"
       gradientUnits="userSpaceOnUse"
       gradientTransform="translate(-143,-64)"
       x1="154.1006"
       y1="79.100601"
       x2="151.9005"
       y2="76.900497" />
    <linearGradient
       inkscape:collect="always"
       xlink:href="#XMLID_67_-5"
       id="linearGradient3306"
       gradientUnits="userSpaceOnUse"
       gradientTransform="translate(-143,-64)"
       x1="153"
       y1="79.556602"
       x2="153"
       y2="76.444199" />
    <linearGradient
       inkscape:collect="always"
       xlink:href="#XMLID_68_-7"
       id="linearGradient3308"
       gradientUnits="userSpaceOnUse"
       gradientTransform="translate(-143,-64)"
       x1="154.1006"
       y1="79.100601"
       x2="151.9005"
       y2="76.900497" />
    <filter
       color-interpolation-filters="sRGB"
       inkscape:collect="always"
       id="filter6171-8"
       x="-0.35357719"
       width="1.7071544"
       y="-0.37314062"
       height="1.7462812">
      <feGaussianBlur
         inkscape:collect="always"
         stdDeviation="3.824703"
         id="feGaussianBlur6173-8" />
    </filter>
    <filter
       color-interpolation-filters="sRGB"
       height="1.0271843"
       y="-0.013592145"
       width="1.2884904"
       x="-0.14424522"
       id="filter5394"
       inkscape:collect="always">
      <feGaussianBlur
         id="feGaussianBlur5396"
         stdDeviation="0.61164653"
         inkscape:collect="always" />
    </filter>
    <linearGradient
       inkscape:collect="always"
       xlink:href="#linearGradient6060-8-8"
       id="linearGradient7198"
       gradientUnits="userSpaceOnUse"
       gradientTransform="matrix(-5.8654441e-8,1.071378,-1.3418571,-4.6831426e-8,68.351155,-71.022562)"
       x1="126"
       y1="41.9995"
       x2="126"
       y2="29.9995" />
    <linearGradient
       id="linearGradient6060-8-8"
       gradientUnits="userSpaceOnUse"
       x1="126"
       y1="41.9995"
       x2="126"
       y2="29.9995"
       gradientTransform="rotate(90,56.000248,-14.000251)">
      <stop
         offset="0"
         style="stop-color:#A58B5A"
         id="stop6064-7-7" />
      <stop
         offset="0.5444"
         style="stop-color:#C5AB6D"
         id="stop6066-1-0" />
    </linearGradient>
    <linearGradient
       inkscape:collect="always"
       xlink:href="#linearGradient13867-5-0"
       id="linearGradient7261"
       gradientUnits="userSpaceOnUse"
       gradientTransform="rotate(90,56.000248,-14.000251)"
       x1="126"
       y1="30.0005"
       x2="126"
       y2="34.0005" />
    <linearGradient
       id="linearGradient13867-5-0"
       gradientUnits="userSpaceOnUse"
       x1="126"
       y1="30.0005"
       x2="126"
       y2="34.0005"
       gradientTransform="rotate(90,56.000248,-14.000251)">
      <stop
         offset="0"
         style="stop-color:#ddc98f;stop-opacity:1;"
         id="stop13869-0-7" />
      <stop
         offset="1"
         style="stop-color:#f4eab9;stop-opacity:1;"
         id="stop13871-4-5" />
    </linearGradient>
    <linearGradient
       inkscape:collect="always"
       xlink:href="#linearGradient4098-8-3"
       id="linearGradient5248"
       gradientUnits="userSpaceOnUse"
       gradientTransform="matrix(-5.7802923e-8,1.071378,-1.3223767,-4.6831425e-8,73.093363,-69.822562)"
       x1="74.001999"
       y1="38.799301"
       x2="74.001999"
       y2="35.901901" />
    <linearGradient
       gradientTransform="rotate(90,56.000248,-14.000251)"
       y2="29.9995"
       x2="82"
       y1="31.9995"
       x1="82"
       gradientUnits="userSpaceOnUse"
       id="linearGradient4098-8-3">
      <stop
         id="stop4100-9-2"
         style="stop-color:#4E3E27;fill-opacity:1.0;fill:url(#linearGradient20844)"
         offset="0" />
      <stop
         id="stop4102-2-1"
         style="stop-color:#816840;fill-opacity:1.0;fill:url(#linearGradient20844)"
         offset="1" />
    </linearGradient>
    <linearGradient
       inkscape:collect="always"
       xlink:href="#linearGradient4108-2-7"
       id="linearGradient5246"
       gradientUnits="userSpaceOnUse"
       gradientTransform="matrix(-5.7802923e-8,1.071378,-1.3223767,-4.6831425e-8,72.610283,-71.022562)"
       x1="93.830101"
       y1="38.5513"
       x2="93.830101"
       y2="35.964401" />
    <linearGradient
       gradientTransform="rotate(90,56.000248,-14.000251)"
       y2="29.9995"
       x2="86"
       y1="31.9995"
       x1="86"
       gradientUnits="userSpaceOnUse"
       id="linearGradient4108-2-7">
      <stop
         id="stop4110-0-6"
         style="stop-color:#4E3E27;fill-opacity:1.0;fill:url(#linearGradient20836)"
         offset="0" />
      <stop
         id="stop4112-6-1"
         style="stop-color:#816840;fill-opacity:1.0;fill:url(#linearGradient20836)"
         offset="1" />
    </linearGradient>
    <linearGradient
       inkscape:collect="always"
       xlink:href="#linearGradient4108-2-7"
       id="linearGradient5244"
       gradientUnits="userSpaceOnUse"
       gradientTransform="matrix(-5.7802923e-8,1.071378,-1.3223767,-4.6831425e-8,72.731053,-71.913472)"
       x1="114.0479"
       y1="38.901901"
       x2="114.0479"
       y2="35.901901" />
    <linearGradient
       inkscape:collect="always"
       xlink:href="#linearGradient4108-2-7"
       id="linearGradient5242"
       gradientUnits="userSpaceOnUse"
       gradientTransform="matrix(-5.7802923e-8,1.071378,-1.3223767,-4.6831425e-8,72.731053,-69.999852)"
       x1="134.0137"
       y1="38.964401"
       x2="134.0137"
       y2="35.964401" />
    <linearGradient
       inkscape:collect="always"
       xlink:href="#linearGradient4108-2-7"
       id="linearGradient5240"
       gradientUnits="userSpaceOnUse"
       gradientTransform="matrix(-5.7802923e-8,1.071378,-1.3223767,-4.6831425e-8,72.851823,-69.795312)"
       x1="154.08009"
       y1="38.964401"
       x2="154.08009"
       y2="35.964401" />
    <linearGradient
       inkscape:collect="always"
       xlink:href="#linearGradient4108-2-7"
       id="linearGradient5238"
       gradientUnits="userSpaceOnUse"
       gradientTransform="matrix(-5.7802923e-8,1.071378,-1.3223767,-4.6831425e-8,72.851823,-69.181692)"
       x1="173.99409"
       y1="38.901901"
       x2="173.99409"
       y2="35.901901" />
    <linearGradient
       inkscape:collect="always"
       xlink:href="#XMLID_67_-5"
       id="linearGradient6204"
       gradientUnits="userSpaceOnUse"
       gradientTransform="translate(-143,-64)"
       x1="153"
       y1="79.556602"
       x2="153"
       y2="76.444199" />
    <linearGradient
       inkscape:collect="always"
       xlink:href="#XMLID_68_-7"
       id="linearGradient6206"
       gradientUnits="userSpaceOnUse"
       gradientTransform="translate(-143,-64)"
       x1="154.1006"
       y1="79.100601"
       x2="151.9005"
       y2="76.900497" />
    <linearGradient
       inkscape:collect="always"
       xlink:href="#XMLID_67_-5"
       id="linearGradient6208"
       gradientUnits="userSpaceOnUse"
       gradientTransform="translate(-143,-64)"
       x1="153"
       y1="79.556602"
       x2="153"
       y2="76.444199" />
    <linearGradient
       inkscape:collect="always"
       xlink:href="#XMLID_68_-7"
       id="linearGradient6210"
       gradientUnits="userSpaceOnUse"
       gradientTransform="translate(-143,-64)"
       x1="154.1006"
       y1="79.100601"
       x2="151.9005"
       y2="76.900497" />
    <linearGradient
       inkscape:collect="always"
       xlink:href="#XMLID_67_-5"
       id="linearGradient6212"
       gradientUnits="userSpaceOnUse"
       gradientTransform="translate(-143,-64)"
       x1="153"
       y1="79.556602"
       x2="153"
       y2="76.444199" />
    <linearGradient
       inkscape:collect="always"
       xlink:href="#XMLID_68_-7"
       id="linearGradient6214"
       gradientUnits="userSpaceOnUse"
       gradientTransform="translate(-143,-64)"
       x1="154.1006"
       y1="79.100601"
       x2="151.9005"
       y2="76.900497" />
    <linearGradient
       inkscape:collect="always"
       xlink:href="#XMLID_67_-5"
       id="linearGradient6216"
       gradientUnits="userSpaceOnUse"
       gradientTransform="translate(-143,-64)"
       x1="153"
       y1="79.556602"
       x2="153"
       y2="76.444199" />
    <linearGradient
       inkscape:collect="always"
       xlink:href="#XMLID_68_-7"
       id="linearGradient6218"
       gradientUnits="userSpaceOnUse"
       gradientTransform="translate(-143,-64)"
       x1="154.1006"
       y1="79.100601"
       x2="151.9005"
       y2="76.900497" />
    <linearGradient
       inkscape:collect="always"
       xlink:href="#XMLID_67_-5"
       id="linearGradient6220"
       gradientUnits="userSpaceOnUse"
       gradientTransform="translate(-143,-64)"
       x1="153"
       y1="79.556602"
       x2="153"
       y2="76.444199" />
    <linearGradient
       inkscape:collect="always"
       xlink:href="#XMLID_68_-7"
       id="linearGradient6222"
       gradientUnits="userSpaceOnUse"
       gradientTransform="translate(-143,-64)"
       x1="154.1006"
       y1="79.100601"
       x2="151.9005"
       y2="76.900497" />
    <linearGradient
       inkscape:collect="always"
       xlink:href="#XMLID_67_-5"
       id="linearGradient6224"
       gradientUnits="userSpaceOnUse"
       gradientTransform="translate(-143,-64)"
       x1="153"
       y1="79.556602"
       x2="153"
       y2="76.444199" />
    <linearGradient
       inkscape:collect="always"
       xlink:href="#XMLID_68_-7"
       id="linearGradient6226"
       gradientUnits="userSpaceOnUse"
       gradientTransform="translate(-143,-64)"
       x1="154.1006"
       y1="79.100601"
       x2="151.9005"
       y2="76.900497" />
    <linearGradient
       inkscape:collect="always"
       xlink:href="#XMLID_67_-5"
       id="linearGradient6228"
       gradientUnits="userSpaceOnUse"
       gradientTransform="translate(-143,-64)"
       x1="153"
       y1="79.556602"
       x2="153"
       y2="76.444199" />
    <linearGradient
       inkscape:collect="always"
       xlink:href="#XMLID_68_-7"
       id="linearGradient6230"
       gradientUnits="userSpaceOnUse"
       gradientTransform="translate(-143,-64)"
       x1="154.1006"
       y1="79.100601"
       x2="151.9005"
       y2="76.900497" />
  </defs>
  <sodipodi:namedview
     id="base"
     pagecolor="#ffffff"
     bordercolor="#666666"
     borderopacity="1.0"
     inkscape:pageopacity="0.0"
     inkscape:pageshadow="2"
     inkscape:zoom="4"
     inkscape:cx="76"
     inkscape:cy="46.875"
     inkscape:document-units="px"
     inkscape:current-layer="layer1"
     width="128px"
     height="128px"
     showgrid="true"
     inkscape:grid-points="true"
     showguides="true"
     inkscape:guide-bbox="true"
     inkscape:window-width="1862"
     inkscape:window-height="1019"
     inkscape:window-x="58"
     inkscape:window-y="34"
     inkscape:snap-global="false"
     inkscape:window-maximized="1"
     inkscape:snap-page="true"
     inkscape:showpageshadow="2"
     inkscape:pagecheckerboard="0"
     inkscape:deskcolor="#d1d1d1">
    <inkscape:grid
       id="GridFromPre046Settings"
       type="xygrid"
       originx="0"
       originy="0"
       spacingx="4"
       spacingy="4"
       color="#0000ff"
       empcolor="#0000ff"
       opacity="0.2"
       empopacity="0.4"
       empspacing="2"
       visible="true"
       enabled="true"
       snapvisiblegridlinesonly="true" />
    <sodipodi:guide
       orientation="1,0"
       position="-68,29.325902"
       id="guide4564"
       inkscape:locked="false" />
    <sodipodi:guide
       orientation="1,0"
       position="-121.62237,135.0574"
       id="guide3859"
       inkscape:locked="false" />
    <sodipodi:guide
       orientation="0,1"
       position="38.581514,-74.688154"
       id="guide4360"
       inkscape:locked="false" />
  </sodipodi:namedview>
  <metadata
     id="metadata2611">
    <rdf:RDF>
      <cc:Work
         rdf:about="">
        <dc:format>image/svg+xml</dc:format>
        <dc:type
           rdf:resource="http://purl.org/dc/dcmitype/StillImage" />
      </cc:Work>
    </rdf:RDF>
  </metadata>
  <g
     inkscape:label="Livello 1"
     inkscape:groupmode="layer"
     id="layer1">
    <path
       style="opacity:0.45606695;fill:#000000;fill-opacity:1;filter:url(#filter4123)"
       d="m 13.333,5.3364 0,118.3304 49.8545,-0.0668 c 2.115554,-0.003 4.528919,-1.77169 7,-4.25 0.71234,-0.71442 1.440746,-1.39395 2.15625,-2.09375 0.415612,-0.40649 0.832187,-0.81443 1.25,-1.21875 7.773958,-7.40962 26.98341,-25.122599 34.21875,-33.099999 0.42065,-0.42064 0.81207,-0.8111 1.15625,-1.1875 1.46444,-1.49766 2.76158,-2.8378 2.99375,-5.8625 L 112,75.156251 111.9972,5.3364 z"
       id="path5990"
       inkscape:connector-curvature="0"
       sodipodi:nodetypes="ccsssccccccc"
       transform="matrix(1.013528,0,0,1.013266,-1.5133689,-1.3073677)" />
    <path
       sodipodi:type="inkscape:offset"
       inkscape:radius="-0.31466308"
       inkscape:original="M 13.1875 4.53125 C 12.818918 4.609246 12.529956 4.967008 12.53125 5.34375 L 12.53125 123.65625 C 12.53885 124.07954 12.920464 124.4611 13.34375 124.46875 L 62.15625 124.46875 C 63.930251 124.46875 65.829207 124.74865 68.6875 122.8125 C 68.829003 122.58432 71.218784 120.82456 70.53125 121.25 C 80.188854 112.07585 98.162197 92.41186 109.34375 81.09375 C 111.06182 79.375681 112.8125 77.674752 112.8125 73.3125 L 112.8125 5.34375 C 112.80483 4.9204809 112.42327 4.5388981 112 4.53125 L 13.34375 4.53125 C 13.29182 4.52633 13.239428 4.52633 13.1875 4.53125 z "
       style="fill:#000000;fill-opacity:1;filter:url(#filter4084)"
       id="path3314"
       d="m 13.21875,4.84375 c -0.201143,0.05725 -0.375711,0.2931131 -0.375,0.5 l 0,118.3125 c 0.0043,0.23765 0.262302,0.4957 0.5,0.5 l 48.8125,0 c 1.807099,0 3.550693,0.29821 6.34375,-1.59375 0.03611,-0.0371 0.07724,-0.0824 0.125,-0.125 0.08359,-0.0745 0.19399,-0.18448 0.3125,-0.28125 0.23702,-0.19354 0.516618,-0.41733 0.78125,-0.625 0.206542,-0.16208 0.368737,-0.26884 0.5,-0.375 a 0.31469455,0.31469455 0 0 1 0.03125,-0.0625 c 0.0046,-0.004 0.02682,0.004 0.03125,0 a 0.31469455,0.31469455 0 0 1 0.03125,-0.0625 c 0.0044,-0.004 0.02685,0.004 0.03125,0 9.639369,-9.15919 27.595222,-28.83361 38.78125,-40.15625 1.72022,-1.720217 3.375,-3.284436 3.375,-7.5625 l 0,-67.96875 c -0.004,-0.2376834 -0.26234,-0.4957056 -0.5,-0.5 l -98.65625,0 a 0.31469455,0.31469455 0 0 1 -0.03125,0 c -0.02143,-0.00203 -0.04093,-6.768e-4 -0.0625,0 -0.01078,3.384e-4 -0.02054,-0.00102 -0.03125,0 z"
       transform="matrix(1.013528,0,0,1.013266,-1.5133689,-1.3073677)" />
    <path
       style="fill:#ffa112;fill-opacity:1"
       d="m 12,4 0,120 49.999784,0 c 1.697965,0 3.967298,-0.57754 7.094784,-3.68191 8.990151,-8.92376 32.510002,-32.235741 39.866862,-39.726545 2.47359,-2.518643 3.04157,-4.572903 3.04157,-6.87703 L 112,4 z"
       id="path34"
       sodipodi:nodetypes="cccssccc"
       inkscape:connector-curvature="0" />
    <path
       style="fill:url(#linearGradient4524-4);fill-opacity:1"
       d="M 15.506762,7 C 15.162322,7 15,7.2377304 15,7.5066333 L 15,119.48009 c 0,0.83248 0.688512,1.5205 1.520292,1.51991 l 44.959416,-0.0317 c 0.05379,-4e-5 0.821348,0.0237 1.520292,0.0317 1.801712,-0.0406 3.174343,-0.76374 4.414963,-1.61442 C 68.481059,119.09069 97.540465,90.697457 106.78496,81.385896 108.1658,79.995068 109,77.38535 109,76.425341 L 109,7.5066332 C 109,7.179635 108.83457,7 108.49323,7 z"
       id="path3967"
       inkscape:connector-curvature="0"
       sodipodi:nodetypes="ccsssccscccc" />
    <path
       sodipodi:nodetypes="ccssscccccc"
       inkscape:connector-curvature="0"
       id="path5980"
       d="M 15.506762,7 C 15.162322,7 15,7.2377304 15,7.5066333 L 15,119.48009 c 0,0.83249 0.688527,1.51486 1.520292,1.51991 l 46.845657,0.2846 c 0.05379,3.3e-4 3.318172,-0.008 4.017117,5e-5 6.629458,-4.5634 31.077115,-31.337425 40.143354,-40.458653 0.66623,-0.74707 0.46379,-0.37498 1.47358,-1.628786 L 109,7.5066332 C 109,7.179635 108.83457,7 108.49323,7 z"
       style="opacity:0.84653476;fill:url(#radialGradient5988-0);fill-opacity:1" />
    <g
       id="g4219"
       clip-path="none"
       transform="matrix(1.69352,0,0,1.69352,-50.140674,-83.79017)">
      <path
         inkscape:connector-curvature="0"
         id="path4549"
         d="m 91.444747,56.858462 c 0,0 -5.749041,1.796795 -9.668313,3.020556 -3.773683,1.118246 -7.686488,2.397239 -11.514856,4.108704 -3.828368,1.711466 -7.559719,3.874785 -10.935707,6.591989 -1.893183,1.547927 -3.59593,3.296057 -5.042008,5.237471 -1.446079,1.941414 -2.614439,4.070518 -3.474898,6.321084 -0.935326,2.450468 -1.381875,4.989073 -1.328637,7.540152 0.05324,2.551084 0.589798,5.110032 1.601178,7.495 1.205445,2.792322 3.092367,5.165922 5.382685,7.043492 2.290316,1.87759 4.973119,3.23534 7.801485,4.06355 3.427076,0.94583 6.873446,0.93703 9.913679,0.31606 1.979098,-0.40956 3.714996,-1.09233 5.212346,-1.89633 1.497351,-0.80399 2.760768,-1.72141 3.781506,-2.66388 1.615736,-1.51737 2.550879,-2.96522 3.134221,-4.06355 0.583349,-1.09833 0.830538,-1.862998 0.885758,-2.122083 0.151774,-0.712094 0.187746,-1.488627 0.136271,-2.30268 -0.07644,-1.134264 -0.368255,-2.296727 -0.885758,-3.295996 -0.517508,-0.999267 -1.235387,-1.834895 -2.044058,-2.438132 -0.808671,-0.603235 -1.686118,-0.980038 -2.555071,-1.038464 -2.139158,-0.143831 -4.518074,0.582733 -6.132172,1.760874 -1.174007,0.856915 -2.384649,2.287789 -2.72541,3.973254 -0.111721,0.552585 -0.739874,1.081952 -1.056097,1.309367 -0.316221,0.227414 -0.730646,0.458137 -1.192366,0.632108 -0.722504,0.278504 -1.747016,0.367852 -2.861681,0.225753 -0.911988,-0.07051 -1.9257,-0.419618 -2.929815,-1.083614 -1.004115,-0.664002 -2.004557,-1.639402 -2.72541,-2.754187 -0.654418,-0.9974 -1.073432,-2.203711 -1.260502,-3.566898 -0.187069,-1.363172 -0.15043,-2.883432 0.170338,-4.379609 0.60752,-2.815064 2.382442,-5.711988 4.837602,-8.307711 2.182551,-2.34037 4.986429,-4.356862 8.142162,-6.140482 3.155735,-1.783614 6.655571,-3.327137 10.152152,-4.831115 3.683669,-1.547843 9.395771,-4.284773 9.395771,-4.284773 -1.153004,-1.452039 -1.713379,-2.958261 -2.214395,-4.46991 z"
         style="fill:url(#linearGradient3181);fill-opacity:1;fill-rule:evenodd;stroke:none"
         sodipodi:nodetypes="ccscscsccccscsscssssssccscsccsccc" />
      <path
         inkscape:connector-curvature="0"
         inkscape:original-d="m 91.638999,56.98102 c -3.519995,1.223634 -5.943293,1.674237 -9.862565,2.897998 -3.773683,1.118246 -7.686488,2.397239 -11.514856,4.108704 -3.828368,1.711466 -7.559719,3.874785 -10.935707,6.591989 -1.893183,1.547927 -3.59593,3.296057 -5.042008,5.237471 -1.446079,1.941414 -2.614439,4.070518 -3.474898,6.321084 -0.935326,2.450468 -1.381875,4.989073 -1.328637,7.540152 0.05324,2.551084 0.589798,5.110032 1.601178,7.495 1.205445,2.792322 3.092367,5.165922 5.382685,7.043492 2.290316,1.87759 4.973119,3.23534 7.801485,4.06355 3.427076,0.94583 6.873446,0.93703 9.913679,0.31606 1.979098,-0.40956 3.714996,-1.09233 5.212346,-1.89633 1.497351,-0.80399 2.760768,-1.72141 3.781506,-2.66388 1.615736,-1.51737 2.550879,-2.96522 3.134221,-4.06355 0.583349,-1.09833 0.830538,-1.862998 0.885758,-2.122083 0.151774,-0.712094 0.187746,-1.488627 0.136271,-2.30268 -0.07644,-1.134264 -0.368255,-2.296727 -0.885758,-3.295996 -0.517508,-0.999267 -1.235387,-1.834895 -2.044058,-2.438132 -0.808671,-0.603235 -1.686118,-0.980038 -2.555071,-1.038464 -2.139158,-0.143831 -4.518074,0.582733 -6.132172,1.760874 -1.174007,0.856915 -2.384649,2.287789 -2.72541,3.973254 -0.111721,0.552585 -0.739874,1.081952 -1.056097,1.309367 -0.316221,0.227414 -0.730646,0.458137 -1.192366,0.632108 -0.722504,0.278504 -1.747016,0.367852 -2.861681,0.225753 -0.911988,-0.07051 -1.9257,-0.419618 -2.929815,-1.083614 -1.004115,-0.664002 -2.004557,-1.639402 -2.72541,-2.754187 -0.654418,-0.9974 -1.073432,-2.203711 -1.260502,-3.566898 -0.187069,-1.363172 -0.15043,-2.883432 0.170338,-4.379609 0.60752,-2.815064 2.382442,-5.711988 4.837602,-8.307711 2.182551,-2.34037 4.986429,-4.356862 8.142162,-6.140482 3.155735,-1.783614 6.655571,-3.327137 10.152152,-4.831115 3.683669,-1.547843 9.590023,-4.162215 9.590023,-4.162215 -0.284287,0.08794 -1.799367,-3.956571 -2.214395,-4.46991 z"
         inkscape:path-effect="#path-effect4627"
         style="opacity:0.51046;fill:#000000;fill-opacity:1;fill-rule:evenodd;stroke:#000000;stroke-width:0.573841;stroke-miterlimit:4;stroke-dasharray:none;stroke-opacity:1"
         d="m 74.574266,108.38652 c 1.657125,-0.38106 3.262949,-0.98571 4.762175,-1.78925 1.354773,-0.72622 2.631121,-1.60332 3.759576,-2.64385 1.244991,-1.16757 2.314015,-2.52637 3.114855,-4.031943 1e-6,-10e-7 2e-6,-3e-6 3e-6,-4e-6 0.359481,-0.678576 0.721903,-1.361257 0.877106,-2.093219 0.159103,-0.741438 0.183171,-1.510315 0.135901,-2.273362 -0.07572,-1.130246 -0.352942,-2.252643 -0.871797,-3.255439 -10e-7,-2e-6 -2e-6,-4e-6 -3e-6,-5e-6 -0.484634,-0.937019 -1.169038,-1.774894 -2.012665,-2.404845 -0.736622,-0.548378 -1.596744,-0.961249 -2.501461,-1.020835 -2.138148,-0.145223 -4.338036,0.475654 -6.070365,1.738128 -1.310315,0.957186 -2.373762,2.334076 -2.692531,3.915443 0,2e-6 -10e-7,4e-6 -10e-7,6e-6 -0.129179,0.598999 -0.619348,1.031068 -1.092472,1.363439 -0.373353,0.268001 -0.784202,0.480958 -1.212898,0.641994 -0.922378,0.352782 -1.938455,0.354106 -2.903631,0.228592 0.0042,4.3e-4 0.0042,4.3e-4 0.0042,4.3e-4 -1.067549,-0.08442 -2.083312,-0.511838 -2.968946,-1.099518 -2e-6,-1e-6 -3e-6,-2e-6 -5e-6,-3e-6 -1.093715,-0.724372 -2.035424,-1.677938 -2.746643,-2.779711 -0.704231,-1.076404 -1.097343,-2.331544 -1.269823,-3.600039 -0.199716,-1.463891 -0.136042,-2.961986 0.174636,-4.405557 0.692358,-3.188193 2.625344,-5.979127 4.861332,-8.337538 2.336082,-2.500512 5.186374,-4.467752 8.161688,-6.14598 3.26926,-1.84434 6.715576,-3.347158 10.161398,-4.826105 2e-6,0 3e-6,-10e-7 5e-6,-2e-6 2.062088,-0.864615 4.113216,-1.755639 6.162938,-2.650075 0.812041,-0.35435 1.623596,-0.709819 2.43468,-1.066365 2e-6,0 3e-6,-10e-7 5e-6,-2e-6 0.241611,-0.10621 0.483177,-0.212515 0.724681,-0.318957 0.06594,-0.02906 0.131877,-0.05814 0.197804,-0.08723 m 0.02927,0.07818 0,0 c 0.0086,-0.0096 0.01842,-0.01907 0.02931,-0.02837 0.0041,-0.0035 0.0084,-0.007 0.01279,-0.01042 -0.09482,0.01658 -0.145818,-0.09218 -0.176233,-0.155731 -10e-7,-2e-6 -2e-6,-3e-6 -3e-6,-5e-6 -0.09628,-0.143468 -0.174163,-0.296504 -0.250144,-0.448066 -0.234307,-0.466851 -0.441895,-0.945658 -0.650438,-1.4228 -0.223736,-0.511851 -0.442996,-1.02524 -0.673715,-1.533088 -0.145799,-0.319391 -0.261313,-0.655668 -0.475358,-0.919554 0.214645,0.263401 0.331058,0.599644 0.477463,0.918596 0.231857,0.507368 0.452269,1.020308 0.677122,1.531631 0.209605,0.476691 0.418206,0.954945 0.653388,1.420959 0.07632,0.151358 0.154333,0.303878 0.250468,0.446409 10e-7,1e-6 2e-6,3e-6 3e-6,4e-6 0.03352,0.06322 0.08339,0.17105 0.172317,0.152791 -0.0051,0.0033 -0.01002,0.0067 -0.01475,0.01 -0.01265,0.0089 -0.0245,0.01783 -0.03555,0.0269 l 0,0 m -0.02138,-0.05712 c -0.06586,0.02924 -0.131737,0.05846 -0.197615,0.08767 -0.241272,0.106978 -0.482607,0.213819 -0.723986,0.320565 -0.810306,0.358344 -1.621089,0.715613 -2.432363,1.071767 -2.047737,0.898966 -4.096941,1.794547 -6.15732,2.663809 -2e-6,0 -3e-6,10e-7 -5e-6,2e-6 -3.442392,1.486551 -6.884178,2.996415 -10.145705,4.846057 -2.96834,1.683384 -5.809004,3.652989 -8.13119,6.150488 0,2e-6 -1e-6,3e-6 -2e-6,5e-6 -2.22367,2.358274 -4.142785,5.139867 -4.819969,8.303294 -0.304973,1.432715 -0.364783,2.918487 -0.163636,4.368479 0,2e-6 0,4e-6 0,6e-6 0.174416,1.255347 0.564496,2.493717 1.259627,3.549132 0.704555,1.086085 1.63644,2.025409 2.716636,2.737507 0.873871,0.575435 1.869652,0.993294 2.907788,1.071375 0.956562,0.119423 1.95033,0.118411 2.837771,-0.226431 2e-6,0 3e-6,-10e-7 5e-6,-2e-6 0.417779,-0.158191 0.817165,-0.366141 1.178487,-0.626843 1e-6,-10e-7 3e-6,-2e-6 4e-6,-3e-6 0.458702,-0.335701 0.928433,-0.738905 1.030717,-1.274333 0.328171,-1.62778 1.408559,-3.039225 2.744789,-4.015808 2e-6,-10e-7 4e-6,-10e-7 6e-6,-2e-6 1.761651,-1.289661 3.996845,-1.926692 6.177118,-1.783083 0.949564,0.06402 1.842452,0.486543 2.598313,1.050308 0.868759,0.646437 1.573069,1.503825 2.07166,2.463655 0.534165,1.028657 0.821081,2.175815 0.900126,3.329455 0.05048,0.775434 0.02686,1.562435 -0.134793,2.328158 -0.163821,0.768205 -0.531214,1.469652 -0.891722,2.148127 -0.809583,1.52913 -1.889806,2.90901 -3.148751,4.09456 -10e-7,0 -2e-6,0 -4e-6,0 -1.14185,1.05714 -2.431749,1.94825 -3.800149,2.68541 -1.642784,0.88513 -3.413199,1.53417 -5.240994,1.9152 -0.28657,0.059 -0.574366,0.11209 -0.863143,0.15937 -3.024201,0.48799 -6.152975,0.33364 -9.10467,-0.48349 -2.847512,-0.83617 -5.54498,-2.2079 -7.83835,-4.09087 -2.317807,-1.90308 -4.218661,-4.331051 -5.40589,-7.086572 -1.006359,-2.378764 -1.550828,-4.950337 -1.602571,-7.53166 -0.05156,-2.579937 0.419061,-5.16401 1.340706,-7.57242 0.866077,-2.25956 2.044214,-4.398886 3.49103,-6.337903 1.457219,-1.952782 3.173051,-3.707193 5.059453,-5.246857 10e-7,0 2e-6,-1e-6 4e-6,-3e-6 3.332936,-2.677774 7.054131,-4.851654 10.956268,-6.592076 3.728491,-1.662938 7.613139,-2.945992 11.525478,-4.101671 3.274149,-1.019295 6.628266,-1.76752 9.863118,-2.889084 -3.231933,1.129961 -6.585071,1.887192 -9.85589,2.914762 -3.908431,1.16559 -7.788312,2.458231 -11.508868,4.129319 -3.893616,1.748821 -7.603698,3.929184 -10.922382,6.609908 -1.876972,1.54019 -3.582454,3.293122 -5.028535,5.241731 -1.435703,1.934553 -2.602916,4.067363 -3.458883,6.318019 -0.909573,2.395692 -1.370233,4.963529 -1.312239,7.52316 0.05795,2.56204 0.605022,5.112372 1.608956,7.468179 1.181957,2.725411 3.072121,5.125178 5.37229,7.004288 10e-7,0 2e-6,1e-5 3e-6,1e-5 2.276101,1.85952 4.953134,3.21128 7.775164,4.03246 3.20025,0.87731 6.61104,0.9665 9.860729,0.29685 0.14004,-0.0292 0.279742,-0.0601 0.419073,-0.0925"
         id="path4625"
         class="UnoptimicedTransforms"
         sodipodi:nodetypes="ccscscsccccscsscssssssccscsccsccc" />
      <path
         style="fill:none;stroke:#cd0000;stroke-width:0.1090164;stroke-linecap:butt;stroke-linejoin:miter;stroke-miterlimit:4;stroke-opacity:1;stroke-dasharray:none"
         d="M 84.910656,85.920492 70.193443,93.006557"
         id="path4637"
         inkscape:connector-curvature="0"
         sodipodi:nodetypes="cc" />
      <path
         style="opacity:0.40167362;fill:#006fc2;fill-opacity:1;stroke:none"
         d="m 84.910656,83.740164 0,0.545082 0,2.180328 0,0.545082 0.545082,0 2.180328,0 0.545082,0 0,-0.545082 0,-2.72541 -2.72541,0 z m 0.545082,0.545082 2.180328,0 0,2.180328 -2.180328,0 z"
         id="path4639"
         inkscape:connector-curvature="0"
         sodipodi:nodetypes="cccccccccccccccc" />
      <path
         sodipodi:nodetypes="cccccccccccccccc"
         inkscape:connector-curvature="0"
         id="path4641"
         d="m 67.468033,91.916393 0,0.545082 0,2.180328 0,0.545082 0.545082,0 2.180328,0 0.545082,0 0,-0.545082 0,-2.72541 -2.72541,0 z m 0.545082,0.545082 2.180328,0 0,2.180328 -2.180328,0 z"
         style="opacity:0.40167362;fill:#0075cd;fill-opacity:1;stroke:none" />
      <path
         inkscape:connector-curvature="0"
         id="path4645"
         d="m 76.189344,88.10082 0,2.72541 2.72541,0 0,-2.72541 -2.72541,0 z m 0.545082,0.545082 1.635246,0 0,1.635246 -1.635246,0 0,-1.635246 z"
         style="opacity:0.40167362;fill:url(#linearGradient3183);fill-opacity:1;stroke:none" />
      <path
         sodipodi:nodetypes="ccccc"
         inkscape:connector-curvature="0"
         id="path4781"
         d="m 48.502925,63.648596 0.113667,47.090864 2.248278,0.14802 0,-47.238884 z"
         style="font-size:medium;font-style:normal;font-variant:normal;font-weight:normal;font-stretch:normal;text-indent:0;text-align:start;text-decoration:none;line-height:normal;letter-spacing:normal;word-spacing:normal;text-transform:none;direction:ltr;block-progression:tb;writing-mode:lr-tb;text-anchor:start;baseline-shift:baseline;color:#000000;fill:url(#radialGradient3185);fill-opacity:1;stroke:none;stroke-width:0.5;marker:none;visibility:visible;display:inline;overflow:visible;enable-background:accumulate;font-family:Sans;-inkscape-font-specification:Sans" />
      <path
         sodipodi:nodetypes="ccccc"
         inkscape:connector-curvature="0"
         id="path4155"
         d="m 50.86487,91.991928 0,-4.723889 -4.723889,0 0,4.723889 z"
         style="fill:url(#linearGradient3187);fill-opacity:1;stroke:none" />
      <path
         style="fill:#0075cd;fill-opacity:1;stroke:none"
         d="m 46.889474,109.27402 0,1.61346 0,5.76591 0,0.57143 0.571429,0 6.807932,0 0.571429,0 0,-0.57143 0,-7.37937 -6.337339,0 z m 1.613451,1.61346 4.723889,0 0,4.72389 -4.723889,0 z"
         id="path4210"
         inkscape:connector-curvature="0"
         sodipodi:nodetypes="cccccccccccccccc" />
      <path
         sodipodi:nodetypes="cccccccccc"
         inkscape:connector-curvature="0"
         id="path4779"
         d="m 46.889474,57.311257 c 0,1.831109 10e-7,6.293509 10e-7,7.950769 1.716101,0 6.483734,0.0029 7.965189,0.0029 0,-1.666667 -0.01424,-6.302487 -0.01424,-7.969154 -1.666667,0 -6.284278,0.01548 -7.950945,0.01548 z m 1.613451,1.61345 4.724044,-0.01548 -1.55e-4,4.739374 -4.723889,0 z"
         style="fill:#0075cd;fill-opacity:1;stroke:none" />
    </g>
    <path
       style="fill:#000000"
       d=""
       id="path2197" />
    <path
       clip-path="none"
       style="opacity:0.5796419;mix-blend-mode:normal;fill:#000000;fill-opacity:1;stroke:none;filter:url(#filter6171-8)"
       d="m 105.72006,87.693475 c -5.10854,3.46508 -20.174689,2.225237 -25.955859,2.306257 -0.081,5.781159 0.786541,16.143798 0.786541,22.293818 12.863879,-10.07529 17.305367,-14.093102 25.169318,-24.600075 z"
       id="path6153"
       inkscape:connector-curvature="0"
       sodipodi:nodetypes="cccc"
       transform="matrix(1.2713893,0,0,1.3008089,-31.329458,-34.567189)"
       inkscape:label="fold-shadow" />
    <g
       id="g3252-6"
       transform="translate(42.636364,9.1101634)">
      <g
         transform="matrix(1.6332228,0,0,1.6332228,-59.011243,-15.724791)"
         id="g7065-3">
        <circle
           id="circle7067-2"
           r="2"
           cy="14"
           cx="10"
           style="fill:url(#linearGradient6204);stroke-width:0.1;stroke-miterlimit:4;stroke-dasharray:none"
           transform="matrix(0.87121524,0,0,0.87121524,12.358158,0.48176727)" />
        <circle
           id="circle7069-0"
           r="1.556"
           cy="14"
           cx="10"
           style="fill:url(#linearGradient6206);stroke-width:0.1;stroke-miterlimit:4;stroke-dasharray:none"
           transform="matrix(1.0007524,0,0,1.0007524,11.062783,-1.3317548)" />
      </g>
      <g
         id="g3862-6"
         transform="matrix(1.9147851,0,0,1.9147856,-64.943854,-19.526175)">
        <circle
           transform="matrix(0.87121524,0,0,0.87121524,12.358158,0.48176727)"
           style="fill:url(#linearGradient6208);stroke-width:0.1;stroke-miterlimit:4;stroke-dasharray:none"
           cx="10"
           cy="14"
           r="2"
           id="circle3864-1" />
        <circle
           transform="matrix(1.0007524,0,0,1.0007524,11.062783,-1.3317548)"
           style="fill:url(#linearGradient6210);stroke-width:0.1;stroke-miterlimit:4;stroke-dasharray:none"
           cx="10"
           cy="14"
           r="1.556"
           id="circle3866-5" />
      </g>
      <g
         transform="matrix(1.9147851,0,0,1.9147856,-65.043854,-3.2442727)"
         id="g3914-5">
        <circle
           id="circle3916-4"
           r="2"
           cy="14"
           cx="10"
           style="fill:url(#linearGradient6212);stroke-width:0.1;stroke-miterlimit:4;stroke-dasharray:none"
           transform="matrix(0.87121524,0,0,0.87121524,12.358158,0.48176727)" />
        <circle
           id="circle3918-7"
           r="1.556"
           cy="14"
           cx="10"
           style="fill:url(#linearGradient6214);stroke-width:0.1;stroke-miterlimit:4;stroke-dasharray:none"
           transform="matrix(1.0007524,0,0,1.0007524,11.062783,-1.3317548)" />
      </g>
      <g
         id="g3924-6"
         transform="matrix(1.9147851,0,0,1.9147856,-65.043854,13.13763)">
        <circle
           transform="matrix(0.87121524,0,0,0.87121524,12.358158,0.48176727)"
           style="fill:url(#linearGradient6216);stroke-width:0.1;stroke-miterlimit:4;stroke-dasharray:none"
           cx="10"
           cy="14"
           r="2"
           id="circle3926-5" />
        <circle
           transform="matrix(1.0007524,0,0,1.0007524,11.062783,-1.3317548)"
           style="fill:url(#linearGradient6218);stroke-width:0.1;stroke-miterlimit:4;stroke-dasharray:none"
           cx="10"
           cy="14"
           r="1.556"
           id="circle3928-6" />
      </g>
      <g
         transform="matrix(1.9147851,0,0,1.9147856,-65.143854,28.819533)"
         id="g3942-9">
        <circle
           id="circle3944-3"
           r="2"
           cy="14"
           cx="10"
           style="fill:url(#linearGradient6220);stroke-width:0.1;stroke-miterlimit:4;stroke-dasharray:none"
           transform="matrix(0.87121524,0,0,0.87121524,12.358158,0.48176727)" />
        <circle
           id="circle3946-7"
           r="1.556"
           cy="14"
           cx="10"
           style="fill:url(#linearGradient6222);stroke-width:0.1;stroke-miterlimit:4;stroke-dasharray:none"
           transform="matrix(1.0007524,0,0,1.0007524,11.062783,-1.3317548)" />
      </g>
      <g
         id="g3952-4"
         transform="matrix(1.9147851,0,0,1.9147856,-65.243854,45.101436)">
        <circle
           transform="matrix(0.87121524,0,0,0.87121524,12.358158,0.48176727)"
           style="fill:url(#linearGradient6224);stroke-width:0.1;stroke-miterlimit:4;stroke-dasharray:none"
           cx="10"
           cy="14"
           r="2"
           id="circle3954-5" />
        <circle
           transform="matrix(1.0007524,0,0,1.0007524,11.062783,-1.3317548)"
           style="fill:url(#linearGradient6226);stroke-width:0.1;stroke-miterlimit:4;stroke-dasharray:none"
           cx="10"
           cy="14"
           r="1.556"
           id="circle3956-2" />
      </g>
      <g
         transform="matrix(1.9147851,0,0,1.9147856,-64.943854,60.883338)"
         id="g3962-5">
        <circle
           id="circle3964-4"
           r="2"
           cy="14"
           cx="10"
           style="fill:url(#linearGradient6228);stroke-width:0.1;stroke-miterlimit:4;stroke-dasharray:none"
           transform="matrix(0.87121524,0,0,0.87121524,12.358158,0.48176727)" />
        <circle
           id="circle3966-7"
           r="1.556"
           cy="14"
           cx="10"
           style="fill:url(#linearGradient6230);stroke-width:0.1;stroke-miterlimit:4;stroke-dasharray:none"
           transform="matrix(1.0007524,0,0,1.0007524,11.062783,-1.3317548)" />
      </g>
      <g
         id="g3972-4"
         transform="matrix(1.9147851,0,0,1.9147856,-65.043854,77.065242)">
        <circle
           transform="matrix(0.87121524,0,0,0.87121524,12.358158,0.48176727)"
           style="fill:url(#linearGradient3422);stroke-width:0.1;stroke-miterlimit:4;stroke-dasharray:none"
           cx="10"
           cy="14"
           r="2"
           id="circle3974-4" />
        <circle
           transform="matrix(1.0007524,0,0,1.0007524,11.062783,-1.3317548)"
           style="fill:url(#linearGradient3425);stroke-width:0.1;stroke-miterlimit:4;stroke-dasharray:none"
           cx="10"
           cy="14"
           r="1.556"
           id="circle3976-3" />
      </g>
    </g>
    <rect
       style="fill:#000000;fill-opacity:1;stroke:none;filter:url(#filter5394)"
       id="rect6905"
       width="10.176779"
       height="108"
       x="18"
       y="11"
       transform="matrix(1.3875024,0,0,1.0912184,-10.241532,-6.9575889)" />
    <rect
       id="rect4046"
       height="119.99435"
       width="16.102285"
       style="fill:url(#linearGradient7198);fill-opacity:1"
       x="11.99316"
       y="3.9744411" />
    <polygon
       transform="matrix(1.0272654,0,0,1.0713781,15.768261,3.9744388)"
       id="polygon4054"
       points="12,0 12,112 8,111 8,1 "
       style="opacity:0.8;fill:url(#linearGradient7261);fill-opacity:1" />
    <path
       inkscape:connector-curvature="0"
       id="path4604"
       d="m 25.617397,9.4567388 c 0,0.3267738 -0.167942,0.5871142 -0.501181,0.7831772 -0.334561,0.196062 -0.825163,0.293557 -1.473127,0.293557 -0.565978,0 -1.018231,-0.09746 -1.352792,-0.292484 -0.337206,-0.196062 -0.505148,-0.4521274 -0.505148,-0.7692472 0,-0.232492 0.0886,-0.433913 0.268444,-0.606403 0.181164,-0.172489 0.420515,-0.295705 0.718049,-0.367488 0.298858,-0.07067 0.61755,-0.107129 0.958724,-0.107129 0.571267,0 1.027487,0.09961 1.371305,0.297843 0.343817,0.1982 0.515726,0.454265 0.515726,0.768174 z m -0.686313,0.0082 c 0,-0.117847 -0.100505,-0.207845 -0.30018,-0.266773 -0.198357,-0.06003 -0.497213,-0.09 -0.895249,-0.09 -0.420515,0 -0.736564,0.02996 -0.946821,0.08897 -0.207613,0.05891 -0.313403,0.146779 -0.313403,0.263561 0,0.115709 0.101821,0.201422 0.305468,0.259276 0.202324,0.05788 0.509116,0.0857 0.916407,0.0857 0.41126,0 0.719373,-0.02782 0.924342,-0.08468 0.204968,-0.05676 0.309436,-0.141429 0.309436,-0.256064 z"
       style="fill:url(#linearGradient5248);fill-opacity:1" />
    <path
       inkscape:connector-curvature="0"
       id="path4614"
       d="m 25.051007,29.495737 v 0.545337 h -3.420989 v -0.634261 h 2.173987 v -0.437125 h 0.591102 v 0.10176 c 0,0.133923 0.04496,0.23785 0.136206,0.312845 0.08993,0.07394 0.226127,0.111424 0.405969,0.111424 h 0.113729 z"
       style="fill:url(#linearGradient5246);fill-opacity:1" />
    <path
       inkscape:connector-curvature="0"
       style="fill:url(#linearGradient5244);fill-opacity:1"
       d="m 25.030282,49.350986 c 0.149429,0.238914 0.224804,0.487472 0.224804,0.745675 0,0.157496 -0.03438,0.309634 -0.103149,0.455338 -0.07008,0.145705 -0.178522,0.263562 -0.327949,0.356771 -0.149429,0.09317 -0.325306,0.138208 -0.524985,0.138208 -0.194389,0 -0.36762,-0.04398 -0.517049,-0.131785 -0.149428,-0.08785 -0.273732,-0.221774 -0.375554,-0.398548 -0.04761,0.227132 -0.148107,0.398548 -0.301503,0.512119 -0.152073,0.113561 -0.358364,0.170352 -0.61755,0.170352 -0.349107,0 -0.63474,-0.102854 -0.860867,-0.307487 -0.226126,-0.204633 -0.33985,-0.471405 -0.33985,-0.799253 0,-0.233556 0.06877,-0.48105 0.203646,-0.74139 h 0.844998 c -0.193066,0.21213 -0.288278,0.423195 -0.288278,0.629966 0,0.1275 0.05025,0.235703 0.150751,0.324627 0.100505,0.08898 0.22216,0.133923 0.366299,0.133923 0.137527,0 0.249929,-0.04285 0.338528,-0.129638 0.0886,-0.08683 0.130915,-0.1982 0.130915,-0.332123 V 49.65204 h 0.6678 v 0.214277 c 0,0.124279 0.03438,0.226059 0.10315,0.306412 0.07008,0.08141 0.165297,0.121068 0.292244,0.121068 0.116374,0 0.211581,-0.03641 0.288279,-0.107138 0.07537,-0.07179 0.1124,-0.160708 0.1124,-0.269984 0,-0.161782 -0.09786,-0.350348 -0.294889,-0.565689 h 0.827807 v 0 z"
       id="path4624" />
    <path
       inkscape:connector-curvature="0"
       id="path4634"
       d="m 25.171777,73.565339 v 0.768184 h -2.143573 v 0.374974 h -0.687635 v -0.374974 h -1.135922 v -0.768184 h 1.135922 v -1.113163 h 0.741853 z m -1.137245,0 -1.006328,-0.528186 v 0.528186 z"
       style="fill:url(#linearGradient5242);fill-opacity:1" />
    <path
       inkscape:connector-curvature="0"
       id="path4644"
       d="m 25.292547,94.356413 v 1.652067 h -0.736564 v -0.904245 h -0.710117 c 0.124304,0.124279 0.186456,0.247484 0.186456,0.373911 0,0.171416 -0.100505,0.335345 -0.302824,0.493905 -0.202323,0.160708 -0.502504,0.238914 -0.900538,0.238914 -0.441675,0 -0.801361,-0.102853 -1.081705,-0.311772 -0.280343,-0.208918 -0.420515,-0.478901 -0.420515,-0.812099 0,-0.217488 0.07273,-0.460697 0.216869,-0.730681 h 0.876736 c -0.214225,0.234629 -0.321338,0.443547 -0.321338,0.623543 0,0.129638 0.06612,0.238914 0.197034,0.326764 0.130916,0.08785 0.296213,0.133923 0.493247,0.133923 0.142817,0 0.259186,-0.0225 0.353074,-0.07067 0.09257,-0.04612 0.13885,-0.107139 0.13885,-0.177849 0,-0.07496 -0.06083,-0.138208 -0.179843,-0.186418 v -0.64818 h 2.191178 v -10e-4 z"
       style="fill:url(#linearGradient5240);fill-opacity:1" />
    <path
       inkscape:connector-curvature="0"
       id="path4654"
       d="m 23.704372,116.95684 c 0.129594,0.0825 0.226127,0.16713 0.289601,0.25606 0.06348,0.089 0.09521,0.17999 0.09521,0.27213 0,0.21856 -0.12695,0.40284 -0.378201,0.55497 -0.251252,0.15214 -0.551431,0.22713 -0.900539,0.22713 -0.39539,0 -0.728629,-0.0943 -0.997071,-0.28391 -0.271088,-0.18856 -0.40597,-0.42105 -0.40597,-0.69533 0,-0.29248 0.163974,-0.54747 0.493246,-0.76389 0.329272,-0.21748 0.807973,-0.32677 1.440068,-0.32677 0.362332,0 0.698216,0.045 1.008976,0.13607 0.309436,0.09 0.558042,0.23034 0.744497,0.42105 0.187778,0.18964 0.280344,0.41783 0.280344,0.68354 0,0.18535 -0.05554,0.39534 -0.167942,0.62997 h -0.864834 c 0.185132,-0.20571 0.276377,-0.38356 0.276377,-0.53355 0,-0.14464 -0.07537,-0.27213 -0.22216,-0.38355 -0.149429,-0.1125 -0.379523,-0.17678 -0.691604,-0.19392 z m -0.81855,0 c -0.230094,0.0193 -0.40597,0.0579 -0.526307,0.11571 -0.121659,0.06 -0.182487,0.12642 -0.182487,0.20141 0,0.0697 0.05554,0.12964 0.166619,0.17786 0.109756,0.0482 0.248607,0.0707 0.416549,0.0707 0.158685,0 0.285633,-0.0225 0.383489,-0.0664 0.09786,-0.045 0.145461,-0.105 0.145461,-0.18107 0,-0.0546 -0.03305,-0.1082 -0.09918,-0.16071 -0.06612,-0.0514 -0.167942,-0.10499 -0.304147,-0.15749 z"
       style="fill:url(#linearGradient5238);fill-opacity:1" />
    <rect
       style="opacity:0.535565;fill:#ffffff;fill-opacity:1;stroke:none"
       id="rect5402"
       width="16.102285"
       height="2.1130488"
       x="11.99316"
       y="3.9744411" />
    <rect
       y="-123.96876"
       x="11.99316"
       height="117.8813"
       width="2.6080863"
       id="rect5404"
       style="opacity:0.535565;fill:#ffffff;fill-opacity:1;stroke:none"
       transform="scale(1,-1)" />
    <path
       style="fill:url(#linearGradient3895-3);fill-opacity:1;stroke:none"
       d="m 111.80692,72.373791 c 0,6.193164 -3.79585,8.890306 -7.16393,11.225476 C 97.711316,88.405175 83.444341,87.387629 75.6,87.5 c -0.109909,8.0182 0.701692,21.4147 -4,28.5 -2.284534,3.44276 -6.727129,8.38457 -10.67601,8.38457 3.145284,0 6.435454,-1.85125 10.290589,-5.66544 12.404537,-12.27278 23.56509,-22.378984 34.835341,-35.086504 2.60379,-2.935824 5.757,-5.051122 5.757,-11.258835 z"
       id="path6011"
       inkscape:connector-curvature="0"
       sodipodi:nodetypes="cscscssc" />
    <path
       style="fill:#ffffff;fill-opacity:1;stroke:none"
       d="m 111.83234,71.941762 c -0.42932,5.407885 -4.39696,7.298568 -6.55729,8.796367 C 100.15305,84.28932 93.349113,84 72,84 c 0,19.65502 0.5,28.4 -3.219913,33.20293 -2.21447,2.85919 -6.648335,6.04727 -10.26176,6.86542 4.951272,0 8.407066,-1.08166 11.641616,-4.28186 0.460141,-0.53889 1.37925,-1.54169 2.101048,-2.68043 C 76.100178,111.32051 76,99.904353 76,88 c 7.844341,-0.112342 21.630842,1.155905 28.5625,-3.65 0.63154,-0.437847 2.56984,-2.009889 3.13546,-2.57551 3.14173,-3.14173 3.82294,-5.144366 4.13438,-9.832728 z M 58.518327,124.06835 c -0.213922,0.0483 -0.425295,0.0575 -0.636038,0.0866 0.213019,-0.0234 0.421235,-0.0465 0.636038,-0.0866 z"
       id="path6122"
       inkscape:connector-curvature="0"
       sodipodi:nodetypes="cscsccccsscccc" />
    <path
       sodipodi:nodetypes="cscscssc"
       inkscape:connector-curvature="0"
       id="path3891-5"
       d="m 111.8069,72.373789 c 0,6.193167 -3.79585,8.890308 -7.16393,11.225485 -6.931665,4.805906 -20.270552,4.612121 -28.114894,4.724492 -0.109907,8.018201 0.225052,21.504164 -4.476638,28.589474 -2.284534,3.44275 -7.178576,7.47134 -11.127456,7.47134 3.145283,0 6.435454,-1.85125 10.290588,-5.66544 12.404536,-12.27278 23.565087,-22.37899 34.83533,-35.08651 2.60378,-2.935828 5.757,-5.051121 5.757,-11.258841 z"
       style="fill:url(#linearGradient3893);fill-opacity:1;stroke:none;stroke-width:1.37183" />
    <path
       style="fill:none;stroke:url(#radialGradient3919-5);stroke-width:1.85606;stroke-linecap:butt;stroke-linejoin:miter;stroke-miterlimit:4;stroke-dasharray:none;stroke-opacity:1;filter:url(#filter3909-6)"
       d="M 108.97651,89.508691 79.934895,118.21077"
       id="path3873"
       inkscape:connector-curvature="0"
       sodipodi:nodetypes="cc"
       clip-path="none"
       transform="matrix(1.3568778,0,0,1.3869539,-40.071158,-44.099691)" />
    <g
       id="g3252"
       transform="translate(42.647378,9.1923883)">
      <g
         transform="matrix(1.6332228,0,0,1.6332228,-59.011243,-15.724791)"
         id="g7065">
        <circle
           id="circle7067"
           r="2"
           cy="14"
           cx="10"
           style="fill:url(#linearGradient3278);stroke-width:0.1;stroke-miterlimit:4;stroke-dasharray:none"
           sodipodi:cx="10"
           sodipodi:cy="14"
           sodipodi:rx="2"
           sodipodi:ry="2"
           d="m 12,14 c 0,1.104569 -0.895431,2 -2,2 -1.1045695,0 -2,-0.895431 -2,-2 0,-1.104569 0.8954305,-2 2,-2 1.104569,0 2,0.895431 2,2 z"
           transform="matrix(0.87121524,0,0,0.87121524,12.358158,0.48176727)" />
        <circle
           id="circle7069"
           r="1.556"
           cy="14"
           cx="10"
           style="fill:url(#linearGradient3280);stroke-width:0.1;stroke-miterlimit:4;stroke-dasharray:none"
           sodipodi:cx="10"
           sodipodi:cy="14"
           sodipodi:rx="1.556"
           sodipodi:ry="1.556"
           d="m 11.556,14 c 0,0.859355 -0.696645,1.556 -1.556,1.556 -0.8593551,0 -1.556,-0.696645 -1.556,-1.556 0,-0.859355 0.6966449,-1.556 1.556,-1.556 0.859355,0 1.556,0.696645 1.556,1.556 z"
           transform="matrix(1.0007524,0,0,1.0007524,11.062783,-1.3317548)" />
      </g>
      <g
         id="g3862"
         transform="matrix(1.9147851,0,0,1.9147856,-64.943854,-19.526175)">
        <circle
           transform="matrix(0.87121524,0,0,0.87121524,12.358158,0.48176727)"
           d="m 12,14 c 0,1.104569 -0.895431,2 -2,2 -1.1045695,0 -2,-0.895431 -2,-2 0,-1.104569 0.8954305,-2 2,-2 1.104569,0 2,0.895431 2,2 z"
           sodipodi:ry="2"
           sodipodi:rx="2"
           sodipodi:cy="14"
           sodipodi:cx="10"
           style="fill:url(#linearGradient3282);stroke-width:0.1;stroke-miterlimit:4;stroke-dasharray:none"
           cx="10"
           cy="14"
           r="2"
           id="circle3864" />
        <circle
           transform="matrix(1.0007524,0,0,1.0007524,11.062783,-1.3317548)"
           d="m 11.556,14 c 0,0.859355 -0.696645,1.556 -1.556,1.556 -0.8593551,0 -1.556,-0.696645 -1.556,-1.556 0,-0.859355 0.6966449,-1.556 1.556,-1.556 0.859355,0 1.556,0.696645 1.556,1.556 z"
           sodipodi:ry="1.556"
           sodipodi:rx="1.556"
           sodipodi:cy="14"
           sodipodi:cx="10"
           style="fill:url(#linearGradient3284);stroke-width:0.1;stroke-miterlimit:4;stroke-dasharray:none"
           cx="10"
           cy="14"
           r="1.556"
           id="circle3866" />
      </g>
      <g
         transform="matrix(1.9147851,0,0,1.9147856,-65.043854,-3.2442727)"
         id="g3914">
        <circle
           id="circle3916"
           r="2"
           cy="14"
           cx="10"
           style="fill:url(#linearGradient3286);stroke-width:0.1;stroke-miterlimit:4;stroke-dasharray:none"
           sodipodi:cx="10"
           sodipodi:cy="14"
           sodipodi:rx="2"
           sodipodi:ry="2"
           d="m 12,14 c 0,1.104569 -0.895431,2 -2,2 -1.1045695,0 -2,-0.895431 -2,-2 0,-1.104569 0.8954305,-2 2,-2 1.104569,0 2,0.895431 2,2 z"
           transform="matrix(0.87121524,0,0,0.87121524,12.358158,0.48176727)" />
        <circle
           id="circle3918"
           r="1.556"
           cy="14"
           cx="10"
           style="fill:url(#linearGradient3288);stroke-width:0.1;stroke-miterlimit:4;stroke-dasharray:none"
           sodipodi:cx="10"
           sodipodi:cy="14"
           sodipodi:rx="1.556"
           sodipodi:ry="1.556"
           d="m 11.556,14 c 0,0.859355 -0.696645,1.556 -1.556,1.556 -0.8593551,0 -1.556,-0.696645 -1.556,-1.556 0,-0.859355 0.6966449,-1.556 1.556,-1.556 0.859355,0 1.556,0.696645 1.556,1.556 z"
           transform="matrix(1.0007524,0,0,1.0007524,11.062783,-1.3317548)" />
      </g>
      <g
         id="g3924"
         transform="matrix(1.9147851,0,0,1.9147856,-65.043854,13.13763)">
        <circle
           transform="matrix(0.87121524,0,0,0.87121524,12.358158,0.48176727)"
           d="m 12,14 c 0,1.104569 -0.895431,2 -2,2 -1.1045695,0 -2,-0.895431 -2,-2 0,-1.104569 0.8954305,-2 2,-2 1.104569,0 2,0.895431 2,2 z"
           sodipodi:ry="2"
           sodipodi:rx="2"
           sodipodi:cy="14"
           sodipodi:cx="10"
           style="fill:url(#linearGradient3290);stroke-width:0.1;stroke-miterlimit:4;stroke-dasharray:none"
           cx="10"
           cy="14"
           r="2"
           id="circle3926" />
        <circle
           transform="matrix(1.0007524,0,0,1.0007524,11.062783,-1.3317548)"
           d="m 11.556,14 c 0,0.859355 -0.696645,1.556 -1.556,1.556 -0.8593551,0 -1.556,-0.696645 -1.556,-1.556 0,-0.859355 0.6966449,-1.556 1.556,-1.556 0.859355,0 1.556,0.696645 1.556,1.556 z"
           sodipodi:ry="1.556"
           sodipodi:rx="1.556"
           sodipodi:cy="14"
           sodipodi:cx="10"
           style="fill:url(#linearGradient3292);stroke-width:0.1;stroke-miterlimit:4;stroke-dasharray:none"
           cx="10"
           cy="14"
           r="1.556"
           id="circle3928" />
      </g>
      <g
         transform="matrix(1.9147851,0,0,1.9147856,-65.143854,28.819533)"
         id="g3942">
        <circle
           id="circle3944"
           r="2"
           cy="14"
           cx="10"
           style="fill:url(#linearGradient3294);stroke-width:0.1;stroke-miterlimit:4;stroke-dasharray:none"
           sodipodi:cx="10"
           sodipodi:cy="14"
           sodipodi:rx="2"
           sodipodi:ry="2"
           d="m 12,14 c 0,1.104569 -0.895431,2 -2,2 -1.1045695,0 -2,-0.895431 -2,-2 0,-1.104569 0.8954305,-2 2,-2 1.104569,0 2,0.895431 2,2 z"
           transform="matrix(0.87121524,0,0,0.87121524,12.358158,0.48176727)" />
        <circle
           id="circle3946"
           r="1.556"
           cy="14"
           cx="10"
           style="fill:url(#linearGradient3296);stroke-width:0.1;stroke-miterlimit:4;stroke-dasharray:none"
           sodipodi:cx="10"
           sodipodi:cy="14"
           sodipodi:rx="1.556"
           sodipodi:ry="1.556"
           d="m 11.556,14 c 0,0.859355 -0.696645,1.556 -1.556,1.556 -0.8593551,0 -1.556,-0.696645 -1.556,-1.556 0,-0.859355 0.6966449,-1.556 1.556,-1.556 0.859355,0 1.556,0.696645 1.556,1.556 z"
           transform="matrix(1.0007524,0,0,1.0007524,11.062783,-1.3317548)" />
      </g>
      <g
         id="g3952"
         transform="matrix(1.9147851,0,0,1.9147856,-65.243854,45.101436)">
        <circle
           transform="matrix(0.87121524,0,0,0.87121524,12.358158,0.48176727)"
           d="m 12,14 c 0,1.104569 -0.895431,2 -2,2 -1.1045695,0 -2,-0.895431 -2,-2 0,-1.104569 0.8954305,-2 2,-2 1.104569,0 2,0.895431 2,2 z"
           sodipodi:ry="2"
           sodipodi:rx="2"
           sodipodi:cy="14"
           sodipodi:cx="10"
           style="fill:url(#linearGradient3298);stroke-width:0.1;stroke-miterlimit:4;stroke-dasharray:none"
           cx="10"
           cy="14"
           r="2"
           id="circle3954" />
        <circle
           transform="matrix(1.0007524,0,0,1.0007524,11.062783,-1.3317548)"
           d="m 11.556,14 c 0,0.859355 -0.696645,1.556 -1.556,1.556 -0.8593551,0 -1.556,-0.696645 -1.556,-1.556 0,-0.859355 0.6966449,-1.556 1.556,-1.556 0.859355,0 1.556,0.696645 1.556,1.556 z"
           sodipodi:ry="1.556"
           sodipodi:rx="1.556"
           sodipodi:cy="14"
           sodipodi:cx="10"
           style="fill:url(#linearGradient3300);stroke-width:0.1;stroke-miterlimit:4;stroke-dasharray:none"
           cx="10"
           cy="14"
           r="1.556"
           id="circle3956" />
      </g>
      <g
         transform="matrix(1.9147851,0,0,1.9147856,-64.943854,60.883338)"
         id="g3962">
        <circle
           id="circle3964"
           r="2"
           cy="14"
           cx="10"
           style="fill:url(#linearGradient3302);stroke-width:0.1;stroke-miterlimit:4;stroke-dasharray:none"
           sodipodi:cx="10"
           sodipodi:cy="14"
           sodipodi:rx="2"
           sodipodi:ry="2"
           d="m 12,14 c 0,1.104569 -0.895431,2 -2,2 -1.1045695,0 -2,-0.895431 -2,-2 0,-1.104569 0.8954305,-2 2,-2 1.104569,0 2,0.895431 2,2 z"
           transform="matrix(0.87121524,0,0,0.87121524,12.358158,0.48176727)" />
        <circle
           id="circle3966"
           r="1.556"
           cy="14"
           cx="10"
           style="fill:url(#linearGradient3304);stroke-width:0.1;stroke-miterlimit:4;stroke-dasharray:none"
           sodipodi:cx="10"
           sodipodi:cy="14"
           sodipodi:rx="1.556"
           sodipodi:ry="1.556"
           d="m 11.556,14 c 0,0.859355 -0.696645,1.556 -1.556,1.556 -0.8593551,0 -1.556,-0.696645 -1.556,-1.556 0,-0.859355 0.6966449,-1.556 1.556,-1.556 0.859355,0 1.556,0.696645 1.556,1.556 z"
           transform="matrix(1.0007524,0,0,1.0007524,11.062783,-1.3317548)" />
      </g>
      <g
         id="g3972"
         transform="matrix(1.9147851,0,0,1.9147856,-65.043854,77.065242)">
        <circle
           transform="matrix(0.87121524,0,0,0.87121524,12.358158,0.48176727)"
           d="m 12,14 c 0,1.104569 -0.895431,2 -2,2 -1.1045695,0 -2,-0.895431 -2,-2 0,-1.104569 0.8954305,-2 2,-2 1.104569,0 2,0.895431 2,2 z"
           sodipodi:ry="2"
           sodipodi:rx="2"
           sodipodi:cy="14"
           sodipodi:cx="10"
           style="fill:url(#linearGradient3306);stroke-width:0.1;stroke-miterlimit:4;stroke-dasharray:none"
           cx="10"
           cy="14"
           r="2"
           id="circle3974" />
        <circle
           transform="matrix(1.0007524,0,0,1.0007524,11.062783,-1.3317548)"
           d="m 11.556,14 c 0,0.859355 -0.696645,1.556 -1.556,1.556 -0.8593551,0 -1.556,-0.696645 -1.556,-1.556 0,-0.859355 0.6966449,-1.556 1.556,-1.556 0.859355,0 1.556,0.696645 1.556,1.556 z"
           sodipodi:ry="1.556"
           sodipodi:rx="1.556"
           sodipodi:cy="14"
           sodipodi:cx="10"
           style="fill:url(#linearGradient3308);stroke-width:0.1;stroke-miterlimit:4;stroke-dasharray:none"
           cx="10"
           cy="14"
           r="1.556"
           id="circle3976" />
      </g>
    </g>
  </g>
</svg>
