<?xml version="1.0" encoding="UTF-8" standalone="no"?>
<!-- Created with Inkscape (http://www.inkscape.org/) -->

<svg
   inkscape:output_extension="org.inkscape.output.svgz.inkscape"
   sodipodi:docname="pamac-tray-no-update.svg"
   version="1.0"
   inkscape:version="1.2.2 (b0a8486541, 2022-12-01)"
   sodipodi:version="0.32"
   id="svg2830"
   height="128"
   width="128"
   xmlns:inkscape="http://www.inkscape.org/namespaces/inkscape"
   xmlns:sodipodi="http://sodipodi.sourceforge.net/DTD/sodipodi-0.dtd"
   xmlns:xlink="http://www.w3.org/1999/xlink"
   xmlns="http://www.w3.org/2000/svg"
   xmlns:svg="http://www.w3.org/2000/svg"
   xmlns:rdf="http://www.w3.org/1999/02/22-rdf-syntax-ns#"
   xmlns:cc="http://creativecommons.org/ns#"
   xmlns:dc="http://purl.org/dc/elements/1.1/">
  <defs
     id="defs2832">
    <linearGradient
       inkscape:collect="always"
       xlink:href="#linearGradient3342"
       id="linearGradient7115"
       gradientUnits="userSpaceOnUse"
       gradientTransform="translate(-40.5,-1.5)"
       x1="-61.802711"
       y1="99.979607"
       x2="-136.51074"
       y2="112.70422" />
    <linearGradient
       inkscape:collect="always"
       xlink:href="#linearGradient3342"
       id="linearGradient7113"
       gradientUnits="userSpaceOnUse"
       gradientTransform="translate(-40.5,-1.5)"
       x1="-83.593941"
       y1="137.13324"
       x2="-138.0043"
       y2="92.603989" />
    <linearGradient
       inkscape:collect="always"
       id="linearGradient3342">
      <stop
         style="stop-color:#000000;stop-opacity:1;"
         offset="0"
         id="stop3344" />
      <stop
         style="stop-color:#000000;stop-opacity:0;"
         offset="1"
         id="stop3347" />
    </linearGradient>
    <linearGradient
       inkscape:collect="always"
       xlink:href="#linearGradient3342"
       id="linearGradient7111"
       gradientUnits="userSpaceOnUse"
       x1="-73"
       y1="105.625"
       x2="-163"
       y2="86.125" />
    <linearGradient
       inkscape:collect="always"
       xlink:href="#linearGradient3326"
       id="linearGradient7109"
       gradientUnits="userSpaceOnUse"
       x1="-83.012932"
       y1="44.753052"
       x2="-158.92462"
       y2="72.881729" />
    <linearGradient
       inkscape:collect="always"
       xlink:href="#linearGradient3326"
       id="linearGradient7107"
       gradientUnits="userSpaceOnUse"
       x1="-132.51041"
       y1="39.803303"
       x2="-158.92462"
       y2="72.881729" />
    <linearGradient
       inkscape:collect="always"
       id="linearGradient3326">
      <stop
         style="stop-color:#000000;stop-opacity:1;"
         offset="0"
         id="stop3328" />
      <stop
         style="stop-color:#000000;stop-opacity:0;"
         offset="1"
         id="stop3330" />
    </linearGradient>
    <linearGradient
       inkscape:collect="always"
       xlink:href="#linearGradient3326"
       id="linearGradient7105"
       gradientUnits="userSpaceOnUse"
       x1="-151.43935"
       y1="37.68198"
       x2="-152.26776"
       y2="57.25" />
    <linearGradient
       id="linearGradient3825">
      <stop
         style="stop-color:#ffffff;stop-opacity:0;"
         offset="0"
         id="stop3827" />
      <stop
         id="stop3833"
         offset="0.5"
         style="stop-color:#ffffff;stop-opacity:0.18705036;" />
      <stop
         style="stop-color:#ffffff;stop-opacity:1;"
         offset="1"
         id="stop3829" />
    </linearGradient>
    <radialGradient
       inkscape:collect="always"
       xlink:href="#linearGradient3825"
       id="radialGradient7103"
       gradientUnits="userSpaceOnUse"
       gradientTransform="matrix(0.6484284,0.1017206,-3.1257154e-2,0.1992521,-4.56257,53.15916)"
       cx="-112.17241"
       cy="118.60459"
       fx="-113.14772"
       fy="59.708473"
       r="59.99512" />
    <linearGradient
       inkscape:collect="always"
       xlink:href="#linearGradient3295"
       id="linearGradient3462"
       gradientUnits="userSpaceOnUse"
       gradientTransform="translate(-819.08887,-206.90625)"
       x1="206.47243"
       y1="77.373238"
       x2="206.47243"
       y2="15.343517" />
    <linearGradient
       id="linearGradient3295">
      <stop
         style="stop-color:#ff627c;stop-opacity:1"
         offset="0"
         id="stop3297" />
      <stop
         style="stop-color:#ffffff;stop-opacity:0"
         offset="1"
         id="stop3299" />
    </linearGradient>
    <linearGradient
       inkscape:collect="always"
       xlink:href="#linearGradient3295"
       id="linearGradient3613"
       x1="208.59375"
       y1="130.40625"
       x2="208.59375"
       y2="63.426777"
       gradientUnits="userSpaceOnUse"
       gradientTransform="translate(-819.08887,-206.90625)" />
    <linearGradient
       inkscape:collect="always"
       xlink:href="#linearGradient3260"
       id="linearGradient3581"
       gradientUnits="userSpaceOnUse"
       gradientTransform="translate(-682.08465,-206.90428)"
       x1="75.09375"
       y1="4.5317035"
       x2="75.09375"
       y2="80.172485" />
    <linearGradient
       id="linearGradient3202">
      <stop
         style="stop-color:#ff9ba4;stop-opacity:1"
         offset="0"
         id="stop3204" />
      <stop
         style="stop-color:#c09265;stop-opacity:0"
         offset="1"
         id="stop3206" />
    </linearGradient>
    <linearGradient
       inkscape:collect="always"
       xlink:href="#linearGradient3202"
       id="linearGradient3548"
       x1="75.09375"
       y1="4.5317035"
       x2="75.09375"
       y2="73.898682"
       gradientUnits="userSpaceOnUse"
       gradientTransform="translate(-682.08887,-206.90625)" />
    <linearGradient
       inkscape:collect="always"
       id="linearGradient3528">
      <stop
         style="stop-color:#c63a33;stop-opacity:1"
         offset="0"
         id="stop3530" />
      <stop
         style="stop-color:#c63a33;stop-opacity:0"
         offset="1"
         id="stop3532" />
    </linearGradient>
    <radialGradient
       inkscape:collect="always"
       xlink:href="#linearGradient3528"
       id="radialGradient3535"
       cx="99.726295"
       cy="27.418272"
       fx="64.689766"
       fy="68.231934"
       r="56"
       gradientUnits="userSpaceOnUse"
       gradientTransform="matrix(0.693735,5.8671246e-2,-3.6242796e-2,0.4285387,-648.14948,-180.02535)" />
    <radialGradient
       inkscape:collect="always"
       xlink:href="#XMLID_4_"
       id="radialGradient3524"
       cx="67.09375"
       cy="116.90625"
       fx="67.09375"
       fy="116.90625"
       r="56"
       gradientUnits="userSpaceOnUse"
       gradientTransform="translate(-682.08887,-206.90625)" />
    <linearGradient
       id="linearGradient3344">
      <stop
         id="stop3346"
         offset="0"
         style="stop-color:#ff627c;stop-opacity:1" />
      <stop
         id="stop3348"
         offset="1"
         style="stop-color:#ffffff;stop-opacity:0" />
    </linearGradient>
    <linearGradient
       inkscape:collect="always"
       xlink:href="#linearGradient3344"
       id="linearGradient3771"
       gradientUnits="userSpaceOnUse"
       spreadMethod="reflect"
       x1="120.0625"
       y1="12.569496"
       x2="125.30366"
       y2="14.444496" />
    <linearGradient
       inkscape:collect="always"
       xlink:href="#linearGradient3260"
       id="linearGradient3676"
       x1="120.0625"
       y1="12.569496"
       x2="125.30366"
       y2="14.444496"
       gradientUnits="userSpaceOnUse"
       spreadMethod="reflect"
       gradientTransform="translate(-682.08887,-206.90625)" />
    <linearGradient
       id="linearGradient3260"
       inkscape:collect="always">
      <stop
         id="stop3262"
         offset="0"
         style="stop-color:#ffffff;stop-opacity:1" />
      <stop
         id="stop3264"
         offset="1"
         style="stop-color:#ffffff;stop-opacity:0" />
    </linearGradient>
    <radialGradient
       inkscape:collect="always"
       xlink:href="#linearGradient3260"
       id="radialGradient3767"
       cx="64.088867"
       cy="7.4108429"
       fx="64.088867"
       fy="7.4108429"
       r="59.995121"
       gradientTransform="matrix(0.3093869,0,0,0.4779247,-637.82826,-203.04183)"
       gradientUnits="userSpaceOnUse" />
    <radialGradient
       inkscape:collect="always"
       xlink:href="#linearGradient3449"
       id="radialGradient3744"
       gradientUnits="userSpaceOnUse"
       gradientTransform="matrix(0.982366,1.671718e-2,-3.5801148e-3,0.2103843,-700.65231,-176.42846)"
       cx="72.684891"
       cy="48.228905"
       fx="74.871155"
       fy="26.862719"
       r="59.995121" />
    <radialGradient
       inkscape:collect="always"
       xlink:href="#linearGradient3449"
       id="radialGradient3654"
       cx="-10.165252"
       cy="66.906013"
       fx="-10.165252"
       fy="66.906013"
       r="59.995121"
       gradientTransform="matrix(0.4582893,-2.1035589e-8,4.5903973e-8,1.0000813,-661.64092,-206.91145)"
       gradientUnits="userSpaceOnUse" />
    <linearGradient
       id="linearGradient3449">
      <stop
         id="stop3451"
         offset="0"
         style="stop-color:#000000;stop-opacity:0.67266184" />
      <stop
         id="stop3453"
         offset="1"
         style="stop-color:#000000;stop-opacity:0" />
    </linearGradient>
    <radialGradient
       inkscape:collect="always"
       xlink:href="#linearGradient3449"
       id="radialGradient3658"
       gradientUnits="userSpaceOnUse"
       gradientTransform="matrix(0.2676699,0.521376,-0.7037472,0.3612977,-573.09501,-242.96923)"
       cx="167.67001"
       cy="80.404922"
       fx="167.67001"
       fy="80.404922"
       r="59.995121" />
    <linearGradient
       inkscape:collect="always"
       id="linearGradient3751">
      <stop
         style="stop-color:#bd392c;stop-opacity:1"
         offset="0"
         id="stop3753" />
      <stop
         style="stop-color:#bd392c;stop-opacity:0"
         offset="1"
         id="stop3755" />
    </linearGradient>
    <radialGradient
       inkscape:collect="always"
       xlink:href="#linearGradient3751"
       id="radialGradient3757"
       cx="66.01458"
       cy="126.69183"
       fx="66.01458"
       fy="126.69183"
       r="59.99512"
       gradientTransform="matrix(0.675025,0,0,0.3583625,-662.56149,-165.9016)"
       gradientUnits="userSpaceOnUse" />
    <radialGradient
       id="XMLID_4_"
       cx="48"
       cy="-0.2148"
       r="55.148"
       gradientTransform="matrix(0.9792,0,0,0.9725,133.0002,20.8762)"
       gradientUnits="userSpaceOnUse">
      <stop
         offset="0"
         style="stop-color:#d03d3d"
         id="stop3082" />
      <stop
         offset="1"
         style="stop-color:#b44300;stop-opacity:1"
         id="stop3090" />
    </radialGradient>
    <linearGradient
       inkscape:collect="always"
       xlink:href="#XMLID_4_"
       id="linearGradient3516"
       x1="147.09375"
       y1="33.40625"
       x2="8.083992"
       y2="123.90625"
       gradientUnits="userSpaceOnUse"
       gradientTransform="translate(-682.08887,-206.90625)" />
    <linearGradient
       id="XMLID_27_"
       gradientUnits="userSpaceOnUse"
       x1="60.0015"
       y1="86"
       x2="60.0015"
       y2="34.0005"
       gradientTransform="translate(145.71379,-238.21429)">
      <stop
         offset="0"
         style="stop-color:#BBBBBB"
         id="stop47" />
      <stop
         offset="1"
         style="stop-color:#555555"
         id="stop49" />
    </linearGradient>
    <linearGradient
       id="XMLID_26_"
       gradientUnits="userSpaceOnUse"
       x1="60.0015"
       y1="92"
       x2="60.0015"
       y2="28.0005"
       gradientTransform="translate(145.71379,-238.21429)">
      <stop
         offset="0.1953"
         style="stop-color:#E9E9F0"
         id="stop30" />
      <stop
         offset="0.2597"
         style="stop-color:#DADAE2"
         id="stop32" />
      <stop
         offset="0.461"
         style="stop-color:#B1B1BB"
         id="stop34" />
      <stop
         offset="0.6437"
         style="stop-color:#93939F"
         id="stop36" />
      <stop
         offset="0.7999"
         style="stop-color:#81818E"
         id="stop38" />
      <stop
         offset="0.9112"
         style="stop-color:#7A7A88"
         id="stop40" />
      <stop
         offset="1"
         style="stop-color:#696975"
         id="stop42" />
    </linearGradient>
    <linearGradient
       id="XMLID_25_"
       gradientUnits="userSpaceOnUse"
       x1="60.0015"
       y1="94"
       x2="60.0015"
       y2="26.0005"
       gradientTransform="translate(145.71379,-238.21429)">
      <stop
         offset="0.2959"
         style="stop-color:#FFFFFF"
         id="stop23" />
      <stop
         offset="1"
         style="stop-color:#4A4A55"
         id="stop25" />
    </linearGradient>
    <linearGradient
       id="XMLID_24_"
       gradientUnits="userSpaceOnUse"
       x1="60.0005"
       y1="12.8452"
       x2="60.0005"
       y2="120.2141"
       gradientTransform="translate(145.71379,-238.21429)">
      <stop
         offset="0"
         style="stop-color:#FFFFFF"
         id="stop16" />
      <stop
         offset="1"
         style="stop-color:#ffffff;stop-opacity:0;"
         id="stop18" />
    </linearGradient>
    <radialGradient
       id="XMLID_23_"
       cx="59.5107"
       cy="124"
       r="125.1714"
       gradientUnits="userSpaceOnUse"
       gradientTransform="translate(145.71379,-238.21429)">
      <stop
         offset="0.1775"
         style="stop-color:#F0F0F0"
         id="stop9" />
      <stop
         offset="0.5325"
         style="stop-color:#A5A5BB"
         id="stop11" />
    </radialGradient>
    <radialGradient
       inkscape:collect="always"
       xlink:href="#XMLID_23_"
       id="radialGradient2894"
       gradientUnits="userSpaceOnUse"
       gradientTransform="translate(145.71379,-238.21429)"
       cx="59.5107"
       cy="124"
       r="125.1714" />
    <linearGradient
       inkscape:collect="always"
       xlink:href="#XMLID_24_"
       id="linearGradient2896"
       gradientUnits="userSpaceOnUse"
       gradientTransform="translate(145.71379,-238.21429)"
       x1="60.0005"
       y1="12.8452"
       x2="60.0005"
       y2="120.2141" />
    <linearGradient
       inkscape:collect="always"
       xlink:href="#XMLID_25_"
       id="linearGradient2898"
       gradientUnits="userSpaceOnUse"
       gradientTransform="translate(145.71379,-238.21429)"
       x1="60.0015"
       y1="94"
       x2="60.0015"
       y2="26.0005" />
    <linearGradient
       inkscape:collect="always"
       xlink:href="#XMLID_26_"
       id="linearGradient2900"
       gradientUnits="userSpaceOnUse"
       gradientTransform="matrix(1.0000083,0,0,1,145.71279,-238.21429)"
       x1="60.0015"
       y1="92"
       x2="60.0015"
       y2="28.0005" />
    <linearGradient
       inkscape:collect="always"
       xlink:href="#XMLID_27_"
       id="linearGradient2902"
       gradientUnits="userSpaceOnUse"
       gradientTransform="translate(145.71379,-238.21429)"
       x1="60.0015"
       y1="86"
       x2="60.0015"
       y2="34.0005" />
    <linearGradient
       inkscape:collect="always"
       xlink:href="#XMLID_4_"
       id="linearGradient7176"
       gradientUnits="userSpaceOnUse"
       gradientTransform="translate(-682.08887,-206.90625)"
       x1="147.09375"
       y1="33.40625"
       x2="8.083992"
       y2="123.90625" />
    <radialGradient
       inkscape:collect="always"
       xlink:href="#linearGradient3751"
       id="radialGradient7178"
       gradientUnits="userSpaceOnUse"
       gradientTransform="matrix(0.675025,0,0,0.3583625,-662.56149,-165.9016)"
       cx="66.01458"
       cy="126.69183"
       fx="66.01458"
       fy="126.69183"
       r="59.99512" />
    <radialGradient
       inkscape:collect="always"
       xlink:href="#linearGradient3449"
       id="radialGradient7180"
       gradientUnits="userSpaceOnUse"
       gradientTransform="matrix(0.2676699,0.521376,-0.7037472,0.3612977,-573.09501,-242.96923)"
       cx="167.67001"
       cy="80.404922"
       fx="167.67001"
       fy="80.404922"
       r="59.995121" />
    <radialGradient
       inkscape:collect="always"
       xlink:href="#linearGradient3449"
       id="radialGradient7182"
       gradientUnits="userSpaceOnUse"
       gradientTransform="matrix(0.4582893,-2.1035589e-8,4.5903973e-8,1.0000813,-661.64092,-206.91145)"
       cx="-10.165252"
       cy="66.906013"
       fx="-10.165252"
       fy="66.906013"
       r="59.995121" />
    <radialGradient
       inkscape:collect="always"
       xlink:href="#linearGradient3449"
       id="radialGradient7184"
       gradientUnits="userSpaceOnUse"
       gradientTransform="matrix(0.982366,1.671718e-2,-3.5801148e-3,0.2103843,-700.65231,-176.42846)"
       cx="72.684891"
       cy="48.228905"
       fx="74.871155"
       fy="26.862719"
       r="59.995121" />
    <radialGradient
       inkscape:collect="always"
       xlink:href="#linearGradient3260"
       id="radialGradient7186"
       gradientUnits="userSpaceOnUse"
       gradientTransform="matrix(0.3093869,0,0,0.4779247,-637.82826,-203.04183)"
       cx="64.088867"
       cy="7.4108429"
       fx="64.088867"
       fy="7.4108429"
       r="59.995121" />
    <linearGradient
       inkscape:collect="always"
       xlink:href="#linearGradient3260"
       id="linearGradient7188"
       gradientUnits="userSpaceOnUse"
       gradientTransform="translate(-682.08887,-206.90625)"
       spreadMethod="reflect"
       x1="120.0625"
       y1="12.569496"
       x2="125.30366"
       y2="14.444496" />
    <linearGradient
       inkscape:collect="always"
       xlink:href="#linearGradient3344"
       id="linearGradient7190"
       gradientUnits="userSpaceOnUse"
       spreadMethod="reflect"
       x1="120.0625"
       y1="12.569496"
       x2="125.30366"
       y2="14.444496" />
    <radialGradient
       inkscape:collect="always"
       xlink:href="#XMLID_4_"
       id="radialGradient7192"
       gradientUnits="userSpaceOnUse"
       gradientTransform="translate(-682.08887,-206.90625)"
       cx="67.09375"
       cy="116.90625"
       fx="67.09375"
       fy="116.90625"
       r="56" />
    <radialGradient
       inkscape:collect="always"
       xlink:href="#linearGradient3528"
       id="radialGradient7194"
       gradientUnits="userSpaceOnUse"
       gradientTransform="matrix(0.693735,5.8671246e-2,-3.6242796e-2,0.4285387,-648.14948,-180.02535)"
       cx="99.726295"
       cy="27.418272"
       fx="64.689766"
       fy="68.231934"
       r="56" />
    <linearGradient
       inkscape:collect="always"
       xlink:href="#linearGradient3202"
       id="linearGradient7196"
       gradientUnits="userSpaceOnUse"
       gradientTransform="translate(-682.08887,-206.90625)"
       x1="75.09375"
       y1="4.5317035"
       x2="75.09375"
       y2="73.898682" />
    <linearGradient
       inkscape:collect="always"
       xlink:href="#linearGradient3260"
       id="linearGradient7198"
       gradientUnits="userSpaceOnUse"
       gradientTransform="translate(-682.08465,-206.90428)"
       x1="75.09375"
       y1="4.5317035"
       x2="75.09375"
       y2="80.172485" />
    <linearGradient
       inkscape:collect="always"
       xlink:href="#linearGradient3295"
       id="linearGradient7200"
       gradientUnits="userSpaceOnUse"
       gradientTransform="translate(-819.08887,-206.90625)"
       x1="208.59375"
       y1="130.40625"
       x2="208.59375"
       y2="63.426777" />
    <linearGradient
       inkscape:collect="always"
       xlink:href="#linearGradient3295"
       id="linearGradient7202"
       gradientUnits="userSpaceOnUse"
       gradientTransform="translate(-819.08887,-206.90625)"
       x1="206.47243"
       y1="77.373238"
       x2="206.47243"
       y2="15.343517" />
    <radialGradient
       inkscape:collect="always"
       xlink:href="#linearGradient3825"
       id="radialGradient7238"
       gradientUnits="userSpaceOnUse"
       gradientTransform="matrix(0.6484284,0.1017206,-3.1257154e-2,0.1992521,-4.56257,53.15916)"
       cx="-112.17241"
       cy="118.60459"
       fx="-113.14772"
       fy="59.708473"
       r="59.99512" />
    <linearGradient
       inkscape:collect="always"
       xlink:href="#linearGradient3326"
       id="linearGradient7240"
       gradientUnits="userSpaceOnUse"
       x1="-151.43935"
       y1="37.68198"
       x2="-152.26776"
       y2="57.25" />
    <linearGradient
       inkscape:collect="always"
       xlink:href="#linearGradient3326"
       id="linearGradient7242"
       gradientUnits="userSpaceOnUse"
       x1="-132.51041"
       y1="39.803303"
       x2="-158.92462"
       y2="72.881729" />
    <linearGradient
       inkscape:collect="always"
       xlink:href="#linearGradient3326"
       id="linearGradient7244"
       gradientUnits="userSpaceOnUse"
       x1="-83.012932"
       y1="44.753052"
       x2="-158.92462"
       y2="72.881729" />
    <linearGradient
       inkscape:collect="always"
       xlink:href="#linearGradient3342"
       id="linearGradient7246"
       gradientUnits="userSpaceOnUse"
       x1="-73"
       y1="105.625"
       x2="-163"
       y2="86.125" />
    <linearGradient
       inkscape:collect="always"
       xlink:href="#linearGradient3342"
       id="linearGradient7248"
       gradientUnits="userSpaceOnUse"
       gradientTransform="translate(-40.5,-1.5)"
       x1="-83.593941"
       y1="137.13324"
       x2="-138.0043"
       y2="92.603989" />
    <linearGradient
       inkscape:collect="always"
       xlink:href="#linearGradient3342"
       id="linearGradient7250"
       gradientUnits="userSpaceOnUse"
       gradientTransform="translate(-40.5,-1.5)"
       x1="-61.802711"
       y1="99.979607"
       x2="-136.51074"
       y2="112.70422" />
    <linearGradient
       inkscape:collect="always"
       xlink:href="#linearGradient3260"
       id="linearGradient3453"
       gradientUnits="userSpaceOnUse"
       gradientTransform="translate(1.7139223,10.988686)"
       x1="83.324677"
       y1="24.0625"
       x2="83.324677"
       y2="69.837845" />
    <linearGradient
       inkscape:collect="always"
       xlink:href="#linearGradient3260"
       id="linearGradient3442"
       x1="87.533279"
       y1="74.838577"
       x2="77.137749"
       y2="46.277084"
       gradientUnits="userSpaceOnUse"
       gradientTransform="translate(1.7139223,6.988686)" />
    <linearGradient
       inkscape:collect="always"
       xlink:href="#linearGradient3415"
       id="linearGradient3421"
       x1="71.603867"
       y1="96.884026"
       x2="71.603867"
       y2="47.378731"
       gradientUnits="userSpaceOnUse"
       gradientTransform="translate(1.7139423,6.988686)" />
    <linearGradient
       inkscape:collect="always"
       id="linearGradient3415">
      <stop
         style="stop-color:#f0ff80;stop-opacity:1;"
         offset="0"
         id="stop3417" />
      <stop
         style="stop-color:#f0ff80;stop-opacity:0;"
         offset="1"
         id="stop3419" />
    </linearGradient>
    <linearGradient
       inkscape:collect="always"
       xlink:href="#linearGradient2971"
       id="linearGradient2977"
       x1="83.324677"
       y1="24.0625"
       x2="83.324677"
       y2="89.99453"
       gradientUnits="userSpaceOnUse"
       gradientTransform="translate(1.7139223,10.988686)" />
    <linearGradient
       inkscape:collect="always"
       id="linearGradient2971">
      <stop
         style="stop-color:#bfffbf;stop-opacity:1;"
         offset="0"
         id="stop2973" />
      <stop
         style="stop-color:#bfffbf;stop-opacity:0;"
         offset="1"
         id="stop2975" />
    </linearGradient>
    <radialGradient
       inkscape:collect="always"
       xlink:href="#linearGradient2948"
       id="radialGradient2954"
       cx="54.537579"
       cy="77.542084"
       fx="54.537579"
       fy="99.883759"
       r="48.000004"
       gradientTransform="matrix(1.3117247,5.8470212e-8,-4.3852649e-8,0.9837933,-15.192058,8.302411)"
       gradientUnits="userSpaceOnUse" />
    <linearGradient
       inkscape:collect="always"
       id="linearGradient2948">
      <stop
         style="stop-color:#66f515;stop-opacity:1"
         offset="0"
         id="stop2950" />
      <stop
         style="stop-color:#002e00;stop-opacity:1"
         offset="1"
         id="stop2952" />
    </linearGradient>
    <radialGradient
       inkscape:collect="always"
       xlink:href="#linearGradient2981"
       id="radialGradient2987"
       cx="52.791927"
       cy="95.459297"
       fx="53.15992"
       fy="87.08094"
       r="52.000004"
       gradientTransform="matrix(0.5646619,8.5323328e-8,-1.386601e-7,0.9176397,26.138112,7.132602)"
       gradientUnits="userSpaceOnUse" />
    <linearGradient
       inkscape:collect="always"
       id="linearGradient2981">
      <stop
         style="stop-color:#001400;stop-opacity:1;"
         offset="0"
         id="stop2983" />
      <stop
         style="stop-color:#001400;stop-opacity:0;"
         offset="1"
         id="stop2985" />
    </linearGradient>
    <radialGradient
       inkscape:collect="always"
       xlink:href="#linearGradient3260"
       id="radialGradient3004"
       cx="99.765625"
       cy="29.374895"
       fx="99.765625"
       fy="29.374895"
       r="3.015625"
       gradientTransform="matrix(1.9646726,3.4242959e-7,-1.0414508e-6,5.9752716,-94.527218,-139.15942)"
       gradientUnits="userSpaceOnUse" />
    <radialGradient
       inkscape:collect="always"
       xlink:href="#linearGradient3260"
       id="radialGradient3256"
       gradientUnits="userSpaceOnUse"
       gradientTransform="matrix(0.67195731,1.8461884,-5.614919,2.0436624,210.66521,-195.63729)"
       cx="99.765625"
       cy="29.374895"
       fx="99.765625"
       fy="29.374895"
       r="3.015625" />
    <radialGradient
       inkscape:collect="always"
       xlink:href="#linearGradient3260"
       id="radialGradient3288"
       gradientUnits="userSpaceOnUse"
       gradientTransform="matrix(1.9646726,3.4242959e-7,-1.0414508e-6,5.9752716,-165.52722,-119.15942)"
       cx="99.765625"
       cy="29.374895"
       fx="99.765625"
       fy="29.374895"
       r="3.015625" />
    <radialGradient
       inkscape:collect="always"
       xlink:href="#linearGradient3260"
       id="radialGradient3292"
       gradientUnits="userSpaceOnUse"
       gradientTransform="matrix(-0.67195739,1.8461886,5.6149195,2.0436626,-78.494148,-175.63731)"
       cx="99.765625"
       cy="29.374895"
       fx="99.765625"
       fy="29.374895"
       r="3.015625" />
    <radialGradient
       inkscape:collect="always"
       xlink:href="#linearGradient3415"
       id="radialGradient3457"
       gradientUnits="userSpaceOnUse"
       gradientTransform="matrix(1.9646726,-3.4242959e-7,-1.0414508e-6,-5.9752716,-139.52722,280.88659)"
       cx="99.765625"
       cy="29.374895"
       fx="99.765625"
       fy="29.374895"
       r="3.015625" />
    <radialGradient
       inkscape:collect="always"
       xlink:href="#linearGradient3260"
       id="radialGradient3511"
       gradientUnits="userSpaceOnUse"
       gradientTransform="matrix(1.0961401,0.0879121,-0.1002304,1.2497316,2.7738723,-11.698701)"
       cx="53.633381"
       cy="51.919601"
       fx="53.633381"
       fy="51.919601"
       r="52.000004" />
    <filter
       inkscape:collect="always"
       id="filter3521"
       x="-0.041665009"
       y="-0.055553161"
       width="1.08333"
       height="1.1111063">
      <feBlend
         inkscape:collect="always"
         mode="lighten"
         in2="BackgroundImage"
         id="feBlend3523" />
    </filter>
    <linearGradient
       inkscape:collect="always"
       xlink:href="#linearGradient2956"
       id="linearGradient2962"
       x1="89.090881"
       y1="103.89701"
       x2="89.090881"
       y2="30.849478"
       gradientUnits="userSpaceOnUse"
       gradientTransform="translate(1.7139423,10.988686)" />
    <linearGradient
       inkscape:collect="always"
       id="linearGradient2956">
      <stop
         style="stop-color:#003100;stop-opacity:1;"
         offset="0"
         id="stop2958" />
      <stop
         style="stop-color:#008c00;stop-opacity:1"
         offset="1"
         id="stop2960" />
    </linearGradient>
  </defs>
  <sodipodi:namedview
     id="base"
     pagecolor="#ffffff"
     bordercolor="#666666"
     borderopacity="1.0"
     inkscape:pageopacity="0.0"
     inkscape:pageshadow="2"
     inkscape:zoom="2"
     inkscape:cx="-57"
     inkscape:cy="69.25"
     inkscape:document-units="px"
     inkscape:current-layer="layer1"
     height="128px"
     width="128px"
     inkscape:window-width="1870"
     inkscape:window-height="1012"
     inkscape:window-x="50"
     inkscape:window-y="31"
     inkscape:showpageshadow="2"
     inkscape:pagecheckerboard="0"
     inkscape:deskcolor="#d1d1d1"
     showgrid="false"
     inkscape:window-maximized="1" />
  <metadata
     id="metadata2835">
    <rdf:RDF>
      <cc:Work
         rdf:about="">
        <dc:format>image/svg+xml</dc:format>
        <dc:type
           rdf:resource="http://purl.org/dc/dcmitype/StillImage" />
      </cc:Work>
    </rdf:RDF>
  </metadata>
  <g
     inkscape:label="Livello 1"
     inkscape:groupmode="layer"
     id="layer1">
    <g
       id="g2876"
       transform="matrix(0.9999917,0,0,1,-141.71258,242.21429)"
       style="display:inline">
      <path
         id="path1950"
         style="opacity:0.0545519"
         d="m 197.74805,-238.25 c -0.13299,3.91857 -0.26279,7.83725 -0.39453,11.75586 -3.08265,0.50892 -6.11479,1.32324 -9.04297,2.41211 -2.24168,-3.59757 -4.48214,-7.1959 -6.72461,-10.79297 -4.58098,2.64524 -9.16177,5.29079 -13.74414,7.93359 1.9974,3.74449 3.99619,7.48823 5.99414,11.23243 -2.40534,1.99273 -4.63094,4.20651 -6.61524,6.61914 -3.74485,-1.99859 -7.48917,-3.99816 -11.23437,-5.9961 -2.64282,4.58237 -5.28835,9.16317 -7.9336,13.74414 3.59764,2.24261 7.19672,4.48292 10.79493,6.72461 -1.09384,2.92722 -1.90162,5.96203 -2.41211,9.04492 -4.24023,0.14159 -8.48054,0.28048 -12.72071,0.42383 -3.4e-4,5.28907 -0.002,10.57813 -0.002,15.86719 4.24084,0.14404 8.48178,0.28494 12.72266,0.42773 0.50843,3.08286 1.31933,6.11603 2.41211,9.04297 -3.59821,2.2417 -7.19729,4.482 -10.79493,6.72461 2.64537,4.58155 5.29066,9.16315 7.9336,13.7461 3.7452,-1.99794 7.48952,-3.99751 11.23437,-5.9961 1.98764,2.4106 4.20954,4.62823 6.61719,6.61914 -1.99795,3.7442 -3.99674,7.48794 -5.99414,11.23242 4.58179,2.64269 9.16179,5.28849 13.74219,7.9336 2.24304,-3.59778 4.48425,-7.19669 6.72656,-10.79492 2.92739,1.09101 5.96047,1.90133 9.04297,2.41015 0.14219,4.24023 0.28209,8.48053 0.42578,12.72071 5.28906,0 10.57813,0 15.86719,0 0.14369,-4.24018 0.28359,-8.48048 0.42578,-12.72071 3.0825,-0.50881 6.11558,-1.31914 9.04297,-2.41015 2.24167,3.59757 4.48213,7.19589 6.72461,10.79297 4.58097,-2.64524 9.16176,-5.29079 13.74414,-7.9336 -1.9974,-3.74448 -3.99619,-7.48823 -5.99414,-11.23242 2.41125,-1.9867 4.62563,-4.21228 6.61718,-6.61914 3.74422,1.99856 7.48781,3.99829 11.23243,5.99609 2.64337,-4.58307 5.28975,-9.16441 7.93554,-13.74609 -3.59806,-2.24233 -7.19805,-4.48156 -10.79687,-6.72266 1.09213,-2.92716 1.90388,-5.96012 2.41211,-9.04297 4.24087,-0.14219 8.48183,-0.28207 12.72265,-0.42578 0,-5.28971 0,-10.57942 0,-15.86914 -4.24017,-0.14369 -8.48047,-0.28359 -12.7207,-0.42578 -0.50881,-3.0825 -1.31914,-6.11558 -2.41016,-9.04297 3.59757,-2.24167 7.1959,-4.48213 10.79297,-6.72461 -2.64537,-4.58154 -5.29065,-9.16314 -7.93359,-13.74609 -3.7452,1.99794 -7.48952,3.99751 -11.23438,5.99609 -1.98482,-2.41076 -4.20447,-4.63041 -6.61523,-6.61523 1.99797,-3.74483 3.99661,-7.48931 5.99414,-11.23438 -4.58237,-2.64281 -9.16317,-5.28835 -13.74414,-7.93359 -2.24261,3.59764 -4.48291,7.19671 -6.72461,10.79492 -2.92704,-1.09263 -5.96044,-1.9042 -9.04297,-2.41406 -0.14279,-4.24023 -0.2837,-8.48052 -0.42773,-12.7207 -5.28907,0 -10.57813,0 -15.86719,0 -0.0111,0.32161 -0.0221,0.64323 -0.0332,0.96484 z m 7.96679,33.03516 c 5.2477,-0.0328 10.50966,1.52607 14.98771,4.36381 6.12168,3.82976 10.72604,10.29476 12.31327,17.42132 0.85833,3.75233 0.91606,7.68119 0.20684,11.46291 -0.21561,1.1063 -0.54632,2.44046 -0.9381,3.60048 -1.75023,5.30021 -5.17705,10.00835 -9.59706,13.40343 -1.00742,0.7765 -2.26801,1.6175 -3.46496,2.27404 -6.5681,3.68267 -14.7159,4.47053 -21.93055,2.17851 -5.17672,-1.61367 -9.83583,-4.80928 -13.25683,-9.01114 -1.1616,-1.4208 -2.30359,-3.12695 -3.18213,-4.82934 -1.69278,-3.22253 -2.71642,-6.78595 -3.03076,-10.4109 -0.13865,-1.60168 -0.14763,-3.54925 0.0363,-5.29666 0.84169,-8.79151 6.15907,-16.99348 13.82337,-21.37482 1.94263,-1.13228 4.02569,-2.00827 6.10319,-2.63516 2.5694,-0.76319 5.24853,-1.1572 7.92968,-1.14648 z" />
      <path
         id="path1183"
         style="opacity:0.121644"
         d="m 198.71484,-237.24805 c -0.12955,3.86914 -0.25911,7.73828 -0.38867,11.60743 -3.56714,0.53327 -7.07408,1.47157 -10.43359,2.7832 -2.21503,-3.55588 -4.42849,-7.11273 -6.64453,-10.66797 -4.02243,2.32289 -8.04454,4.64634 -12.06836,6.9668 1.97456,3.70154 3.95062,7.40228 5.92578,11.10351 -2.8187,2.24893 -5.38246,4.81711 -7.63477,7.63281 -3.70059,-1.97513 -7.40059,-3.95135 -11.10156,-5.92578 -2.32048,4.02382 -4.64389,8.04595 -6.9668,12.06836 3.55596,2.2166 7.11339,4.43083 10.66993,6.64649 -1.31647,3.35796 -2.25012,6.86651 -2.78321,10.43359 -4.19139,0.13966 -8.38289,0.2764 -12.57422,0.41797 -2.9e-4,4.64453 -0.002,9.28906 -0.002,13.93359 4.192,0.14224 8.38412,0.28101 12.57617,0.42188 0.53298,3.56714 1.46825,7.07514 2.78321,10.43359 -3.55652,2.21505 -7.11412,4.42835 -10.66993,6.64453 2.32304,4.02299 4.64619,8.04593 6.9668,12.07032 3.70168,-1.97497 7.40227,-3.95197 11.10352,-5.92774 2.24949,2.81801 4.81681,5.38523 7.63476,7.63477 -1.97515,3.70123 -3.95123,7.40196 -5.92578,11.10351 4.02326,2.32032 8.04455,4.64406 12.06641,6.9668 2.2166,-3.55595 4.43082,-7.11338 6.64648,-10.66992 3.35909,1.31274 6.86642,2.24903 10.43359,2.78125 0.14027,4.19139 0.27802,8.38288 0.41993,12.57422 4.64453,0 9.28906,0 13.93359,0 0.14189,-4.19135 0.27966,-8.38283 0.41992,-12.57422 3.56722,-0.53211 7.07458,-1.46826 10.4336,-2.78125 2.21502,3.55587 4.42848,7.11272 6.64453,10.66797 4.02243,-2.32289 8.04453,-4.64634 12.06836,-6.9668 -1.97456,-3.70155 -3.95063,-7.40229 -5.92578,-11.10352 2.81989,-2.24724 5.38102,-4.81871 7.63476,-7.63281 3.70059,1.97513 7.4006,3.95136 11.10156,5.92578 2.32102,-4.02453 4.64531,-8.04718 6.96875,-12.07031 -3.55567,-2.21575 -7.11342,-4.42815 -10.66992,-6.64258 1.3101,-3.35992 2.25189,-6.86575 2.78125,-10.43359 4.19205,-0.14027 8.38418,-0.27801 12.57617,-0.41992 0,-4.64519 0,-9.29037 0,-13.93555 -4.19134,-0.14189 -8.38282,-0.27966 -12.57422,-0.41992 -0.53207,-3.5672 -1.46899,-7.07439 -2.78124,-10.4336 3.55587,-2.21502 7.11272,-4.42848 10.66796,-6.64453 -2.32304,-4.02299 -4.64618,-8.04592 -6.96679,-12.07031 -3.70097,1.97443 -7.40098,3.95064 -11.10157,5.92578 -2.25011,-2.8169 -4.816,-5.38261 -7.63281,-7.63281 1.97452,-3.70057 3.94981,-7.40073 5.92383,-11.10156 -4.02382,-2.32048 -8.04594,-4.6439 -12.06836,-6.9668 -2.21603,3.55525 -4.42951,7.11209 -6.64453,10.66797 -3.3596,-1.31132 -6.86636,-2.25042 -10.43359,-2.7832 -0.14087,-4.1914 -0.27964,-8.38287 -0.42188,-12.57422 -4.64453,0 -9.28906,0 -13.93359,0 -0.0111,0.32226 -0.0221,0.64453 -0.0332,0.96679 z m 7,31.03321 c 8.1784,-0.0482 16.26634,3.60696 21.66443,9.74546 3.37405,3.75793 5.75518,8.53315 6.74182,13.40883 0.94125,4.55488 0.75248,9.37659 -0.51171,13.78516 -2.43146,8.7049 -9.19108,16.0407 -17.65865,19.19399 -8.28479,3.18536 -18.01985,2.24547 -25.52549,-2.50135 -6.6922,-4.13388 -11.57323,-11.08713 -13.12251,-18.80592 -0.7007,-3.41039 -0.78573,-7.14021 -0.18564,-10.64642 0.88096,-5.35818 3.41637,-10.59894 7.13291,-14.65827 5.41378,-6.01427 13.36741,-9.56164 21.46484,-9.52148 z" />
      <path
         id="path6"
         d="m 265.71479,-171.21229 v -12.002 l -12.439,-0.415 c -0.552,-4.127 -1.622,-8.089 -3.153,-11.816 l 10.555,-6.572 -6,-10.394 -10.981,5.861 c -2.503,-3.236 -5.408,-6.142 -8.645,-8.645 l 5.861,-10.981 -10.393,-5.999 -6.572,10.555 c -3.728,-1.532 -7.689,-2.603 -11.817,-3.155 l -0.416,-12.439 h -12 l -0.415,12.439 c -4.128,0.552 -8.09,1.623 -11.817,3.154 l -6.572,-10.554 -10.393,6 5.861,10.981 c -3.236,2.503 -6.142,5.409 -8.646,8.646 l -10.981,-5.861 -6,10.392 10.556,6.573 c -1.532,3.727 -2.603,7.689 -3.154,11.817 l -12.439,0.413 -0.001,12 12.44,0.415 c 0.552,4.128 1.623,8.09 3.154,11.817 l -10.555,6.573 5.999,10.393 10.983,-5.862 c 2.503,3.236 5.409,6.143 8.646,8.646 l -5.862,10.982 10.392,6 6.573,-10.557 c 3.727,1.531 7.689,2.603 11.817,3.154 l 0.414,12.439 h 12 l 0.415,-12.439 c 4.128,-0.552 8.09,-1.622 11.816,-3.154 l 6.572,10.556 10.393,-6 -5.861,-10.983 c 3.235,-2.503 6.142,-5.409 8.645,-8.645 l 10.981,5.861 6.001,-10.393 -10.556,-6.572 c 1.531,-3.727 2.603,-7.688 3.154,-11.816 z m -60,23.998 c -16.542,0 -30,-13.458 -30,-30 0,-16.542 13.458,-30 30,-30 16.542,0 30,13.458 30,30 0,16.542 -13.458,30 -30,30 z"
         style="opacity:0.149942" />
      <path
         style="fill:url(#radialGradient2894)"
         id="path13"
         d="m 265.71479,-172.21229 v -12.002 l -12.439,-0.415 c -0.552,-4.127 -1.622,-8.089 -3.153,-11.816 l 10.555,-6.572 -6,-10.394 -10.981,5.861 c -2.503,-3.236 -5.408,-6.142 -8.645,-8.645 l 5.861,-10.981 -10.393,-5.999 -6.572,10.555 c -3.728,-1.532 -7.689,-2.603 -11.817,-3.155 l -0.416,-12.439 h -12 l -0.415,12.439 c -4.128,0.552 -8.09,1.623 -11.817,3.154 l -6.572,-10.554 -10.393,6 5.861,10.981 c -3.236,2.503 -6.142,5.409 -8.646,8.646 l -10.981,-5.861 -6,10.392 10.556,6.573 c -1.532,3.727 -2.603,7.689 -3.154,11.817 l -12.439,0.413 -0.001,12 12.44,0.415 c 0.552,4.128 1.623,8.09 3.154,11.817 l -10.555,6.573 5.999,10.393 10.983,-5.862 c 2.503,3.236 5.409,6.143 8.646,8.646 l -5.862,10.982 10.392,6 6.573,-10.557 c 3.727,1.531 7.689,2.603 11.817,3.154 l 0.414,12.439 h 12 l 0.415,-12.439 c 4.128,-0.552 8.09,-1.622 11.816,-3.154 l 6.572,10.556 10.393,-6 -5.861,-10.983 c 3.235,-2.503 6.142,-5.409 8.645,-8.645 l 10.981,5.861 6.001,-10.393 -10.556,-6.572 c 1.531,-3.727 2.603,-7.688 3.154,-11.816 z m -60,23.998 c -16.542,0 -30,-13.458 -30,-30 0,-16.542 13.458,-30 30,-30 16.542,0 30,13.458 30,30 0,16.542 -13.458,30 -30,30 z" />
      <path
         style="fill:url(#linearGradient2896)"
         id="path20"
         d="m 200.68179,-237.21429 c -0.055,1.645 -0.382,11.473 -0.382,11.473 -0.016,0.488 -0.383,0.893 -0.867,0.958 -3.989,0.533 -7.881,1.572 -11.569,3.088 -0.452,0.186 -0.972,0.018 -1.229,-0.396 0,0 -5.191,-8.338 -6.061,-9.734 -1.292,0.746 -7.425,4.287 -8.717,5.033 0.775,1.452 5.406,10.128 5.406,10.128 0.08,0.149 0.118,0.311 0.118,0.47 0,0.301 -0.136,0.597 -0.388,0.792 -3.167,2.45 -6.016,5.299 -8.466,8.466 -0.298,0.386 -0.832,0.5 -1.262,0.271 0,0 -8.677,-4.631 -10.128,-5.406 -0.746,1.292 -4.287,7.425 -5.033,8.717 1.396,0.87 9.734,6.061 9.734,6.061 0.301,0.188 0.472,0.513 0.472,0.85 0,0.127 -0.024,0.256 -0.075,0.38 -1.517,3.689 -2.556,7.582 -3.088,11.569 -0.064,0.484 -0.47,0.851 -0.958,0.867 0,0 -9.828,0.328 -11.473,0.382 0,0.994 0,2.289 0,3.171 8.88,1.789 18.332,3.162 28.128,4.095 -0.06,-1.024 -0.129,-2.235 -0.129,-2.235 0,-17.093 13.907,-31 31,-31 17.094,0 31,13.907 31,31 0,0 -0.07,1.223 -0.129,2.251 9.789,-0.925 19.24,-2.292 28.129,-4.074 0,-0.887 0,-2.208 0,-3.209 -1.645,-0.055 -11.473,-0.382 -11.473,-0.382 -0.488,-0.016 -0.894,-0.383 -0.958,-0.867 -0.533,-3.988 -1.572,-7.88 -3.087,-11.568 -0.051,-0.124 -0.075,-0.252 -0.075,-0.379 0,-0.337 0.171,-0.662 0.472,-0.85 0,0 8.337,-5.191 9.733,-6.061 -0.746,-1.292 -4.287,-7.426 -5.033,-8.718 -1.451,0.774 -10.128,5.406 -10.128,5.406 -0.43,0.229 -0.963,0.115 -1.262,-0.271 -2.45,-3.168 -5.299,-6.017 -8.465,-8.466 -0.253,-0.195 -0.389,-0.49 -0.389,-0.792 0,-0.16 0.038,-0.321 0.118,-0.47 0,0 4.631,-8.676 5.405,-10.128 -1.292,-0.746 -7.425,-4.288 -8.717,-5.034 -0.87,1.396 -6.062,9.734 -6.062,9.734 -0.258,0.414 -0.777,0.582 -1.229,0.396 -3.689,-1.516 -7.582,-2.555 -11.57,-3.088 -0.483,-0.065 -0.851,-0.47 -0.866,-0.958 0,0 -0.328,-9.828 -0.383,-11.473 -1.49,0.001 -8.572,0.001 -10.064,0.001 z" />
      <path
         style="fill:url(#linearGradient2898)"
         id="path27"
         d="m 205.71479,-212.21429 c -18.777,0 -34,15.223 -34,34 0,18.778 15.223,34 34,34 18.778,0 34,-15.222 34,-34 0,-18.777 -15.222,-34 -34,-34 z m 0,59 c -13.785,0 -25,-11.215 -25,-25 0,-13.785 11.215,-25 25,-25 13.785,0 25,11.215 25,25 0,13.785 -11.215,25 -25,25 z" />
      <path
         style="fill:url(#linearGradient2900)"
         id="path44"
         d="m 205.71429,-210.21429 c -17.64515,0 -32.00027,14.355 -32.00027,32 0,17.645 14.35512,32 32.00027,32 17.64514,0 32.00026,-14.355 32.00026,-32 0,-17.645 -14.35512,-32 -32.00026,-32 z m 0,57 c -13.78512,0 -25.00021,-11.215 -25.00021,-25 0,-13.785 11.21509,-25 25.00021,-25 13.78511,0 25.0002,11.215 25.0002,25 0,13.785 -11.21509,25 -25.0002,25 z" />
      <path
         style="fill:url(#linearGradient2902)"
         id="path51"
         d="m 205.71479,-204.21429 c -14.336,0 -26,11.664 -26,26 0,14.337 11.664,26 26,26 14.337,0 26,-11.663 26,-26 0,-14.336 -11.663,-26 -26,-26 z m 0,50 c -13.233,0 -24,-10.767 -24,-24 0,-13.233 10.767,-24 24,-24 13.233,0 24,10.767 24,24 0,13.233 -10.767,24 -24,24 z" />
      <path
         style="fill:#ffffff"
         id="path53"
         d="m 161.00579,-159.79329 -10.253,6.384 0.425,0.735 10.131,-6.308 c -0.11,-0.266 -0.199,-0.543 -0.303,-0.811 z" />
      <path
         style="fill:#ffffff"
         id="path55"
         d="m 180.91079,-232.17529 6.572,10.555 c 3.727,-1.532 7.689,-2.603 11.817,-3.154 l 0.415,-12.44 h 12 l 0.415,12.439 c 4.128,0.552 8.09,1.623 11.817,3.155 l 6.572,-10.555 9.984,5.766 0.408,-0.765 -10.391,-6.001 -6.572,10.555 c -3.728,-1.532 -7.689,-2.603 -11.817,-3.155 l -0.416,-12.439 h -12 l -0.415,12.439 c -4.128,0.552 -8.09,1.623 -11.817,3.154 l -6.572,-10.554 -10.393,6 0.408,0.765 z" />
      <path
         style="fill:#ffffff"
         id="path57"
         d="m 235.42079,-215.88729 -0.37,0.694 c 3.236,2.503 6.142,5.409 8.645,8.645 l 10.981,-5.861 5.575,9.658 0.425,-0.265 -6,-10.394 -10.981,5.861 c -2.406,-3.108 -5.19,-5.903 -8.275,-8.338 z" />
      <path
         style="fill:#ffffff"
         id="path59"
         d="m 176.00979,-139.53929 -5.491,10.288 0.408,0.235 5.454,-10.218 c -0.127,-0.097 -0.245,-0.207 -0.371,-0.305 z" />
      <path
         style="opacity:0.5;fill:#ffffff"
         id="path61"
         d="m 249.69579,-176.83029 c -0.394,23.923 -19.966,43.267 -43.981,43.267 -24.016,0 -43.587,-19.344 -43.981,-43.267 -0.004,0.244 -0.019,0.487 -0.019,0.732 0,24.262 19.738,44 44,44 24.262,0 44,-19.738 44,-44 0,-0.245 -0.015,-0.488 -0.019,-0.732 z" />
      <path
         style="fill:#ffffff"
         id="path63"
         d="m 253.27579,-184.62829 c -0.513,-3.833 -1.489,-7.514 -2.85,-11.005 l -0.304,0.189 c 1.531,3.727 2.602,7.688 3.153,11.816 l 12.44,0.414 v -1 z" />
      <path
         style="fill:#ffffff"
         id="path65"
         d="m 250.12079,-158.98229 10.131,6.308 0.425,-0.735 -10.252,-6.384 c -0.106,0.268 -0.194,0.545 -0.304,0.811 z" />
      <path
         style="fill:#ffffff"
         id="path67"
         d="m 156.75279,-212.41029 10.981,5.861 c 2.503,-3.236 5.409,-6.142 8.646,-8.646 l -0.371,-0.694 c -3.084,2.435 -5.87,5.23 -8.275,8.339 l -10.981,-5.861 -6,10.392 0.425,0.265 z" />
      <path
         style="fill:#ffffff"
         id="path69"
         d="m 235.04979,-139.23429 5.453,10.217 0.408,-0.235 -5.491,-10.287 c -0.125,0.098 -0.243,0.208 -0.37,0.305 z" />
      <path
         style="fill:#ffffff"
         id="path71"
         d="m 145.71479,-183.21429 12.439,-0.415 c 0.551,-4.128 1.623,-8.09 3.154,-11.817 l -0.303,-0.189 c -1.361,3.491 -2.339,7.173 -2.851,11.006 l -12.439,0.415 -0.001,12 v 0 z" />
    </g>
    <g
       id="g16622"
       inkscape:label="ok">
      <path
         id="path6658"
         style="overflow:visible;opacity:0.0686647;fill:#004d00;fill-opacity:1;stroke:#004d00;stroke-width:8.1;stroke-linecap:round;stroke-linejoin:round;stroke-miterlimit:4;stroke-dasharray:none;stroke-opacity:1"
         d="m 100.70808,33.125405 c -1.221428,0.242391 -1.837945,1.486987 -2.732516,2.235552 C 84.019867,49.667205 70.06417,63.973453 56.108473,78.279702 47.966538,69.951155 39.853913,61.588761 31.693665,53.281363 c -0.983316,-0.783063 -2.51259,-0.526761 -3.216563,0.507999 -4.06428,4.166051 -8.12856,8.332101 -12.19285,12.498152 -0.40343,0.912724 -0.48496,2.130017 0.13867,2.97461 6.66608,6.749166 13.260104,13.579977 19.898398,20.360622 6.149761,6.287767 12.270207,12.609384 18.438289,18.876004 0.983781,0.78163 2.514494,0.52803 3.218509,-0.50801 19.056472,-19.534539 38.112945,-39.069078 57.169412,-58.603616 0.38531,-0.894817 0.46587,-2.010544 -0.0684,-2.878907 -4.23367,-4.282358 -8.40584,-8.649069 -12.6517,-12.920491 -0.4879,-0.335979 -1.12433,-0.536953 -1.71939,-0.462321 z" />
      <path
         id="path3503"
         style="overflow:visible;opacity:0.0686647;fill:#004d00;fill-opacity:1;stroke:#004d00;stroke-width:8.1;stroke-linecap:round;stroke-linejoin:round;stroke-miterlimit:4;stroke-dasharray:none;stroke-opacity:1"
         d="M 100.36629,34.342202 C 85.613682,49.465248 70.861077,64.588295 56.108473,79.711342 47.758864,71.154051 39.409254,62.596759 31.059645,54.039467 c -0.562849,-0.316655 -1.219525,-0.34334 -1.639179,0.21474 -4.140454,4.244175 -8.280914,8.488351 -12.421364,12.732526 0.068,0.638463 -0.2417,1.430661 0.41898,1.827912 12.658519,12.975332 25.317033,25.950663 37.975548,38.925995 0.563256,0.3169 1.22081,0.34323 1.641124,-0.21474 19.131995,-19.61267 38.26399,-39.225333 57.395986,-58.837995 -0.0688,-0.638459 0.23937,-1.430677 -0.42097,-1.827885 -4.07127,-4.172606 -8.14253,-8.345212 -12.2138,-12.517818 -0.54023,-0.207986 -0.91948,-0.413638 -1.42968,0 z" />
      <path
         d="M 56.107908,81.142968 C 47.959909,72.792683 30.344769,54.738686 30.344769,54.738686 L 17.713912,67.686685 56.107908,107.04154 113.71392,47.988686 101.08134,35.041546 c 0,0 -35.262003,36.147423 -44.973432,46.101422 z"
         id="path2365"
         style="overflow:visible;fill:none;stroke:url(#linearGradient2962);stroke-width:8;stroke-linecap:round;stroke-linejoin:round;stroke-miterlimit:4;stroke-dasharray:none;stroke-opacity:1" />
      <path
         d="M 56.107908,81.142968 C 47.959909,72.792683 30.344769,54.738686 30.344769,54.738686 L 17.713912,67.686685 56.107908,107.04154 113.71392,47.988686 101.08134,35.041546 c 0,0 -35.262003,36.147423 -44.973432,46.101422 z"
         id="path3509"
         style="overflow:visible;opacity:0.285714;fill:none;stroke:url(#radialGradient3511);stroke-width:8;stroke-linecap:round;stroke-linejoin:round;stroke-miterlimit:4;stroke-dasharray:none;stroke-opacity:1;filter:url(#filter3521)" />
      <path
         style="overflow:visible;opacity:0.409524;fill:url(#radialGradient3457);fill-opacity:1;stroke:none;stroke-width:8;stroke-linecap:round;stroke-linejoin:round;stroke-miterlimit:4;stroke-dasharray:none;stroke-opacity:1"
         d="m 56.120168,110.70723 c -0.149888,0.002 -0.286582,-0.0166 -0.4375,-0.0312 -0.827192,-0.082 -1.59533,-0.42708 -2.21875,-0.96875 l 1.6875,-9.6875 c 0.110915,0.11367 0.850367,0.84818 0.9375,0.9375 l 0.375,-0.375 3.03125,8.34375 -0.5625,0.5625 c -0.74135,0.75959 -1.76329,1.20192 -2.8125,1.21875 z"
         id="path3455" />
      <path
         style="overflow:visible;opacity:0.238095;fill:url(#radialGradient3292);fill-opacity:1;stroke:none;stroke-width:8;stroke-linecap:round;stroke-linejoin:round;stroke-miterlimit:4;stroke-dasharray:none;stroke-opacity:1"
         d="m 14.506792,66.415887 c 0.049,-0.141669 0.1136,-0.263628 0.179,-0.400427 0.36002,-0.749244 0.94696,-1.353049 1.66919,-1.753611 l 8.52611,4.899052 c -0.14475,0.06535 -1.08787,0.508989 -1.2016,0.560318 l 0.22412,0.480642 -8.87731,-0.0053 -0.33619,-0.720964 c -0.46022,-0.956437 -0.52635,-2.068031 -0.18332,-3.059723 z"
         id="path3290" />
      <path
         id="path3286"
         d="m 30.120168,51.019936 c -0.149888,-0.0024 -0.286582,0.01658 -0.4375,0.03125 -0.827196,0.08205 -1.595326,0.427082 -2.218746,0.96875 l 1.687496,9.6875 c 0.110915,-0.113676 0.850367,-0.848179 0.9375,-0.9375 l 0.375,0.375 3.03125,-8.34375 -0.5625,-0.5625 c -0.74135,-0.759594 -1.76329,-1.201919 -2.8125,-1.21875 z"
         style="overflow:visible;opacity:0.77619;fill:url(#radialGradient3288);fill-opacity:1;stroke:none;stroke-width:8;stroke-linecap:round;stroke-linejoin:round;stroke-miterlimit:4;stroke-dasharray:none;stroke-opacity:1" />
      <path
         id="path3254"
         d="m 117.66428,46.415888 c -0.049,-0.14167 -0.1136,-0.263629 -0.179,-0.400428 -0.36002,-0.749243 -0.94696,-1.353049 -1.66919,-1.753611 l -8.52611,4.899052 c 0.14476,0.06535 1.08787,0.508989 1.20161,0.560318 l -0.22413,0.480642 8.87731,-0.0053 0.33619,-0.720964 c 0.46023,-0.956437 0.52635,-2.068031 0.18332,-3.059722 z"
         style="overflow:visible;opacity:0.371429;fill:url(#radialGradient3256);fill-opacity:1;stroke:none;stroke-width:8;stroke-linecap:round;stroke-linejoin:round;stroke-miterlimit:4;stroke-dasharray:none;stroke-opacity:1" />
      <path
         style="overflow:visible;opacity:0.871429;fill:url(#radialGradient3004);fill-opacity:1;stroke:none;stroke-width:8;stroke-linecap:round;stroke-linejoin:round;stroke-miterlimit:4;stroke-dasharray:none;stroke-opacity:1"
         d="m 101.12017,31.019936 c -0.14989,-0.0024 -0.28658,0.01658 -0.4375,0.03125 -0.82719,0.08205 -1.595328,0.427082 -2.218748,0.96875 l 1.687498,9.6875 c 0.11092,-0.113676 0.85037,-0.848179 0.9375,-0.9375 l 0.375,0.375 3.03125,-8.34375 -0.5625,-0.5625 c -0.74135,-0.759594 -1.76329,-1.201919 -2.8125,-1.21875 z"
         id="path2989" />
      <path
         style="overflow:visible;opacity:0.285714;fill:none;stroke:url(#radialGradient2987);stroke-width:8;stroke-linecap:round;stroke-linejoin:round;stroke-miterlimit:4;stroke-dasharray:none;stroke-opacity:1"
         id="path2979"
         d="M 56.107908,81.142968 C 47.959909,72.792683 30.344769,54.738686 30.344769,54.738686 L 17.713912,67.686685 56.107908,107.04154 113.71392,47.988686 101.08134,35.041546 c 0,0 -35.262003,36.147423 -44.973432,46.101422 z" />
      <path
         style="overflow:visible;fill:url(#radialGradient2954);fill-opacity:1"
         id="path24"
         d="M 56.107908,81.142968 C 47.959909,72.792683 30.344769,54.738686 30.344769,54.738686 L 17.713912,67.686685 56.107908,107.04154 113.71392,47.988686 101.08134,35.041546 c 0,0 -35.262003,36.147423 -44.973432,46.101422 z" />
      <path
         style="overflow:visible;fill:url(#linearGradient2977);fill-opacity:1"
         d="m 101.08892,35.051186 c 0,0 -35.257323,36.139751 -44.968752,46.09375 -8.147999,-8.350285 -25.78125,-26.40625 -25.78125,-26.40625 l -12.624996,12.9375 16.468746,16.875 c 0.188911,4.87e-4 0.373377,0 0.5625,0 17.529799,0 34.136291,-2.093139 49.03125,-5.84375 l 29.937502,-30.71875 z"
         id="path2964" />
      <path
         d="M 56.107908,81.142968 C 47.959909,72.792683 30.344769,54.738686 30.344769,54.738686 L 17.713912,67.686685 56.107908,107.04154 113.71392,47.988686 101.08134,35.041546 c 0,0 -35.262003,36.147423 -44.973432,46.101422 z"
         id="path3413"
         style="overflow:visible;fill:none;fill-opacity:1;stroke:url(#linearGradient3421);stroke-opacity:1" />
      <path
         style="overflow:visible;fill:url(#linearGradient3442);fill-opacity:1"
         d="m 101.08892,35.051186 c 0,0 -0.40024,0.431341 -0.40625,0.4375 l 12.1875,12.28125 -29.999998,30.21875 c -14.927199,3.687634 -31.057257,6.218746 -48.625,6.21875 -0.126355,0 -0.250091,-10e-7 -0.375,0 l 0.3125,0.34375 c 0.188911,4.87e-4 0.373377,0 0.5625,0 17.529799,0 34.136291,-2.093139 49.03125,-5.84375 l 29.937498,-30.71875 z"
         id="path3427"
         sodipodi:nodetypes="ccccsccsccc" />
      <path
         style="overflow:visible;fill:url(#linearGradient3453);fill-opacity:1"
         d="m 101.08892,35.051186 c 0,0 -35.257319,36.139751 -44.968748,46.09375 -8.147999,-8.350285 -25.78125,-26.40625 -25.78125,-26.40625 l -12.625,12.9375 0.5,0.5 12.125,-12.4375 c 0,0 17.633251,18.055965 25.78125,26.40625 9.711429,-9.953999 44.968748,-46.09375 44.968748,-46.09375 l 12.125,12.4375 0.5,-0.5 z"
         id="path3444" />
    </g>
  </g>
</svg>
