<?xml version="1.0" encoding="UTF-8" standalone="no"?>
<!-- Created with Inkscape (http://www.inkscape.org/) -->

<svg
   width="128"
   height="128"
   id="svg2"
   sodipodi:version="0.32"
   inkscape:version="1.2.2 (b0a8486541, 2022-12-01)"
   version="1.0"
   sodipodi:docname="vcs-normal.svg"
   inkscape:output_extension="org.inkscape.output.svgz.inkscape"
   inkscape:export-filename="/home/pinheiro/pics/oxygen-icons/scalable/emblems/vcs-removed.png"
   inkscape:export-xdpi="90"
   inkscape:export-ydpi="90"
   sodipodi:modified="TRUE"
   xmlns:inkscape="http://www.inkscape.org/namespaces/inkscape"
   xmlns:sodipodi="http://sodipodi.sourceforge.net/DTD/sodipodi-0.dtd"
   xmlns:xlink="http://www.w3.org/1999/xlink"
   xmlns="http://www.w3.org/2000/svg"
   xmlns:svg="http://www.w3.org/2000/svg"
   xmlns:rdf="http://www.w3.org/1999/02/22-rdf-syntax-ns#"
   xmlns:cc="http://creativecommons.org/ns#"
   xmlns:dc="http://purl.org/dc/elements/1.1/">
  <defs
     id="defs4">
    <clipPath
       clipPathUnits="userSpaceOnUse"
       id="clipPath3393">
      <path
         style="opacity:1;fill:#dbdbdb;fill-opacity:1;stroke:none;stroke-width:0.5;stroke-linecap:round;stroke-linejoin:round;stroke-miterlimit:4;stroke-dasharray:none;stroke-opacity:1"
         d="M 13.8125,8 C 10.584167,8 8,10.584167 8,13.8125 L 8,114.1875 C 8,117.41583 10.584167,120 13.8125,120 L 114.1875,120 C 117.41583,120 120,117.41583 120,114.1875 L 120,13.8125 C 120,10.584167 117.41583,8 114.1875,8 L 13.8125,8 z M 21.8125,16 L 106.1875,16 C 109.41583,16 112,18.584167 112,21.8125 L 112,106.1875 C 112,109.41583 109.41583,112 106.1875,112 L 21.8125,112 C 18.584166,112 16,109.41583 16,106.1875 L 16,21.8125 C 16,18.584166 18.584167,16 21.8125,16 z "
         id="path3395" />
    </clipPath>
    <linearGradient
       id="linearGradient3584">
      <stop
         style="stop-color:#f0fa00;stop-opacity:1"
         offset="0"
         id="stop3586" />
      <stop
         style="stop-color:#5c5300;stop-opacity:1"
         offset="1"
         id="stop3588" />
    </linearGradient>
    <linearGradient
       id="linearGradient3588-1">
      <stop
         id="stop3590-7-8"
         offset="0"
         style="stop-color:#00a6fa;stop-opacity:1;" />
      <stop
         id="stop3592-9"
         offset="1"
         style="stop-color:#003d5c;stop-opacity:1;" />
    </linearGradient>
    <inkscape:perspective
       sodipodi:type="inkscape:persp3d"
       inkscape:vp_x="0 : 64 : 1"
       inkscape:vp_y="0 : 1000 : 0"
       inkscape:vp_z="128 : 64 : 1"
       inkscape:persp3d-origin="64 : 42.666667 : 1"
       id="perspective27" />
    <linearGradient
       inkscape:collect="always"
       id="linearGradient3185">
      <stop
         style="stop-color:#eeeeee;stop-opacity:1;"
         offset="0"
         id="stop3187" />
      <stop
         style="stop-color:#eeeeee;stop-opacity:0;"
         offset="1"
         id="stop3189" />
    </linearGradient>
    <linearGradient
       inkscape:collect="always"
       id="linearGradient3133">
      <stop
         style="stop-color:#646661;stop-opacity:1"
         offset="0"
         id="stop3135" />
      <stop
         style="stop-color:#111111;stop-opacity:1"
         offset="1"
         id="stop3137" />
    </linearGradient>
    <linearGradient
       inkscape:collect="always"
       xlink:href="#linearGradient3185"
       id="linearGradient3191"
       x1="112"
       y1="98.41069"
       x2="61.978939"
       y2="11.771669"
       gradientUnits="userSpaceOnUse" />
    <clipPath
       clipPathUnits="userSpaceOnUse"
       id="clipPath3393-7">
      <path
         style="opacity:1;fill:#dbdbdb;fill-opacity:1;stroke:none;stroke-width:0.5;stroke-linecap:round;stroke-linejoin:round;stroke-miterlimit:4;stroke-dasharray:none;stroke-opacity:1"
         d="M 13.8125,8 C 10.584167,8 8,10.584167 8,13.8125 L 8,114.1875 C 8,117.41583 10.584167,120 13.8125,120 L 114.1875,120 C 117.41583,120 120,117.41583 120,114.1875 L 120,13.8125 C 120,10.584167 117.41583,8 114.1875,8 L 13.8125,8 z M 21.8125,16 L 106.1875,16 C 109.41583,16 112,18.584167 112,21.8125 L 112,106.1875 C 112,109.41583 109.41583,112 106.1875,112 L 21.8125,112 C 18.584166,112 16,109.41583 16,106.1875 L 16,21.8125 C 16,18.584166 18.584167,16 21.8125,16 z "
         id="path3395-6" />
    </clipPath>
    <radialGradient
       inkscape:collect="always"
       xlink:href="#linearGradient3133"
       id="radialGradient3413"
       gradientUnits="userSpaceOnUse"
       gradientTransform="matrix(2.1360441,0,0,-1.446027,-72.706823,154.18422)"
       cx="64"
       cy="35.686314"
       fx="64"
       fy="35.686314"
       r="40" />
    <radialGradient
       inkscape:collect="always"
       xlink:href="#linearGradient3133"
       id="radialGradient3417"
       gradientUnits="userSpaceOnUse"
       gradientTransform="matrix(2.1360441,0,0,1.446027,-72.706823,-25.184217)"
       cx="64"
       cy="35.686314"
       fx="64"
       fy="35.686314"
       r="40" />
    <radialGradient
       r="3"
       fy="7.2444444"
       fx="4.0296297"
       cy="6"
       cx="4"
       gradientTransform="matrix(1.3333333,0,0,1,-1.3333333,0)"
       gradientUnits="userSpaceOnUse"
       id="radialGradient3601"
       xlink:href="#linearGradient3588"
       inkscape:collect="always" />
    <radialGradient
       gradientTransform="matrix(1.3333333,0,0,1,-1.3333333,0)"
       gradientUnits="userSpaceOnUse"
       r="3"
       fy="7.2444444"
       fx="4.0296297"
       cy="6"
       cx="4"
       id="radialGradient3594"
       xlink:href="#linearGradient3588"
       inkscape:collect="always" />
    <radialGradient
       r="40"
       fy="35.686314"
       fx="64"
       cy="35.686314"
       cx="64"
       gradientTransform="matrix(0.1632799,0,0,0.108452,-6.3923031,-2.7638154)"
       gradientUnits="userSpaceOnUse"
       id="radialGradient2811"
       xlink:href="#linearGradient3133-5"
       inkscape:collect="always" />
    <radialGradient
       r="40"
       fy="35.686314"
       fx="64"
       cy="35.686314"
       cx="64"
       gradientTransform="matrix(0.1632799,0,0,0.108452,-6.3923031,-2.7638154)"
       gradientUnits="userSpaceOnUse"
       id="radialGradient3153"
       xlink:href="#linearGradient3133-5"
       inkscape:collect="always" />
    <radialGradient
       r="40"
       fy="35.686314"
       fx="64"
       cy="35.686314"
       cx="64"
       gradientTransform="matrix(2.1360441,0,0,1.446027,-72.706823,-25.184217)"
       gradientUnits="userSpaceOnUse"
       id="radialGradient3417-2"
       xlink:href="#linearGradient3133-5"
       inkscape:collect="always" />
    <radialGradient
       r="40"
       fy="35.686314"
       fx="64"
       cy="35.686314"
       cx="64"
       gradientTransform="matrix(2.1360441,0,0,-1.446027,-72.706823,154.18422)"
       gradientUnits="userSpaceOnUse"
       id="radialGradient3413-1"
       xlink:href="#linearGradient3133-5"
       inkscape:collect="always" />
    <clipPath
       id="clipPath3393-4"
       clipPathUnits="userSpaceOnUse">
      <path
         id="path3395-8"
         d="M 13.8125,8 C 10.584167,8 8,10.584167 8,13.8125 L 8,114.1875 C 8,117.41583 10.584167,120 13.8125,120 L 114.1875,120 C 117.41583,120 120,117.41583 120,114.1875 L 120,13.8125 C 120,10.584167 117.41583,8 114.1875,8 L 13.8125,8 z M 21.8125,16 L 106.1875,16 C 109.41583,16 112,18.584167 112,21.8125 L 112,106.1875 C 112,109.41583 109.41583,112 106.1875,112 L 21.8125,112 C 18.584166,112 16,109.41583 16,106.1875 L 16,21.8125 C 16,18.584166 18.584167,16 21.8125,16 z "
         style="opacity:1;fill:#dbdbdb;fill-opacity:1;stroke:none;stroke-width:0.5;stroke-linecap:round;stroke-linejoin:round;stroke-miterlimit:4;stroke-dasharray:none;stroke-opacity:1" />
    </clipPath>
    <linearGradient
       gradientUnits="userSpaceOnUse"
       y2="11.771669"
       x2="61.978939"
       y1="98.41069"
       x1="112"
       id="linearGradient3191-9"
       xlink:href="#linearGradient3185-7"
       inkscape:collect="always" />
    <linearGradient
       id="linearGradient3133-5"
       inkscape:collect="always">
      <stop
         id="stop3135-6"
         offset="0"
         style="stop-color:#646661;stop-opacity:1" />
      <stop
         id="stop3137-3"
         offset="1"
         style="stop-color:#111111;stop-opacity:1" />
    </linearGradient>
    <linearGradient
       id="linearGradient3185-7"
       inkscape:collect="always">
      <stop
         id="stop3187-3"
         offset="0"
         style="stop-color:#eeeeee;stop-opacity:1;" />
      <stop
         id="stop3189-6"
         offset="1"
         style="stop-color:#eeeeee;stop-opacity:0;" />
    </linearGradient>
    <inkscape:perspective
       id="perspective24"
       inkscape:persp3d-origin="4 : 2.6666667 : 1"
       inkscape:vp_z="8 : 4 : 1"
       inkscape:vp_y="0 : 1000 : 0"
       inkscape:vp_x="0 : 4 : 1"
       sodipodi:type="inkscape:persp3d" />
    <linearGradient
       id="linearGradient3588">
      <stop
         id="stop3590"
         offset="0"
         style="stop-color:#bbfa00;stop-opacity:1;" />
      <stop
         id="stop3592"
         offset="1"
         style="stop-color:#3a5c00;stop-opacity:1;" />
    </linearGradient>
    <radialGradient
       inkscape:collect="always"
       xlink:href="#linearGradient3588"
       id="radialGradient2885"
       gradientUnits="userSpaceOnUse"
       cx="5.1490483"
       cy="5.801126"
       fx="5.1490483"
       fy="6.801126"
       r="3"
       gradientTransform="matrix(16,0,0,16,8,-8)" />
    <radialGradient
       gradientUnits="userSpaceOnUse"
       gradientTransform="matrix(4.0000002,0,0,6.1039914,-12.000001,-22.519957)"
       r="1"
       fy="5"
       fx="4"
       cy="5"
       cx="4"
       id="radialGradient3595"
       xlink:href="#linearGradient3597"
       inkscape:collect="always" />
    <radialGradient
       r="3"
       fy="6.977778"
       fx="4"
       cy="5.9407406"
       cx="4"
       gradientTransform="matrix(1.3333333,0,0,1,-1.3333333,0)"
       gradientUnits="userSpaceOnUse"
       id="radialGradient3767"
       xlink:href="#linearGradient3588-3-1"
       inkscape:collect="always" />
    <radialGradient
       r="3"
       fy="7.2444444"
       fx="4.0296297"
       cy="6"
       cx="4"
       gradientTransform="matrix(1.3333333,0,0,1,-1.3333333,0)"
       gradientUnits="userSpaceOnUse"
       id="radialGradient3764"
       xlink:href="#linearGradient3588-3-1"
       inkscape:collect="always" />
    <radialGradient
       r="3"
       fy="7.2444444"
       fx="4.0296297"
       cy="6"
       cx="4"
       gradientTransform="matrix(1.3333333,0,0,1,-1.3333333,0)"
       gradientUnits="userSpaceOnUse"
       id="radialGradient3601-9"
       xlink:href="#linearGradient3588-3-1"
       inkscape:collect="always" />
    <radialGradient
       r="40"
       fy="35.686314"
       fx="64"
       cy="35.686314"
       cx="64"
       gradientTransform="matrix(0.1632799,0,0,0.108452,-6.3923031,-2.7638154)"
       gradientUnits="userSpaceOnUse"
       id="radialGradient2811-0"
       xlink:href="#linearGradient3133-8"
       inkscape:collect="always" />
    <radialGradient
       r="40"
       fy="35.686314"
       fx="64"
       cy="35.686314"
       cx="64"
       gradientTransform="matrix(0.1632799,0,0,0.108452,-6.3923031,-2.7638154)"
       gradientUnits="userSpaceOnUse"
       id="radialGradient3153-3"
       xlink:href="#linearGradient3133-8"
       inkscape:collect="always" />
    <radialGradient
       r="40"
       fy="35.686314"
       fx="64"
       cy="35.686314"
       cx="64"
       gradientTransform="matrix(2.1360441,0,0,1.446027,-72.706823,-25.184217)"
       gradientUnits="userSpaceOnUse"
       id="radialGradient3417-0"
       xlink:href="#linearGradient3133-8"
       inkscape:collect="always" />
    <radialGradient
       r="40"
       fy="35.686314"
       fx="64"
       cy="35.686314"
       cx="64"
       gradientTransform="matrix(2.1360441,0,0,-1.446027,-72.706823,154.18422)"
       gradientUnits="userSpaceOnUse"
       id="radialGradient3413-3"
       xlink:href="#linearGradient3133-8"
       inkscape:collect="always" />
    <clipPath
       id="clipPath3393-6"
       clipPathUnits="userSpaceOnUse">
      <path
         id="path3395-4"
         d="M 13.8125,8 C 10.584167,8 8,10.584167 8,13.8125 L 8,114.1875 C 8,117.41583 10.584167,120 13.8125,120 L 114.1875,120 C 117.41583,120 120,117.41583 120,114.1875 L 120,13.8125 C 120,10.584167 117.41583,8 114.1875,8 L 13.8125,8 z M 21.8125,16 L 106.1875,16 C 109.41583,16 112,18.584167 112,21.8125 L 112,106.1875 C 112,109.41583 109.41583,112 106.1875,112 L 21.8125,112 C 18.584166,112 16,109.41583 16,106.1875 L 16,21.8125 C 16,18.584166 18.584167,16 21.8125,16 z "
         style="opacity:1;fill:#dbdbdb;fill-opacity:1;stroke:none;stroke-width:0.5;stroke-linecap:round;stroke-linejoin:round;stroke-miterlimit:4;stroke-dasharray:none;stroke-opacity:1" />
    </clipPath>
    <linearGradient
       gradientUnits="userSpaceOnUse"
       y2="11.771669"
       x2="61.978939"
       y1="98.41069"
       x1="112"
       id="linearGradient3191-7"
       xlink:href="#linearGradient3185-4"
       inkscape:collect="always" />
    <linearGradient
       id="linearGradient3133-8"
       inkscape:collect="always">
      <stop
         id="stop3135-9"
         offset="0"
         style="stop-color:#646661;stop-opacity:1" />
      <stop
         id="stop3137-7"
         offset="1"
         style="stop-color:#111111;stop-opacity:1" />
    </linearGradient>
    <linearGradient
       id="linearGradient3185-4"
       inkscape:collect="always">
      <stop
         id="stop3187-8"
         offset="0"
         style="stop-color:#eeeeee;stop-opacity:1;" />
      <stop
         id="stop3189-8"
         offset="1"
         style="stop-color:#eeeeee;stop-opacity:0;" />
    </linearGradient>
    <inkscape:perspective
       id="perspective24-0"
       inkscape:persp3d-origin="4 : 2.6666667 : 1"
       inkscape:vp_z="8 : 4 : 1"
       inkscape:vp_y="0 : 1000 : 0"
       inkscape:vp_x="0 : 4 : 1"
       sodipodi:type="inkscape:persp3d" />
    <linearGradient
       id="linearGradient3588-3-1"
       inkscape:collect="always">
      <stop
         id="stop3590-8-5"
         offset="0"
         style="stop-color:#00a6fa;stop-opacity:1;" />
      <stop
         id="stop3592-6"
         offset="1"
         style="stop-color:#003d5c;stop-opacity:1;" />
    </linearGradient>
    <linearGradient
       inkscape:collect="always"
       id="linearGradient3597">
      <stop
         style="stop-color:#fad900;stop-opacity:1"
         offset="0"
         id="stop3599" />
      <stop
         style="stop-color:#d57d00;stop-opacity:1"
         offset="1"
         id="stop3601" />
    </linearGradient>
    <radialGradient
       r="3"
       fy="7.2444444"
       fx="4.0296297"
       cy="6"
       cx="4"
       gradientTransform="matrix(1.3333333,0,0,1,-1.3333333,0)"
       gradientUnits="userSpaceOnUse"
       id="radialGradient3679"
       xlink:href="#linearGradient3673"
       inkscape:collect="always" />
    <radialGradient
       r="3"
       fy="7.2444444"
       fx="4.0296297"
       cy="6"
       cx="4"
       gradientTransform="matrix(1.3333333,0,0,1,-1.3333333,0)"
       gradientUnits="userSpaceOnUse"
       id="radialGradient3601-5"
       xlink:href="#linearGradient3588-6"
       inkscape:collect="always" />
    <radialGradient
       gradientTransform="matrix(1.3333333,0,0,1,-1.3333333,0)"
       gradientUnits="userSpaceOnUse"
       r="3"
       fy="7.2444444"
       fx="4.0296297"
       cy="6"
       cx="4"
       id="radialGradient3594-8"
       xlink:href="#linearGradient3588-6"
       inkscape:collect="always" />
    <radialGradient
       r="40"
       fy="35.686314"
       fx="64"
       cy="35.686314"
       cx="64"
       gradientTransform="matrix(0.1632799,0,0,0.108452,-6.3923031,-2.7638154)"
       gradientUnits="userSpaceOnUse"
       id="radialGradient2811-3"
       xlink:href="#linearGradient3133-9"
       inkscape:collect="always" />
    <radialGradient
       r="40"
       fy="35.686314"
       fx="64"
       cy="35.686314"
       cx="64"
       gradientTransform="matrix(0.1632799,0,0,0.108452,-6.3923031,-2.7638154)"
       gradientUnits="userSpaceOnUse"
       id="radialGradient3153-6"
       xlink:href="#linearGradient3133-9"
       inkscape:collect="always" />
    <radialGradient
       r="40"
       fy="35.686314"
       fx="64"
       cy="35.686314"
       cx="64"
       gradientTransform="matrix(2.1360441,0,0,1.446027,-72.706823,-25.184217)"
       gradientUnits="userSpaceOnUse"
       id="radialGradient3417-9"
       xlink:href="#linearGradient3133-9"
       inkscape:collect="always" />
    <radialGradient
       r="40"
       fy="35.686314"
       fx="64"
       cy="35.686314"
       cx="64"
       gradientTransform="matrix(2.1360441,0,0,-1.446027,-72.706823,154.18422)"
       gradientUnits="userSpaceOnUse"
       id="radialGradient3413-0"
       xlink:href="#linearGradient3133-9"
       inkscape:collect="always" />
    <clipPath
       id="clipPath3393-8"
       clipPathUnits="userSpaceOnUse">
      <path
         id="path3395-85"
         d="M 13.8125,8 C 10.584167,8 8,10.584167 8,13.8125 L 8,114.1875 C 8,117.41583 10.584167,120 13.8125,120 L 114.1875,120 C 117.41583,120 120,117.41583 120,114.1875 L 120,13.8125 C 120,10.584167 117.41583,8 114.1875,8 L 13.8125,8 z M 21.8125,16 L 106.1875,16 C 109.41583,16 112,18.584167 112,21.8125 L 112,106.1875 C 112,109.41583 109.41583,112 106.1875,112 L 21.8125,112 C 18.584166,112 16,109.41583 16,106.1875 L 16,21.8125 C 16,18.584166 18.584167,16 21.8125,16 z "
         style="opacity:1;fill:#dbdbdb;fill-opacity:1;stroke:none;stroke-width:0.5;stroke-linecap:round;stroke-linejoin:round;stroke-miterlimit:4;stroke-dasharray:none;stroke-opacity:1" />
    </clipPath>
    <linearGradient
       gradientUnits="userSpaceOnUse"
       y2="11.771669"
       x2="61.978939"
       y1="98.41069"
       x1="112"
       id="linearGradient3191-0"
       xlink:href="#linearGradient3185-48"
       inkscape:collect="always" />
    <linearGradient
       id="linearGradient3133-9"
       inkscape:collect="always">
      <stop
         id="stop3135-3"
         offset="0"
         style="stop-color:#646661;stop-opacity:1" />
      <stop
         id="stop3137-9"
         offset="1"
         style="stop-color:#111111;stop-opacity:1" />
    </linearGradient>
    <linearGradient
       id="linearGradient3185-48"
       inkscape:collect="always">
      <stop
         id="stop3187-1"
         offset="0"
         style="stop-color:#eeeeee;stop-opacity:1;" />
      <stop
         id="stop3189-2"
         offset="1"
         style="stop-color:#eeeeee;stop-opacity:0;" />
    </linearGradient>
    <inkscape:perspective
       id="perspective24-9"
       inkscape:persp3d-origin="4 : 2.6666667 : 1"
       inkscape:vp_z="8 : 4 : 1"
       inkscape:vp_y="0 : 1000 : 0"
       inkscape:vp_x="0 : 4 : 1"
       sodipodi:type="inkscape:persp3d" />
    <linearGradient
       id="linearGradient3588-6"
       inkscape:collect="always">
      <stop
         id="stop3590-5"
         offset="0"
         style="stop-color:#00a6fa;stop-opacity:1;" />
      <stop
         id="stop3592-63"
         offset="1"
         style="stop-color:#003d5c;stop-opacity:1;" />
    </linearGradient>
    <linearGradient
       id="linearGradient3673">
      <stop
         style="stop-color:#fa0000;stop-opacity:1;"
         offset="0"
         id="stop3675" />
      <stop
         style="stop-color:#5c0000;stop-opacity:1;"
         offset="1"
         id="stop3677" />
    </linearGradient>
    <radialGradient
       inkscape:collect="always"
       xlink:href="#linearGradient3673"
       id="radialGradient3716"
       cx="64"
       cy="100"
       fx="64"
       fy="100"
       r="40"
       gradientUnits="userSpaceOnUse"
       gradientTransform="matrix(1.256606,0,0,1.256606,-16.422785,-25.660601)" />
    <clipPath
       id="clipPath3393-60"
       clipPathUnits="userSpaceOnUse">
      <path
         id="path3395-66"
         d="M 13.8125,8 C 10.584167,8 8,10.584167 8,13.8125 L 8,114.1875 C 8,117.41583 10.584167,120 13.8125,120 L 114.1875,120 C 117.41583,120 120,117.41583 120,114.1875 L 120,13.8125 C 120,10.584167 117.41583,8 114.1875,8 L 13.8125,8 z M 21.8125,16 L 106.1875,16 C 109.41583,16 112,18.584167 112,21.8125 L 112,106.1875 C 112,109.41583 109.41583,112 106.1875,112 L 21.8125,112 C 18.584166,112 16,109.41583 16,106.1875 L 16,21.8125 C 16,18.584166 18.584167,16 21.8125,16 z "
         style="opacity:1;fill:#dbdbdb;fill-opacity:1;stroke:none;stroke-width:0.5;stroke-linecap:round;stroke-linejoin:round;stroke-miterlimit:4;stroke-dasharray:none;stroke-opacity:1" />
    </clipPath>
    <linearGradient
       inkscape:collect="always"
       xlink:href="#linearGradient5958"
       id="linearGradient3014"
       gradientUnits="userSpaceOnUse"
       gradientTransform="matrix(0,1.1176312,-1.1176312,0,-474.42238,-24.734155)"
       x1="-86.120354"
       y1="-381.09921"
       x2="-56.357521"
       y2="-373.1243" />
    <linearGradient
       gradientTransform="rotate(90,-90.0007,50.0022)"
       y2="-383.9971"
       x2="-12.0029"
       y1="-383.9971"
       x1="-84.002403"
       gradientUnits="userSpaceOnUse"
       id="linearGradient5958">
      <stop
         id="stop5960"
         style="stop-color:#008c00;stop-opacity:1;"
         offset="0" />
      <stop
         id="stop5962"
         style="stop-color:#00bf00;stop-opacity:1;"
         offset="1" />
    </linearGradient>
    <radialGradient
       inkscape:collect="always"
       xlink:href="#linearGradient4770"
       id="radialGradient3012"
       gradientUnits="userSpaceOnUse"
       cx="345.80753"
       cy="85.250488"
       fx="345.80753"
       fy="85.250488"
       r="36"
       gradientTransform="matrix(0.16666015,-0.6402591,0.78219637,0.20360652,-165.59601,110.83481)" />
    <linearGradient
       gradientTransform="rotate(90,-90.0007,50.0022)"
       y2="-383.9971"
       x2="-12.0029"
       y1="-383.9971"
       x1="-84.002403"
       gradientUnits="userSpaceOnUse"
       id="linearGradient4770">
      <stop
         id="stop4772"
         style="stop-color:#e0ff00;stop-opacity:1;"
         offset="0" />
      <stop
         id="stop4774"
         style="stop-color:#e8f500;stop-opacity:0;"
         offset="1" />
    </linearGradient>
    <linearGradient
       id="linearGradient4296">
      <stop
         id="stop4298"
         offset="0"
         style="stop-color:#ff0000;stop-opacity:1;" />
      <stop
         id="stop4300"
         offset="1"
         style="stop-color:#650000;stop-opacity:1;" />
    </linearGradient>
    <linearGradient
       inkscape:collect="always"
       xlink:href="#linearGradient3711"
       id="linearGradient3003"
       gradientUnits="userSpaceOnUse"
       gradientTransform="matrix(0,0.92913045,-0.92913045,0,-58.643769,103.3069)"
       x1="-80.00296"
       y1="-131.93112"
       x2="-45.096584"
       y2="-131.93112" />
    <linearGradient
       gradientTransform="rotate(90,-90.0007,50.0022)"
       y2="-383.9975"
       x2="-23.516129"
       y1="-383.9971"
       x1="-84.002403"
       gradientUnits="userSpaceOnUse"
       id="linearGradient3711">
      <stop
         id="stop3713"
         style="stop-color:white;stop-opacity:1;"
         offset="0" />
      <stop
         id="stop3715"
         style="stop-color:white;stop-opacity:0;"
         offset="1" />
    </linearGradient>
    <linearGradient
       inkscape:collect="always"
       xlink:href="#linearGradient6740"
       id="linearGradient3008"
       gradientUnits="userSpaceOnUse"
       gradientTransform="translate(20.000035,-56.000003)"
       x1="117.81589"
       y1="103.01254"
       x2="90.537666"
       y2="76.633896" />
    <linearGradient
       id="linearGradient6740">
      <stop
         style="stop-color:#4d0000;stop-opacity:0;"
         offset="0"
         id="stop6742" />
      <stop
         id="stop6748"
         offset="0.5"
         style="stop-color:#4d0000;stop-opacity:1;" />
      <stop
         style="stop-color:#4d0000;stop-opacity:0;"
         offset="1"
         id="stop6744" />
    </linearGradient>
  </defs>
  <sodipodi:namedview
     id="base"
     pagecolor="#ffffff"
     bordercolor="#666666"
     borderopacity="1.0"
     gridtolerance="10000"
     guidetolerance="10"
     objecttolerance="10"
     inkscape:pageopacity="0"
     inkscape:pageshadow="2"
     inkscape:zoom="3.5189612"
     inkscape:cx="72.464567"
     inkscape:cy="68.912382"
     inkscape:document-units="px"
     inkscape:current-layer="layer1"
     width="128px"
     height="128px"
     showgrid="true"
     inkscape:window-width="1862"
     inkscape:window-height="1019"
     inkscape:window-x="58"
     inkscape:window-y="34"
     inkscape:grid-points="true"
     inkscape:window-maximized="1"
     inkscape:showpageshadow="2"
     inkscape:pagecheckerboard="0"
     inkscape:deskcolor="#d1d1d1">
    <inkscape:grid
       id="GridFromPre046Settings"
       type="xygrid"
       originx="0"
       originy="0"
       spacingx="4"
       spacingy="4"
       color="#0000ff"
       empcolor="#0000ff"
       opacity="0.2"
       empopacity="0.4"
       empspacing="2" />
  </sodipodi:namedview>
  <metadata
     id="metadata7">
    <rdf:RDF>
      <cc:Work
         rdf:about="">
        <dc:format>image/svg+xml</dc:format>
        <dc:type
           rdf:resource="http://purl.org/dc/dcmitype/StillImage" />
      </cc:Work>
    </rdf:RDF>
  </metadata>
  <g
     inkscape:label="Layer 1"
     inkscape:groupmode="layer"
     id="layer1"
     style="display:inline"
     transform="matrix(1.552813,0,0,1.552813,-35.380019,-35.380033)">
    <circle
       style="fill:url(#linearGradient3014);fill-opacity:1;stroke-width:1.11763"
       r="40.234726"
       cx="-45.254807"
       cy="-78.383705"
       id="circle3581_2_"
       transform="rotate(165)" />
    <circle
       transform="rotate(165.00001)"
       id="circle4383"
       cy="-87.556473"
       cx="-42.797005"
       r="30.176044"
       style="fill:url(#radialGradient3012);fill-opacity:1;stroke-width:0.838223" />
    <circle
       style="fill:url(#linearGradient5167);fill-opacity:1;stroke-width:1.11763"
       r="40.234722"
       cx="-78.383652"
       cy="45.254807"
       id="circle5165"
       transform="matrix(-0.96592582,-0.25881908,-0.25881908,0.96592582,0,0)" />
    <g
       id="g6850"
       transform="matrix(0.88925219,0.88925219,-0.88925219,0.88925219,-12.475719,-76.501869)"
       style="display:none">
      <path
         sodipodi:nodetypes="ccccccccccccc"
         style="display:inline;fill:none;fill-opacity:1;fill-rule:evenodd;stroke:url(#linearGradient3008);stroke-width:4;stroke-linecap:round;stroke-linejoin:round;stroke-miterlimit:4;stroke-opacity:1"
         d="m 118.00003,15.999997 v 16 h -16 v 8 h 16 v 16 h 8 v -16 h 16 v -8 h -16 v -16 z"
         id="path4123" />
      <path
         sodipodi:nodetypes="ccccccccccccc"
         id="rect3232"
         d="m 118.00003,15.999997 v 16 h -16 v 8 h 16 v 16 h 8 v -16 h 16 v -8 h -16 v -16 z"
         style="fill:#ffffff;fill-opacity:1;fill-rule:evenodd;stroke:none;stroke-width:4;stroke-linecap:round;stroke-linejoin:round;stroke-miterlimit:4;stroke-opacity:1" />
    </g>
    <path
       id="path24"
       style="display:inline;overflow:visible;fill:#ffffff;fill-opacity:1;stroke-width:6.43992548;stroke:#000000;stroke-opacity:0.25449249;stroke-dasharray:none"
       d="M 81.809221,45.381837 C 74.397112,52.980144 66.985002,60.578452 59.572893,68.176759 55.238307,63.734653 50.903317,59.292942 46.568987,54.850587 c -2.424706,2.485456 -4.847566,4.972714 -7.273438,7.457031 6.760299,6.926578 13.518224,13.855475 20.277344,20.783203 9.99096,-10.241463 19.980519,-20.484295 29.972656,-30.724609 -2.426363,-2.484472 -4.850199,-4.971414 -7.27539,-7.457031 -0.153646,0.157552 -0.307292,0.315104 -0.460938,0.472656 z" />
    <path
       id="path3256"
       style="display:inline;overflow:visible;fill:#ffffff;fill-opacity:1;stroke-width:4.49764433;stroke:none;stroke-opacity:0.17089814;stroke-dasharray:none"
       d="M 81.809221,45.381837 C 74.397112,52.980144 66.985002,60.578452 59.572893,68.176759 55.238307,63.734653 50.903317,59.292942 46.568987,54.850587 c -2.424706,2.485456 -4.847566,4.972714 -7.273438,7.457031 6.760299,6.926578 13.518224,13.855475 20.277344,20.783203 9.99096,-10.241463 19.980519,-20.484295 29.972656,-30.724609 -2.426363,-2.484472 -4.850199,-4.971414 -7.27539,-7.457031 -0.153646,0.157552 -0.307292,0.315104 -0.460938,0.472656 z" />
    <path
       style="display:inline;opacity:0.8;fill:url(#linearGradient3003);fill-opacity:1;stroke-width:0.690273"
       d="m 64.000031,28.973772 c -14.268287,0 -26.190741,10.075336 -29.064363,23.489583 5.727907,5.339605 16.596313,8.942877 29.064363,8.942877 12.468064,0 23.336456,-3.603272 29.064358,-8.942877 C 90.190781,39.049108 78.268314,28.973772 64.000031,28.973772 Z"
       id="circle16776" />
  </g>
</svg>
